verilog/final_lo.vcd
$date
	Thu Mar 17 16:17:15 2022
$end
$version
	Icarus Verilog
$end
$timescale
	1ps
$end
$scope module tb_lo $end
$var wire 1 ! sin_out $end
$var wire 1 " cos_out $end
$var reg 1 # clk_ext $end
$var reg 1 $ rst_ext $end
$var real 1 % clk_pd $end
$scope module bank1 $end
$var wire 1 # clk_ext $end
$var wire 1 " cos_out $end
$var wire 1 $ rst_ext $end
$var wire 1 ! sin_out $end
$var wire 1 & rstb $end
$var wire 2 ' rom_out [1:0] $end
$var wire 2 ( out_xor [1:0] $end
$var wire 16 ) f_clk [15:0] $end
$var wire 20 * decoder_out [19:0] $end
$var wire 8 + counter_out [7:0] $end
$upscope $end
$upscope $end
$enddefinitions $end
#0
$dumpvars
bx +
bx *
bx )
bx (
bx '
x&
r195.3125 %
0$
0#
x"
x!
$end
#1000
bx0 )
#195313
1#
#196313
bx )
#390626
0#
#391626
bx0 )
#392626
1&
#450000
1$
#451000
0&
#452000
b0 )
b0 +
0"
0!
#453000
b0 *
#454000
b11 '
#455000
b11 (
#585939
1#
#781252
0#
#976565
1#
#1076565
0$
#1077565
1&
#1078565
b1 )
1"
1!
#1079565
b11 )
#1080565
b111 )
#1081565
b1111 )
#1082565
b11111 )
#1083565
b111111 )
#1084565
b1111111 )
#1085565
b11111111 )
#1086565
b111111111 )
#1087565
b1111111111 )
#1088565
b11111111111 )
#1089565
b111111111111 )
#1090565
b1111111111111 )
#1091565
b11111111111111 )
#1092565
b111111111111111 )
#1093565
b1111111111111111 )
#1171878
0#
#1172878
b1111111111111110 )
#1173878
0&
#1174878
b0 )
0"
0!
#1367191
1#
#1562504
0#
#1564504
1&
#1565504
1"
1!
#1757817
1#
#1758817
b1 )
#1759817
b11 )
#1760817
b111 )
#1761817
b1111 )
#1762817
b11111 )
#1763817
b111111 )
#1764817
b1111111 )
#1765817
b11111111 )
#1766817
b111111111 )
#1767817
b1111111111 )
#1768817
b11111111111 )
#1769817
b111111111111 )
#1770817
b1111111111111 )
#1771817
b11111111111111 )
#1772817
b111111111111111 )
#1773817
b1111111111111111 )
#1953130
0#
#1954130
b1111111111111110 )
#2148443
1#
#2149443
b1111111111111111 )
#2150443
b1 +
b1111111111111101 )
#2343756
0#
#2344756
b1111111111111100 )
#2539069
1#
#2540069
b1111111111111101 )
#2541069
b1111111111111111 )
#2542069
b1111111111111011 )
b11 +
#2543069
b1 *
#2544069
b10 '
#2545069
b10 (
#2546069
0!
#2734382
0#
#2735382
b1111111111111010 )
#2929695
1#
#2930695
b1111111111111011 )
#2931695
b10 +
b1111111111111001 )
#2932695
b10 *
#3125008
0#
#3126008
b1111111111111000 )
#3320321
1#
#3321321
b1111111111111001 )
#3322321
b1111111111111011 )
#3323321
b1111111111111111 )
#3324321
b1111111111110111 )
b110 +
#3325321
b100 *
#3515634
0#
#3516634
b1111111111110110 )
#3710947
1#
#3711947
b1111111111110111 )
#3712947
b111 +
b1111111111110101 )
#3713947
b0 *
#3714947
b11 '
#3715947
b11 (
#3716947
1!
#3906260
0#
#3907260
b1111111111110100 )
#4101573
1#
#4102573
b1111111111110101 )
#4103573
b1111111111110111 )
#4104573
b1111111111110011 )
b101 +
#4296886
0#
#4297886
b1111111111110010 )
#4492199
1#
#4493199
b1111111111110011 )
#4494199
b100 +
b1111111111110001 )
#4687512
0#
#4688512
b1111111111110000 )
#4882825
1#
#4883825
b1111111111110001 )
#4884825
b1111111111110011 )
#4885825
b1111111111110111 )
#4886825
b1111111111111111 )
#4887825
b1111111111101111 )
b1100 +
#5078138
0#
#5079138
b1111111111101110 )
#5273451
1#
#5274451
b1111111111101111 )
#5275451
b1101 +
b1111111111101101 )
#5276451
b1000 *
#5277451
b10 '
#5278451
b10 (
#5279451
0!
#5468764
0#
#5469764
b1111111111101100 )
#5664077
1#
#5665077
b1111111111101101 )
#5666077
b1111111111101111 )
#5667077
b1111111111101011 )
b1111 +
#5668077
b10000 *
#5859390
0#
#5860390
b1111111111101010 )
#6054703
1#
#6055703
b1111111111101011 )
#6056703
b1110 +
b1111111111101001 )
#6057703
b0 *
#6058703
b11 '
#6059703
b11 (
#6060703
1!
#6250016
0#
#6251016
b1111111111101000 )
#6445329
1#
#6446329
b1111111111101001 )
#6447329
b1111111111101011 )
#6448329
b1111111111101111 )
#6449329
b1111111111100111 )
b1010 +
#6640642
0#
#6641642
b1111111111100110 )
#6835955
1#
#6836955
b1111111111100111 )
#6837955
b1011 +
b1111111111100101 )
#6838955
b100000 *
#6839955
b10 '
#6840955
b10 (
#6841955
0!
#7031268
0#
#7032268
b1111111111100100 )
#7226581
1#
#7227581
b1111111111100101 )
#7228581
b1111111111100111 )
#7229581
b1111111111100011 )
b1001 +
#7230581
b0 *
#7231581
b11 '
#7232581
b11 (
#7233581
1!
#7421894
0#
#7422894
b1111111111100010 )
#7617207
1#
#7618207
b1111111111100011 )
#7619207
b1000 +
b1111111111100001 )
#7812520
0#
#7813520
b1111111111100000 )
#8007833
1#
#8008833
b1111111111100001 )
#8009833
b1111111111100011 )
#8010833
b1111111111100111 )
#8011833
b1111111111101111 )
#8012833
b1111111111111111 )
#8013833
b1111111111011111 )
b11000 +
#8203146
0#
#8204146
b1111111111011110 )
#8398459
1#
#8399459
b1111111111011111 )
#8400459
b11001 +
b1111111111011101 )
#8401459
b1000000 *
#8402459
b10 '
#8403459
b10 (
#8404459
0!
#8593772
0#
#8594772
b1111111111011100 )
#8789085
1#
#8790085
b1111111111011101 )
#8791085
b1111111111011111 )
#8792085
b1111111111011011 )
b11011 +
#8793085
b0 *
#8794085
b11 '
#8795085
b11 (
#8796085
1!
#8984398
0#
#8985398
b1111111111011010 )
#9179711
1#
#9180711
b1111111111011011 )
#9181711
b11010 +
b1111111111011001 )
#9375024
0#
#9376024
b1111111111011000 )
#9570337
1#
#9571337
b1111111111011001 )
#9572337
b1111111111011011 )
#9573337
b1111111111011111 )
#9574337
b1111111111010111 )
b11110 +
#9765650
0#
#9766650
b1111111111010110 )
#9960963
1#
#9961963
b1111111111010111 )
#9962963
b11111 +
b1111111111010101 )
#9963963
b10000000 *
#9964963
b10 '
#9965963
b10 (
#9966963
0!
#10156276
0#
#10157276
b1111111111010100 )
#10351589
1#
#10352589
b1111111111010101 )
#10353589
b1111111111010111 )
#10354589
b1111111111010011 )
b11101 +
#10355589
b0 *
#10356589
b11 '
#10357589
b11 (
#10358589
1!
#10546902
0#
#10547902
b1111111111010010 )
#10742215
1#
#10743215
b1111111111010011 )
#10744215
b11100 +
b1111111111010001 )
#10745215
b100000000 *
#10746215
b0 '
#10747215
b0 (
#10748215
0!
0"
#10937528
0#
#10938528
b1111111111010000 )
#11132841
1#
#11133841
b1111111111010001 )
#11134841
b1111111111010011 )
#11135841
b1111111111010111 )
#11136841
b1111111111011111 )
#11137841
b1111111111001111 )
b10100 +
#11138841
b0 *
#11139841
b11 '
#11140841
b11 (
#11141841
1!
1"
#11328154
0#
#11329154
b1111111111001110 )
#11523467
1#
#11524467
b1111111111001111 )
#11525467
b10101 +
b1111111111001101 )
#11718780
0#
#11719780
b1111111111001100 )
#11914093
1#
#11915093
b1111111111001101 )
#11916093
b1111111111001111 )
#11917093
b1111111111001011 )
b10111 +
#12109406
0#
#12110406
b1111111111001010 )
#12304719
1#
#12305719
b1111111111001011 )
#12306719
b10110 +
b1111111111001001 )
#12500032
0#
#12501032
b1111111111001000 )
#12695345
1#
#12696345
b1111111111001001 )
#12697345
b1111111111001011 )
#12698345
b1111111111001111 )
#12699345
b1111111111000111 )
b10010 +
#12890658
0#
#12891658
b1111111111000110 )
#13085971
1#
#13086971
b1111111111000111 )
#13087971
b10011 +
b1111111111000101 )
#13281284
0#
#13282284
b1111111111000100 )
#13476597
1#
#13477597
b1111111111000101 )
#13478597
b1111111111000111 )
#13479597
b1111111111000011 )
b10001 +
#13671910
0#
#13672910
b1111111111000010 )
#13867223
1#
#13868223
b1111111111000011 )
#13869223
b10000 +
b1111111111000001 )
#13870223
b1000000000 *
#13871223
b1 '
#13872223
b1 (
#13873223
0"
#14062536
0#
#14063536
b1111111111000000 )
#14257849
1#
#14258849
b1111111111000001 )
#14259849
b1111111111000011 )
#14260849
b1111111111000111 )
#14261849
b1111111111001111 )
#14262849
b1111111111011111 )
#14263849
b1111111111111111 )
#14264849
b1111111110111111 )
b110000 +
#14265849
b10000000000 *
#14266849
b10 '
#14267849
b10 (
#14268849
1"
0!
#14453162
0#
#14454162
b1111111110111110 )
#14648475
1#
#14649475
b1111111110111111 )
#14650475
b110001 +
b1111111110111101 )
#14651475
b0 *
#14652475
b11 '
#14653475
b11 (
#14654475
1!
#14843788
0#
#14844788
b1111111110111100 )
#15039101
1#
#15040101
b1111111110111101 )
#15041101
b1111111110111111 )
#15042101
b1111111110111011 )
b110011 +
#15234414
0#
#15235414
b1111111110111010 )
#15429727
1#
#15430727
b1111111110111011 )
#15431727
b110010 +
b1111111110111001 )
#15625040
0#
#15626040
b1111111110111000 )
#15820353
1#
#15821353
b1111111110111001 )
#15822353
b1111111110111011 )
#15823353
b1111111110111111 )
#15824353
b1111111110110111 )
b110110 +
#16015666
0#
#16016666
b1111111110110110 )
#16210979
1#
#16211979
b1111111110110111 )
#16212979
b110111 +
b1111111110110101 )
#16406292
0#
#16407292
b1111111110110100 )
#16601605
1#
#16602605
b1111111110110101 )
#16603605
b1111111110110111 )
#16604605
b1111111110110011 )
b110101 +
#16796918
0#
#16797918
b1111111110110010 )
#16992231
1#
#16993231
b1111111110110011 )
#16994231
b110100 +
b1111111110110001 )
#17187544
0#
#17188544
b1111111110110000 )
#17382857
1#
#17383857
b1111111110110001 )
#17384857
b1111111110110011 )
#17385857
b1111111110110111 )
#17386857
b1111111110111111 )
#17387857
b1111111110101111 )
b111100 +
#17388857
b100000000000 *
#17389857
b0 '
#17390857
b0 (
#17391857
0"
0!
#17578170
0#
#17579170
b1111111110101110 )
#17773483
1#
#17774483
b1111111110101111 )
#17775483
b111101 +
b1111111110101101 )
#17776483
b0 *
#17777483
b11 '
#17778483
b11 (
#17779483
1"
1!
#17968796
0#
#17969796
b1111111110101100 )
#18164109
1#
#18165109
b1111111110101101 )
#18166109
b1111111110101111 )
#18167109
b1111111110101011 )
b111111 +
#18168109
b1000000000000 *
#18169109
b1 '
#18170109
b1 (
#18171109
0"
#18359422
0#
#18360422
b1111111110101010 )
#18554735
1#
#18555735
b1111111110101011 )
#18556735
b111110 +
b1111111110101001 )
#18557735
b0 *
#18558735
b11 '
#18559735
b11 (
#18560735
1"
#18750048
0#
#18751048
b1111111110101000 )
#18945361
1#
#18946361
b1111111110101001 )
#18947361
b1111111110101011 )
#18948361
b1111111110101111 )
#18949361
b1111111110100111 )
b111010 +
#19140674
0#
#19141674
b1111111110100110 )
#19335987
1#
#19336987
b1111111110100111 )
#19337987
b111011 +
b1111111110100101 )
#19531300
0#
#19532300
b1111111110100100 )
#19726613
1#
#19727613
b1111111110100101 )
#19728613
b1111111110100111 )
#19729613
b1111111110100011 )
b111001 +
#19730613
b10000000000000 *
#19731613
b1 '
#19732613
b1 (
#19733613
0"
#19921926
0#
#19922926
b1111111110100010 )
#20117239
1#
#20118239
b1111111110100011 )
#20119239
b111000 +
b1111111110100001 )
#20120239
b0 *
#20121239
b11 '
#20122239
b11 (
#20123239
1"
#20312552
0#
#20313552
b1111111110100000 )
#20507865
1#
#20508865
b1111111110100001 )
#20509865
b1111111110100011 )
#20510865
b1111111110100111 )
#20511865
b1111111110101111 )
#20512865
b1111111110111111 )
#20513865
b1111111110011111 )
b101000 +
#20703178
0#
#20704178
b1111111110011110 )
#20898491
1#
#20899491
b1111111110011111 )
#20900491
b101001 +
b1111111110011101 )
#21093804
0#
#21094804
b1111111110011100 )
#21289117
1#
#21290117
b1111111110011101 )
#21291117
b1111111110011111 )
#21292117
b1111111110011011 )
b101011 +
#21293117
b100000000000000 *
#21294117
b1 '
#21295117
b1 (
#21296117
0"
#21484430
0#
#21485430
b1111111110011010 )
#21679743
1#
#21680743
b1111111110011011 )
#21681743
b101010 +
b1111111110011001 )
#21682743
b0 *
#21683743
b11 '
#21684743
b11 (
#21685743
1"
#21875056
0#
#21876056
b1111111110011000 )
#22070369
1#
#22071369
b1111111110011001 )
#22072369
b1111111110011011 )
#22073369
b1111111110011111 )
#22074369
b1111111110010111 )
b101110 +
#22265682
0#
#22266682
b1111111110010110 )
#22460995
1#
#22461995
b1111111110010111 )
#22462995
b101111 +
b1111111110010101 )
#22463995
b1000000000000000 *
#22464995
b1 '
#22465995
b1 (
#22466995
0"
#22656308
0#
#22657308
b1111111110010100 )
#22851621
1#
#22852621
b1111111110010101 )
#22853621
b1111111110010111 )
#22854621
b1111111110010011 )
b101101 +
#22855621
b10000000000000000 *
#23046934
0#
#23047934
b1111111110010010 )
#23242247
1#
#23243247
b1111111110010011 )
#23244247
b101100 +
b1111111110010001 )
#23245247
b0 *
#23246247
b11 '
#23247247
b11 (
#23248247
1"
#23437560
0#
#23438560
b1111111110010000 )
#23632873
1#
#23633873
b1111111110010001 )
#23634873
b1111111110010011 )
#23635873
b1111111110010111 )
#23636873
b1111111110011111 )
#23637873
b1111111110001111 )
b100100 +
#23828186
0#
#23829186
b1111111110001110 )
#24023499
1#
#24024499
b1111111110001111 )
#24025499
b100101 +
b1111111110001101 )
#24218812
0#
#24219812
b1111111110001100 )
#24414125
1#
#24415125
b1111111110001101 )
#24416125
b1111111110001111 )
#24417125
b1111111110001011 )
b100111 +
#24609438
0#
#24610438
b1111111110001010 )
#24804751
1#
#24805751
b1111111110001011 )
#24806751
b100110 +
b1111111110001001 )
#24807751
b100000000000000000 *
#24808751
b1 '
#24809751
b1 (
#24810751
0"
#25000064
0#
#25001064
b1111111110001000 )
#25195377
1#
#25196377
b1111111110001001 )
#25197377
b1111111110001011 )
#25198377
b1111111110001111 )
#25199377
b1111111110000111 )
b100010 +
#25200377
b1000000000000000000 *
#25390690
0#
#25391690
b1111111110000110 )
#25586003
1#
#25587003
b1111111110000111 )
#25588003
b100011 +
b1111111110000101 )
#25589003
b10000000000000000000 *
#25781316
0#
#25782316
b1111111110000100 )
#25976629
1#
#25977629
b1111111110000101 )
#25978629
b1111111110000111 )
#25979629
b1111111110000011 )
b100001 +
#25980629
b0 *
#25981629
b11 '
#25982629
b11 (
#25983629
1"
#26171942
0#
#26172942
b1111111110000010 )
#26367255
1#
#26368255
b1111111110000011 )
#26369255
b100000 +
b1111111110000001 )
#26562568
0#
#26563568
b1111111110000000 )
#26757881
1#
#26758881
b1111111110000001 )
#26759881
b1111111110000011 )
#26760881
b1111111110000111 )
#26761881
b1111111110001111 )
#26762881
b1111111110011111 )
#26763881
b1111111110111111 )
#26764881
b1111111111111111 )
#26765881
b1111111101111111 )
b1100000 +
#26766881
b1 (
#26767881
0"
#26953194
0#
#26954194
b1111111101111110 )
#27148507
1#
#27149507
b1111111101111111 )
#27150507
b1100001 +
b1111111101111101 )
#27343820
0#
#27344820
b1111111101111100 )
#27539133
1#
#27540133
b1111111101111101 )
#27541133
b1111111101111111 )
#27542133
b1111111101111011 )
b1100011 +
#27543133
b10000000000000000000 *
#27544133
b1 '
#27545133
b11 (
#27546133
1"
#27734446
0#
#27735446
b1111111101111010 )
#27929759
1#
#27930759
b1111111101111011 )
#27931759
b1100010 +
b1111111101111001 )
#27932759
b1000000000000000000 *
#28125072
0#
#28126072
b1111111101111000 )
#28320385
1#
#28321385
b1111111101111001 )
#28322385
b1111111101111011 )
#28323385
b1111111101111111 )
#28324385
b1111111101110111 )
b1100110 +
#28325385
b100000000000000000 *
#28515698
0#
#28516698
b1111111101110110 )
#28711011
1#
#28712011
b1111111101110111 )
#28713011
b1100111 +
b1111111101110101 )
#28714011
b0 *
#28715011
b11 '
#28716011
b1 (
#28717011
0"
#28906324
0#
#28907324
b1111111101110100 )
#29101637
1#
#29102637
b1111111101110101 )
#29103637
b1111111101110111 )
#29104637
b1111111101110011 )
b1100101 +
#29296950
0#
#29297950
b1111111101110010 )
#29492263
1#
#29493263
b1111111101110011 )
#29494263
b1100100 +
b1111111101110001 )
#29687576
0#
#29688576
b1111111101110000 )
#29882889
1#
#29883889
b1111111101110001 )
#29884889
b1111111101110011 )
#29885889
b1111111101110111 )
#29886889
b1111111101111111 )
#29887889
b1111111101101111 )
b1101100 +
#30078202
0#
#30079202
b1111111101101110 )
#30273515
1#
#30274515
b1111111101101111 )
#30275515
b1101101 +
b1111111101101101 )
#30276515
b10000000000000000 *
#30277515
b1 '
#30278515
b11 (
#30279515
1"
#30468828
0#
#30469828
b1111111101101100 )
#30664141
1#
#30665141
b1111111101101101 )
#30666141
b1111111101101111 )
#30667141
b1111111101101011 )
b1101111 +
#30668141
b1000000000000000 *
#30859454
0#
#30860454
b1111111101101010 )
#31054767
1#
#31055767
b1111111101101011 )
#31056767
b1101110 +
b1111111101101001 )
#31057767
b0 *
#31058767
b11 '
#31059767
b1 (
#31060767
0"
#31250080
0#
#31251080
b1111111101101000 )
#31445393
1#
#31446393
b1111111101101001 )
#31447393
b1111111101101011 )
#31448393
b1111111101101111 )
#31449393
b1111111101100111 )
b1101010 +
#31640706
0#
#31641706
b1111111101100110 )
#31836019
1#
#31837019
b1111111101100111 )
#31838019
b1101011 +
b1111111101100101 )
#31839019
b100000000000000 *
#31840019
b1 '
#31841019
b11 (
#31842019
1"
#32031332
0#
#32032332
b1111111101100100 )
#32226645
1#
#32227645
b1111111101100101 )
#32228645
b1111111101100111 )
#32229645
b1111111101100011 )
b1101001 +
#32230645
b0 *
#32231645
b11 '
#32232645
b1 (
#32233645
0"
#32421958
0#
#32422958
b1111111101100010 )
#32617271
1#
#32618271
b1111111101100011 )
#32619271
b1101000 +
b1111111101100001 )
#32812584
0#
#32813584
b1111111101100000 )
#33007897
1#
#33008897
b1111111101100001 )
#33009897
b1111111101100011 )
#33010897
b1111111101100111 )
#33011897
b1111111101101111 )
#33012897
b1111111101111111 )
#33013897
b1111111101011111 )
b1111000 +
#33203210
0#
#33204210
b1111111101011110 )
#33398523
1#
#33399523
b1111111101011111 )
#33400523
b1111001 +
b1111111101011101 )
#33401523
b10000000000000 *
#33402523
b1 '
#33403523
b11 (
#33404523
1"
#33593836
0#
#33594836
b1111111101011100 )
#33789149
1#
#33790149
b1111111101011101 )
#33791149
b1111111101011111 )
#33792149
b1111111101011011 )
b1111011 +
#33793149
b0 *
#33794149
b11 '
#33795149
b1 (
#33796149
0"
#33984462
0#
#33985462
b1111111101011010 )
#34179775
1#
#34180775
b1111111101011011 )
#34181775
b1111010 +
b1111111101011001 )
#34375088
0#
#34376088
b1111111101011000 )
#34570401
1#
#34571401
b1111111101011001 )
#34572401
b1111111101011011 )
#34573401
b1111111101011111 )
#34574401
b1111111101010111 )
b1111110 +
#34765714
0#
#34766714
b1111111101010110 )
#34961027
1#
#34962027
b1111111101010111 )
#34963027
b1111111 +
b1111111101010101 )
#34964027
b1000000000000 *
#34965027
b1 '
#34966027
b11 (
#34967027
1"
#35156340
0#
#35157340
b1111111101010100 )
#35351653
1#
#35352653
b1111111101010101 )
#35353653
b1111111101010111 )
#35354653
b1111111101010011 )
b1111101 +
#35355653
b0 *
#35356653
b11 '
#35357653
b1 (
#35358653
0"
#35546966
0#
#35547966
b1111111101010010 )
#35742279
1#
#35743279
b1111111101010011 )
#35744279
b1111100 +
b1111111101010001 )
#35745279
b100000000000 *
#35746279
b0 '
#35747279
b10 (
#35748279
1"
0!
#35937592
0#
#35938592
b1111111101010000 )
#36132905
1#
#36133905
b1111111101010001 )
#36134905
b1111111101010011 )
#36135905
b1111111101010111 )
#36136905
b1111111101011111 )
#36137905
b1111111101001111 )
b1110100 +
#36138905
b0 *
#36139905
b11 '
#36140905
b1 (
#36141905
0"
1!
#36328218
0#
#36329218
b1111111101001110 )
#36523531
1#
#36524531
b1111111101001111 )
#36525531
b1110101 +
b1111111101001101 )
#36718844
0#
#36719844
b1111111101001100 )
#36914157
1#
#36915157
b1111111101001101 )
#36916157
b1111111101001111 )
#36917157
b1111111101001011 )
b1110111 +
#37109470
0#
#37110470
b1111111101001010 )
#37304783
1#
#37305783
b1111111101001011 )
#37306783
b1110110 +
b1111111101001001 )
#37500096
0#
#37501096
b1111111101001000 )
#37695409
1#
#37696409
b1111111101001001 )
#37697409
b1111111101001011 )
#37698409
b1111111101001111 )
#37699409
b1111111101000111 )
b1110010 +
#37890722
0#
#37891722
b1111111101000110 )
#38086035
1#
#38087035
b1111111101000111 )
#38088035
b1110011 +
b1111111101000101 )
#38281348
0#
#38282348
b1111111101000100 )
#38476661
1#
#38477661
b1111111101000101 )
#38478661
b1111111101000111 )
#38479661
b1111111101000011 )
b1110001 +
#38671974
0#
#38672974
b1111111101000010 )
#38867287
1#
#38868287
b1111111101000011 )
#38869287
b1110000 +
b1111111101000001 )
#38870287
b10000000000 *
#38871287
b10 '
#38872287
b0 (
#38873287
0!
#39062600
0#
#39063600
b1111111101000000 )
#39257913
1#
#39258913
b1111111101000001 )
#39259913
b1111111101000011 )
#39260913
b1111111101000111 )
#39261913
b1111111101001111 )
#39262913
b1111111101011111 )
#39263913
b1111111101111111 )
#39264913
b1111111100111111 )
b1010000 +
#39265913
b1000000000 *
#39266913
b1 '
#39267913
b11 (
#39268913
1"
1!
#39453226
0#
#39454226
b1111111100111110 )
#39648539
1#
#39649539
b1111111100111111 )
#39650539
b1010001 +
b1111111100111101 )
#39651539
b0 *
#39652539
b11 '
#39653539
b1 (
#39654539
0"
#39843852
0#
#39844852
b1111111100111100 )
#40039165
1#
#40040165
b1111111100111101 )
#40041165
b1111111100111111 )
#40042165
b1111111100111011 )
b1010011 +
#40234478
0#
#40235478
b1111111100111010 )
#40429791
1#
#40430791
b1111111100111011 )
#40431791
b1010010 +
b1111111100111001 )
#40625104
0#
#40626104
b1111111100111000 )
#40820417
1#
#40821417
b1111111100111001 )
#40822417
b1111111100111011 )
#40823417
b1111111100111111 )
#40824417
b1111111100110111 )
b1010110 +
#41015730
0#
#41016730
b1111111100110110 )
#41211043
1#
#41212043
b1111111100110111 )
#41213043
b1010111 +
b1111111100110101 )
#41406356
0#
#41407356
b1111111100110100 )
#41601669
1#
#41602669
b1111111100110101 )
#41603669
b1111111100110111 )
#41604669
b1111111100110011 )
b1010101 +
#41796982
0#
#41797982
b1111111100110010 )
#41992295
1#
#41993295
b1111111100110011 )
#41994295
b1010100 +
b1111111100110001 )
#42187608
0#
#42188608
b1111111100110000 )
#42382921
1#
#42383921
b1111111100110001 )
#42384921
b1111111100110011 )
#42385921
b1111111100110111 )
#42386921
b1111111100111111 )
#42387921
b1111111100101111 )
b1011100 +
#42388921
b100000000 *
#42389921
b0 '
#42390921
b10 (
#42391921
0!
1"
#42578234
0#
#42579234
b1111111100101110 )
#42773547
1#
#42774547
b1111111100101111 )
#42775547
b1011101 +
b1111111100101101 )
#42776547
b0 *
#42777547
b11 '
#42778547
b1 (
#42779547
1!
0"
#42968860
0#
#42969860
b1111111100101100 )
#43164173
1#
#43165173
b1111111100101101 )
#43166173
b1111111100101111 )
#43167173
b1111111100101011 )
b1011111 +
#43168173
b10000000 *
#43169173
b10 '
#43170173
b0 (
#43171173
0!
#43359486
0#
#43360486
b1111111100101010 )
#43554799
1#
#43555799
b1111111100101011 )
#43556799
b1011110 +
b1111111100101001 )
#43557799
b0 *
#43558799
b11 '
#43559799
b1 (
#43560799
1!
#43750112
0#
#43751112
b1111111100101000 )
#43945425
1#
#43946425
b1111111100101001 )
#43947425
b1111111100101011 )
#43948425
b1111111100101111 )
#43949425
b1111111100100111 )
b1011010 +
#44140738
0#
#44141738
b1111111100100110 )
#44336051
1#
#44337051
b1111111100100111 )
#44338051
b1011011 +
b1111111100100101 )
#44531364
0#
#44532364
b1111111100100100 )
#44726677
1#
#44727677
b1111111100100101 )
#44728677
b1111111100100111 )
#44729677
b1111111100100011 )
b1011001 +
#44730677
b1000000 *
#44731677
b10 '
#44732677
b0 (
#44733677
0!
#44921990
0#
#44922990
b1111111100100010 )
#45117303
1#
#45118303
b1111111100100011 )
#45119303
b1011000 +
b1111111100100001 )
#45120303
b0 *
#45121303
b11 '
#45122303
b1 (
#45123303
1!
#45312616
0#
#45313616
b1111111100100000 )
#45507929
1#
#45508929
b1111111100100001 )
#45509929
b1111111100100011 )
#45510929
b1111111100100111 )
#45511929
b1111111100101111 )
#45512929
b1111111100111111 )
#45513929
b1111111100011111 )
b1001000 +
#45703242
0#
#45704242
b1111111100011110 )
#45898555
1#
#45899555
b1111111100011111 )
#45900555
b1001001 +
b1111111100011101 )
#46093868
0#
#46094868
b1111111100011100 )
#46289181
1#
#46290181
b1111111100011101 )
#46291181
b1111111100011111 )
#46292181
b1111111100011011 )
b1001011 +
#46293181
b100000 *
#46294181
b10 '
#46295181
b0 (
#46296181
0!
#46484494
0#
#46485494
b1111111100011010 )
#46679807
1#
#46680807
b1111111100011011 )
#46681807
b1001010 +
b1111111100011001 )
#46682807
b0 *
#46683807
b11 '
#46684807
b1 (
#46685807
1!
#46875120
0#
#46876120
b1111111100011000 )
#47070433
1#
#47071433
b1111111100011001 )
#47072433
b1111111100011011 )
#47073433
b1111111100011111 )
#47074433
b1111111100010111 )
b1001110 +
#47265746
0#
#47266746
b1111111100010110 )
#47461059
1#
#47462059
b1111111100010111 )
#47463059
b1001111 +
b1111111100010101 )
#47464059
b10000 *
#47465059
b10 '
#47466059
b0 (
#47467059
0!
#47656372
0#
#47657372
b1111111100010100 )
#47851685
1#
#47852685
b1111111100010101 )
#47853685
b1111111100010111 )
#47854685
b1111111100010011 )
b1001101 +
#47855685
b1000 *
#48046998
0#
#48047998
b1111111100010010 )
#48242311
1#
#48243311
b1111111100010011 )
#48244311
b1001100 +
b1111111100010001 )
#48245311
b0 *
#48246311
b11 '
#48247311
b1 (
#48248311
1!
#48437624
0#
#48438624
b1111111100010000 )
#48632937
1#
#48633937
b1111111100010001 )
#48634937
b1111111100010011 )
#48635937
b1111111100010111 )
#48636937
b1111111100011111 )
#48637937
b1111111100001111 )
b1000100 +
#48828250
0#
#48829250
b1111111100001110 )
#49023563
1#
#49024563
b1111111100001111 )
#49025563
b1000101 +
b1111111100001101 )
#49218876
0#
#49219876
b1111111100001100 )
#49414189
1#
#49415189
b1111111100001101 )
#49416189
b1111111100001111 )
#49417189
b1111111100001011 )
b1000111 +
#49609502
0#
#49610502
b1111111100001010 )
#49804815
1#
#49805815
b1111111100001011 )
#49806815
b1000110 +
b1111111100001001 )
#49807815
b100 *
#49808815
b10 '
#49809815
b0 (
#49810815
0!
#50000128
0#
#50001128
b1111111100001000 )
#50195441
1#
#50196441
b1111111100001001 )
#50197441
b1111111100001011 )
#50198441
b1111111100001111 )
#50199441
b1111111100000111 )
b1000010 +
#50200441
b10 *
#50390754
0#
#50391754
b1111111100000110 )
#50586067
1#
#50587067
b1111111100000111 )
#50588067
b1000011 +
b1111111100000101 )
#50589067
b1 *
#50781380
0#
#50782380
b1111111100000100 )
#50976693
1#
#50977693
b1111111100000101 )
#50978693
b1111111100000111 )
#50979693
b1111111100000011 )
b1000001 +
#50980693
b0 *
#50981693
b11 '
#50982693
b1 (
#50983693
1!
#51172006
0#
#51173006
b1111111100000010 )
#51367319
1#
#51368319
b1111111100000011 )
#51369319
b1000000 +
b1111111100000001 )
#51562632
0#
#51563632
b1111111100000000 )
#51757945
1#
#51758945
b1111111100000001 )
#51759945
b1111111100000011 )
#51760945
b1111111100000111 )
#51761945
b1111111100001111 )
#51762945
b1111111100011111 )
#51763945
b1111111100111111 )
#51764945
b1111111101111111 )
#51765945
b1111111111111111 )
#51766945
b1111111011111111 )
b11000000 +
#51767945
b0 (
#51768945
0!
#51953258
0#
#51954258
b1111111011111110 )
#52148571
1#
#52149571
b1111111011111111 )
#52150571
b11000001 +
b1111111011111101 )
#52343884
0#
#52344884
b1111111011111100 )
#52539197
1#
#52540197
b1111111011111101 )
#52541197
b1111111011111111 )
#52542197
b1111111011111011 )
b11000011 +
#52543197
b1 *
#52544197
b10 '
#52545197
b1 (
#52546197
1!
#52734510
0#
#52735510
b1111111011111010 )
#52929823
1#
#52930823
b1111111011111011 )
#52931823
b11000010 +
b1111111011111001 )
#52932823
b10 *
#53125136
0#
#53126136
b1111111011111000 )
#53320449
1#
#53321449
b1111111011111001 )
#53322449
b1111111011111011 )
#53323449
b1111111011111111 )
#53324449
b1111111011110111 )
b11000110 +
#53325449
b100 *
#53515762
0#
#53516762
b1111111011110110 )
#53711075
1#
#53712075
b1111111011110111 )
#53713075
b11000111 +
b1111111011110101 )
#53714075
b0 *
#53715075
b11 '
#53716075
b0 (
#53717075
0!
#53906388
0#
#53907388
b1111111011110100 )
#54101701
1#
#54102701
b1111111011110101 )
#54103701
b1111111011110111 )
#54104701
b1111111011110011 )
b11000101 +
#54297014
0#
#54298014
b1111111011110010 )
#54492327
1#
#54493327
b1111111011110011 )
#54494327
b11000100 +
b1111111011110001 )
#54687640
0#
#54688640
b1111111011110000 )
#54882953
1#
#54883953
b1111111011110001 )
#54884953
b1111111011110011 )
#54885953
b1111111011110111 )
#54886953
b1111111011111111 )
#54887953
b1111111011101111 )
b11001100 +
#55078266
0#
#55079266
b1111111011101110 )
#55273579
1#
#55274579
b1111111011101111 )
#55275579
b11001101 +
b1111111011101101 )
#55276579
b1000 *
#55277579
b10 '
#55278579
b1 (
#55279579
1!
#55468892
0#
#55469892
b1111111011101100 )
#55664205
1#
#55665205
b1111111011101101 )
#55666205
b1111111011101111 )
#55667205
b1111111011101011 )
b11001111 +
#55668205
b10000 *
#55859518
0#
#55860518
b1111111011101010 )
#56054831
1#
#56055831
b1111111011101011 )
#56056831
b11001110 +
b1111111011101001 )
#56057831
b0 *
#56058831
b11 '
#56059831
b0 (
