verilog/final_verilog/feedback/u_d_bin_counter.vcd
$date
	Fri May 27 16:23:17 2022
$end
$version
	Icarus Verilog
$end
$timescale
	1ps
$end
$scope module tb_bin_counter $end
$var wire 16 ! q [15:0] $end
$var reg 1 " clk $end
$var reg 1 # en $end
$var reg 1 $ rstb $end
$var reg 1 % u_d $end
$var real 1 & clk_half_pd $end
$scope module bincount $end
$var wire 1 ' and1 $end
$var wire 1 ( and2 $end
$var wire 1 ) b_in $end
$var wire 1 " clk $end
$var wire 1 # en $end
$var wire 1 $ rstb $end
$var wire 1 * t_o14 $end
$var wire 1 % u_d $end
$var wire 14 + t_o [13:0] $end
$var wire 1 , q_b14 $end
$var wire 16 - q [15:0] $end
$var wire 14 . b_o [13:0] $end
$var wire 14 / a_o [13:0] $end
$scope begin bin_counter[0] $end
$scope module cc $end
$var wire 1 0 a $end
$var wire 1 1 a_o $end
$var wire 1 2 and_t $end
$var wire 1 3 b $end
$var wire 1 4 b_o $end
$var wire 1 " clk $end
$var wire 1 # en $end
$var wire 1 $ rstb $end
$var wire 1 5 t $end
$var wire 1 6 t_o $end
$var wire 1 7 q_b $end
$var wire 1 8 q $end
$scope module tff1 $end
$var wire 1 " clk $end
$var wire 1 9 d $end
$var wire 1 7 q_b $end
$var wire 1 $ rstb $end
$var wire 1 2 t $end
$var wire 1 8 q $end
$scope module dfrtp_1 $end
$var wire 1 " clk $end
$var wire 1 9 d $end
$var wire 1 $ rstb $end
$var reg 1 8 q $end
$upscope $end
$upscope $end
$upscope $end
$upscope $end
$scope begin bin_counter[1] $end
$scope module cc $end
$var wire 1 : a $end
$var wire 1 ; a_o $end
$var wire 1 < and_t $end
$var wire 1 = b $end
$var wire 1 > b_o $end
$var wire 1 " clk $end
$var wire 1 # en $end
$var wire 1 $ rstb $end
$var wire 1 ? t $end
$var wire 1 @ t_o $end
$var wire 1 A q_b $end
$var wire 1 B q $end
$scope module tff1 $end
$var wire 1 " clk $end
$var wire 1 C d $end
$var wire 1 A q_b $end
$var wire 1 $ rstb $end
$var wire 1 < t $end
$var wire 1 B q $end
$scope module dfrtp_1 $end
$var wire 1 " clk $end
$var wire 1 C d $end
$var wire 1 $ rstb $end
$var reg 1 B q $end
$upscope $end
$upscope $end
$upscope $end
$upscope $end
$scope begin bin_counter[2] $end
$scope module cc $end
$var wire 1 D a $end
$var wire 1 E a_o $end
$var wire 1 F and_t $end
$var wire 1 G b $end
$var wire 1 H b_o $end
$var wire 1 " clk $end
$var wire 1 # en $end
$var wire 1 $ rstb $end
$var wire 1 I t $end
$var wire 1 J t_o $end
$var wire 1 K q_b $end
$var wire 1 L q $end
$scope module tff1 $end
$var wire 1 " clk $end
$var wire 1 M d $end
$var wire 1 K q_b $end
$var wire 1 $ rstb $end
$var wire 1 F t $end
$var wire 1 L q $end
$scope module dfrtp_1 $end
$var wire 1 " clk $end
$var wire 1 M d $end
$var wire 1 $ rstb $end
$var reg 1 L q $end
$upscope $end
$upscope $end
$upscope $end
$upscope $end
$scope begin bin_counter[3] $end
$scope module cc $end
$var wire 1 N a $end
$var wire 1 O a_o $end
$var wire 1 P and_t $end
$var wire 1 Q b $end
$var wire 1 R b_o $end
$var wire 1 " clk $end
$var wire 1 # en $end
$var wire 1 $ rstb $end
$var wire 1 S t $end
$var wire 1 T t_o $end
$var wire 1 U q_b $end
$var wire 1 V q $end
$scope module tff1 $end
$var wire 1 " clk $end
$var wire 1 W d $end
$var wire 1 U q_b $end
$var wire 1 $ rstb $end
$var wire 1 P t $end
$var wire 1 V q $end
$scope module dfrtp_1 $end
$var wire 1 " clk $end
$var wire 1 W d $end
$var wire 1 $ rstb $end
$var reg 1 V q $end
$upscope $end
$upscope $end
$upscope $end
$upscope $end
$scope begin bin_counter[4] $end
$scope module cc $end
$var wire 1 X a $end
$var wire 1 Y a_o $end
$var wire 1 Z and_t $end
$var wire 1 [ b $end
$var wire 1 \ b_o $end
$var wire 1 " clk $end
$var wire 1 # en $end
$var wire 1 $ rstb $end
$var wire 1 ] t $end
$var wire 1 ^ t_o $end
$var wire 1 _ q_b $end
$var wire 1 ` q $end
$scope module tff1 $end
$var wire 1 " clk $end
$var wire 1 a d $end
$var wire 1 _ q_b $end
$var wire 1 $ rstb $end
$var wire 1 Z t $end
$var wire 1 ` q $end
$scope module dfrtp_1 $end
$var wire 1 " clk $end
$var wire 1 a d $end
$var wire 1 $ rstb $end
$var reg 1 ` q $end
$upscope $end
$upscope $end
$upscope $end
$upscope $end
$scope begin bin_counter[5] $end
$scope module cc $end
$var wire 1 b a $end
$var wire 1 c a_o $end
$var wire 1 d and_t $end
$var wire 1 e b $end
$var wire 1 f b_o $end
$var wire 1 " clk $end
$var wire 1 # en $end
$var wire 1 $ rstb $end
$var wire 1 g t $end
$var wire 1 h t_o $end
$var wire 1 i q_b $end
$var wire 1 j q $end
$scope module tff1 $end
$var wire 1 " clk $end
$var wire 1 k d $end
$var wire 1 i q_b $end
$var wire 1 $ rstb $end
$var wire 1 d t $end
$var wire 1 j q $end
$scope module dfrtp_1 $end
$var wire 1 " clk $end
$var wire 1 k d $end
$var wire 1 $ rstb $end
$var reg 1 j q $end
$upscope $end
$upscope $end
$upscope $end
$upscope $end
$scope begin bin_counter[6] $end
$scope module cc $end
$var wire 1 l a $end
$var wire 1 m a_o $end
$var wire 1 n and_t $end
$var wire 1 o b $end
$var wire 1 p b_o $end
$var wire 1 " clk $end
$var wire 1 # en $end
$var wire 1 $ rstb $end
$var wire 1 q t $end
$var wire 1 r t_o $end
$var wire 1 s q_b $end
$var wire 1 t q $end
$scope module tff1 $end
$var wire 1 " clk $end
$var wire 1 u d $end
$var wire 1 s q_b $end
$var wire 1 $ rstb $end
$var wire 1 n t $end
$var wire 1 t q $end
$scope module dfrtp_1 $end
$var wire 1 " clk $end
$var wire 1 u d $end
$var wire 1 $ rstb $end
$var reg 1 t q $end
$upscope $end
$upscope $end
$upscope $end
$upscope $end
$scope begin bin_counter[7] $end
$scope module cc $end
$var wire 1 v a $end
$var wire 1 w a_o $end
$var wire 1 x and_t $end
$var wire 1 y b $end
$var wire 1 z b_o $end
$var wire 1 " clk $end
$var wire 1 # en $end
$var wire 1 $ rstb $end
$var wire 1 { t $end
$var wire 1 | t_o $end
$var wire 1 } q_b $end
$var wire 1 ~ q $end
$scope module tff1 $end
$var wire 1 " clk $end
$var wire 1 !" d $end
$var wire 1 } q_b $end
$var wire 1 $ rstb $end
$var wire 1 x t $end
$var wire 1 ~ q $end
$scope module dfrtp_1 $end
$var wire 1 " clk $end
$var wire 1 !" d $end
$var wire 1 $ rstb $end
$var reg 1 ~ q $end
$upscope $end
$upscope $end
$upscope $end
$upscope $end
$scope begin bin_counter[8] $end
$scope module cc $end
$var wire 1 "" a $end
$var wire 1 #" a_o $end
$var wire 1 $" and_t $end
$var wire 1 %" b $end
$var wire 1 &" b_o $end
$var wire 1 " clk $end
$var wire 1 # en $end
$var wire 1 $ rstb $end
$var wire 1 '" t $end
$var wire 1 (" t_o $end
$var wire 1 )" q_b $end
$var wire 1 *" q $end
$scope module tff1 $end
$var wire 1 " clk $end
$var wire 1 +" d $end
$var wire 1 )" q_b $end
$var wire 1 $ rstb $end
$var wire 1 $" t $end
$var wire 1 *" q $end
$scope module dfrtp_1 $end
$var wire 1 " clk $end
$var wire 1 +" d $end
$var wire 1 $ rstb $end
$var reg 1 *" q $end
$upscope $end
$upscope $end
$upscope $end
$upscope $end
$scope begin bin_counter[9] $end
$scope module cc $end
$var wire 1 ," a $end
$var wire 1 -" a_o $end
$var wire 1 ." and_t $end
$var wire 1 /" b $end
$var wire 1 0" b_o $end
$var wire 1 " clk $end
$var wire 1 # en $end
$var wire 1 $ rstb $end
$var wire 1 1" t $end
$var wire 1 2" t_o $end
$var wire 1 3" q_b $end
$var wire 1 4" q $end
$scope module tff1 $end
$var wire 1 " clk $end
$var wire 1 5" d $end
$var wire 1 3" q_b $end
$var wire 1 $ rstb $end
$var wire 1 ." t $end
$var wire 1 4" q $end
$scope module dfrtp_1 $end
$var wire 1 " clk $end
$var wire 1 5" d $end
$var wire 1 $ rstb $end
$var reg 1 4" q $end
$upscope $end
$upscope $end
$upscope $end
$upscope $end
$scope begin bin_counter[10] $end
$scope module cc $end
$var wire 1 6" a $end
$var wire 1 7" a_o $end
$var wire 1 8" and_t $end
$var wire 1 9" b $end
$var wire 1 :" b_o $end
$var wire 1 " clk $end
$var wire 1 # en $end
$var wire 1 $ rstb $end
$var wire 1 ;" t $end
$var wire 1 <" t_o $end
$var wire 1 =" q_b $end
$var wire 1 >" q $end
$scope module tff1 $end
$var wire 1 " clk $end
$var wire 1 ?" d $end
$var wire 1 =" q_b $end
$var wire 1 $ rstb $end
$var wire 1 8" t $end
$var wire 1 >" q $end
$scope module dfrtp_1 $end
$var wire 1 " clk $end
$var wire 1 ?" d $end
$var wire 1 $ rstb $end
$var reg 1 >" q $end
$upscope $end
$upscope $end
$upscope $end
$upscope $end
$scope begin bin_counter[11] $end
$scope module cc $end
$var wire 1 @" a $end
$var wire 1 A" a_o $end
$var wire 1 B" and_t $end
$var wire 1 C" b $end
$var wire 1 D" b_o $end
$var wire 1 " clk $end
$var wire 1 # en $end
$var wire 1 $ rstb $end
$var wire 1 E" t $end
$var wire 1 F" t_o $end
$var wire 1 G" q_b $end
$var wire 1 H" q $end
$scope module tff1 $end
$var wire 1 " clk $end
$var wire 1 I" d $end
$var wire 1 G" q_b $end
$var wire 1 $ rstb $end
$var wire 1 B" t $end
$var wire 1 H" q $end
$scope module dfrtp_1 $end
$var wire 1 " clk $end
$var wire 1 I" d $end
$var wire 1 $ rstb $end
$var reg 1 H" q $end
$upscope $end
$upscope $end
$upscope $end
$upscope $end
$scope begin bin_counter[12] $end
$scope module cc $end
$var wire 1 J" a $end
$var wire 1 K" a_o $end
$var wire 1 L" and_t $end
$var wire 1 M" b $end
$var wire 1 N" b_o $end
$var wire 1 " clk $end
$var wire 1 # en $end
$var wire 1 $ rstb $end
$var wire 1 O" t $end
$var wire 1 P" t_o $end
$var wire 1 Q" q_b $end
$var wire 1 R" q $end
$scope module tff1 $end
$var wire 1 " clk $end
$var wire 1 S" d $end
$var wire 1 Q" q_b $end
$var wire 1 $ rstb $end
$var wire 1 L" t $end
$var wire 1 R" q $end
$scope module dfrtp_1 $end
$var wire 1 " clk $end
$var wire 1 S" d $end
$var wire 1 $ rstb $end
$var reg 1 R" q $end
$upscope $end
$upscope $end
$upscope $end
$upscope $end
$scope module cc1 $end
$var wire 1 % a $end
$var wire 1 T" a_o $end
$var wire 1 ) b $end
$var wire 1 U" b_o $end
$var wire 1 " clk $end
$var wire 1 $ rstb $end
$var wire 1 # t $end
$var wire 1 V" t_o $end
$var wire 1 W" q_b $end
$var wire 1 X" q $end
$scope module tff1 $end
$var wire 1 " clk $end
$var wire 1 Y" d $end
$var wire 1 W" q_b $end
$var wire 1 $ rstb $end
$var wire 1 # t $end
$var wire 1 X" q $end
$scope module dfrtp_1 $end
$var wire 1 " clk $end
$var wire 1 Y" d $end
$var wire 1 $ rstb $end
$var reg 1 X" q $end
$upscope $end
$upscope $end
$upscope $end
$scope module tff_end $end
$var wire 1 " clk $end
$var wire 1 Z" d $end
$var wire 1 $ stb $end
$var wire 1 * t $end
$var wire 1 [" q $end
$scope module dfstp_1 $end
$var wire 1 " clk $end
$var wire 1 Z" d $end
$var wire 1 $ stb $end
$var reg 1 [" q $end
$upscope $end
$upscope $end
$scope module tff_second_last $end
$var wire 1 " clk $end
$var wire 1 \" d $end
$var wire 1 , q_b $end
$var wire 1 $ rstb $end
$var wire 1 ]" t $end
$var wire 1 ^" q $end
$scope module dfrtp_1 $end
$var wire 1 " clk $end
$var wire 1 \" d $end
$var wire 1 $ rstb $end
$var reg 1 ^" q $end
$upscope $end
$upscope $end
$upscope $end
$upscope $end
$enddefinitions $end
#0
$dumpvars
0^"
1]"
1\"
1["
0Z"
1Y"
0X"
1W"
1V"
1U"
0T"
1S"
0R"
1Q"
1P"
1O"
1N"
1M"
1L"
0K"
0J"
1I"
0H"
1G"
1F"
1E"
1D"
1C"
1B"
0A"
0@"
1?"
0>"
1="
1<"
1;"
1:"
19"
18"
07"
06"
15"
04"
13"
12"
11"
10"
1/"
1."
0-"
0,"
1+"
0*"
1)"
1("
1'"
1&"
1%"
1$"
0#"
0""
1!"
0~
1}
1|
1{
1z
1y
1x
0w
0v
1u
0t
1s
1r
1q
1p
1o
1n
0m
0l
1k
0j
1i
1h
1g
1f
1e
1d
0c
0b
1a
0`
1_
1^
1]
1\
1[
1Z
0Y
0X
1W
0V
1U
1T
1S
1R
1Q
1P
0O
0N
1M
0L
1K
1J
1I
1H
1G
1F
0E
0D
1C
0B
1A
1@
1?
1>
1=
1<
0;
0:
19
08
17
16
15
14
13
12
01
00
b0 /
b11111111111111 .
b1000000000000000 -
1,
b11111111111111 +
1*
1)
1(
0'
r195.3125 &
0%
0$
1#
0"
b1000000000000000 !
$end
#5000
1$
#195313
02
0L"
0B"
08"
0."
0$"
0x
0n
0d
0Z
0P
0F
0<
05
0]"
0O"
0E"
0;"
01"
0'"
0{
0q
0g
0]
0S
0I
0?
0*
0V"
03
0P"
0F"
0M"
0<"
0C"
02"
09"
0("
0/"
0|
0%"
0r
0y
0h
0o
0^
0e
0T
0[
0J
0Q
0@
0G
b0 +
06
0=
0(
0U"
0N"
0D"
0:"
00"
0&"
0z
0p
0f
0\
0R
0H
0>
b0 .
04
0Z"
0,
1\"
0W"
0Y"
0Q"
1S"
0G"
1I"
0="
1?"
03"
15"
0)"
1+"
0}
1!"
0s
1u
0i
1k
0_
1a
0U
1W
0K
1M
0A
1C
07
19
0["
1^"
1X"
1R"
1H"
1>"
14"
1*"
1~
1t
1j
1`
1V
1L
1B
b111111111111111 !
b111111111111111 -
18
1"
#390626
0"
#585939
09
12
15
b1 +
1V"
13
b1 .
1U"
1W"
1Y"
b111111111111110 !
b111111111111110 -
0X"
1"
#781252
0"
#976565
1C
02
0<
05
0?
0V"
03
b0 +
06
0=
0U"
b0 .
04
0W"
0Y"
17
09
1X"
b111111111111101 !
b111111111111101 -
08
1"
#1171878
0"
#1367191
0C
1<
19
1?
12
16
1=
15
14
b11 +
1V"
13
b11 .
1U"
1W"
1Y"
b111111111111100 !
b111111111111100 -
0X"
1"
#1562504
0"
#1757817
1M
02
0F
0<
05
0I
0?
0V"
03
0@
0G
b0 +
06
0=
0U"
0>
b0 .
04
0W"
0Y"
1A
0C
07
19
1X"
0B
b111111111111011 !
b111111111111011 -
18
1"
#1953130
0"
#2148443
09
12
15
b1 +
1V"
13
b1 .
1U"
1W"
1Y"
b111111111111010 !
b111111111111010 -
0X"
1"
#2343756
0"
#2539069
1M
0F
0C
0I
02
0<
0@
0G
05
0?
0>
0V"
03
b0 +
06
0=
0U"
b0 .
04
0W"
0Y"
17
09
1X"
b111111111111001 !
b111111111111001 -
08
1"
#2734382
0"
#2929695
0M
1F
1C
1I
1<
1@
1G
19
1?
1>
12
16
1=
15
14
b111 +
1V"
13
b111 .
1U"
1W"
1Y"
b111111111111000 !
b111111111111000 -
0X"
1"
#3125008
0"
#3320321
1W
02
0P
0F
0<
05
0S
0I
0?
0V"
03
0J
0Q
0@
0G
b0 +
06
0=
0U"
0H
0>
b0 .
04
0W"
0Y"
1K
0M
0A
1C
07
19
1X"
0L
1B
b111111111110111 !
b111111111110111 -
18
1"
#3515634
0"
#3710947
09
12
15
b1 +
1V"
13
b1 .
1U"
1W"
1Y"
b111111111110110 !
b111111111110110 -
0X"
1"
#3906260
0"
#4101573
1C
02
0<
05
0?
0V"
03
b0 +
06
0=
0U"
b0 .
04
0W"
0Y"
17
09
1X"
b111111111110101 !
b111111111110101 -
08
1"
#4296886
0"
#4492199
0C
1<
19
1?
12
16
1=
15
14
b11 +
1V"
13
b11 .
1U"
1W"
1Y"
b111111111110100 !
b111111111110100 -
0X"
1"
#4687512
0"
#4882825
1W
0P
0M
0S
02
0F
0J
0Q
0<
05
0I
0H
0?
0V"
03
0@
0G
b0 +
06
0=
0U"
0>
b0 .
04
0W"
0Y"
1A
0C
07
19
1X"
0B
b111111111110011 !
b111111111110011 -
18
1"
#5078138
0"
#5273451
09
12
15
b1 +
1V"
13
b1 .
1U"
1W"
1Y"
b111111111110010 !
b111111111110010 -
0X"
1"
#5468764
0"
#5664077
1W
0P
0M
0S
0F
0J
0Q
0C
0I
0H
02
0<
0@
0G
05
0?
0>
0V"
03
b0 +
06
0=
0U"
b0 .
04
0W"
0Y"
17
09
1X"
b111111111110001 !
b111111111110001 -
08
1"
#5859390
0"
#6054703
0W
1P
1M
1S
1F
1J
1Q
1C
1I
1H
1<
1@
1G
19
1?
1>
12
16
1=
15
14
b1111 +
1V"
13
b1111 .
1U"
1W"
1Y"
b111111111110000 !
b111111111110000 -
0X"
1"
#6250016
0"
#6445329
1a
02
0Z
0P
0F
0<
05
0]
0S
0I
0?
0V"
03
0T
0[
0J
0Q
0@
0G
b0 +
06
0=
0U"
0R
0H
0>
b0 .
04
0W"
0Y"
1U
0W
0K
1M
0A
1C
07
19
1X"
0V
1L
1B
b111111111101111 !
b111111111101111 -
18
1"
#6640642
0"
#6835955
09
12
15
b1 +
1V"
13
b1 .
1U"
1W"
1Y"
b111111111101110 !
b111111111101110 -
0X"
1"
#7031268
0"
#7226581
1C
02
0<
05
0?
0V"
03
b0 +
06
0=
0U"
b0 .
04
0W"
0Y"
17
09
1X"
b111111111101101 !
b111111111101101 -
08
1"
#7421894
0"
#7617207
0C
1<
19
1?
12
16
1=
15
14
b11 +
1V"
13
b11 .
1U"
1W"
1Y"
b111111111101100 !
b111111111101100 -
0X"
1"
#7812520
0"
#8007833
1M
02
0F
0<
05
0I
0?
0V"
03
0@
0G
b0 +
06
0=
0U"
0>
b0 .
04
0W"
0Y"
1A
0C
07
19
1X"
0B
b111111111101011 !
b111111111101011 -
18
1"
#8203146
0"
#8398459
09
12
15
b1 +
1V"
13
b1 .
1U"
1W"
1Y"
b111111111101010 !
b111111111101010 -
0X"
1"
#8593772
0"
#8789085
1M
0F
0C
0I
02
0<
0@
0G
05
0?
0>
0V"
03
b0 +
06
0=
0U"
b0 .
04
0W"
0Y"
17
09
1X"
b111111111101001 !
b111111111101001 -
08
1"
#8984398
0"
#9179711
0M
1F
1C
1I
1<
1@
1G
19
1?
1>
12
16
1=
15
14
b111 +
1V"
13
b111 .
1U"
1W"
1Y"
b111111111101000 !
b111111111101000 -
0X"
1"
#9375024
0"
#9570337
1a
0Z
0W
0]
02
0P
0T
0[
0F
0<
05
0S
0R
0I
0?
0V"
03
0J
0Q
0@
0G
b0 +
06
0=
0U"
0H
0>
b0 .
04
0W"
0Y"
1K
0M
0A
1C
07
19
1X"
0L
1B
b111111111100111 !
b111111111100111 -
18
1"
#9765650
0"
#9960963
09
12
15
b1 +
1V"
13
b1 .
1U"
1W"
1Y"
b111111111100110 !
b111111111100110 -
0X"
1"
#10156276
0"
#10351589
1C
02
0<
05
0?
0V"
03
b0 +
06
0=
0U"
b0 .
04
0W"
0Y"
17
09
1X"
b111111111100101 !
b111111111100101 -
08
1"
#10546902
0"
#10742215
0C
1<
19
1?
12
16
1=
15
14
b11 +
1V"
13
b11 .
1U"
1W"
1Y"
b111111111100100 !
b111111111100100 -
0X"
1"
#10937528
0"
#11132841
1a
0Z
0W
0]
0P
0T
0[
0M
0S
0R
02
0F
0J
0Q
0<
05
0I
0H
0?
0V"
03
0@
0G
b0 +
06
0=
0U"
0>
b0 .
04
0W"
0Y"
1A
0C
07
19
1X"
0B
b111111111100011 !
b111111111100011 -
18
1"
#11328154
0"
#11523467
09
12
15
b1 +
1V"
13
b1 .
1U"
1W"
1Y"
b111111111100010 !
b111111111100010 -
0X"
1"
#11718780
0"
#11914093
1a
0Z
0W
0]
0P
0T
0[
0M
0S
0R
0F
0J
0Q
0C
0I
0H
02
0<
0@
0G
05
0?
0>
0V"
03
b0 +
06
0=
0U"
b0 .
04
0W"
0Y"
17
09
1X"
b111111111100001 !
b111111111100001 -
08
1"
#12109406
0"
#12304719
0a
1Z
1W
1]
1P
1T
1[
1M
1S
1R
1F
1J
1Q
1C
1I
1H
1<
1@
1G
19
1?
1>
12
16
1=
15
14
b11111 +
1V"
13
b11111 .
1U"
1W"
1Y"
b111111111100000 !
b111111111100000 -
0X"
1"
#12500032
0"
#12695345
1k
02
0d
0Z
0P
0F
0<
05
0g
0]
0S
0I
0?
0V"
03
0^
0e
0T
0[
0J
0Q
0@
0G
b0 +
06
0=
0U"
0\
0R
0H
0>
b0 .
04
0W"
0Y"
1_
0a
0U
1W
0K
1M
0A
1C
07
19
1X"
0`
1V
1L
1B
b111111111011111 !
b111111111011111 -
18
1"
#12890658
0"
#13085971
09
12
15
b1 +
1V"
13
b1 .
1U"
1W"
1Y"
b111111111011110 !
b111111111011110 -
0X"
1"
#13281284
0"
#13476597
1C
02
0<
05
0?
0V"
03
b0 +
06
0=
0U"
b0 .
04
0W"
0Y"
17
09
1X"
b111111111011101 !
b111111111011101 -
08
1"
#13671910
0"
#13867223
0C
1<
19
1?
12
16
1=
15
14
b11 +
1V"
13
b11 .
1U"
1W"
1Y"
b111111111011100 !
b111111111011100 -
0X"
1"
#14062536
0"
#14257849
1M
02
0F
0<
05
0I
0?
0V"
03
0@
0G
b0 +
06
0=
0U"
0>
b0 .
04
0W"
0Y"
1A
0C
07
19
1X"
0B
b111111111011011 !
b111111111011011 -
18
1"
#14453162
0"
#14648475
09
12
15
b1 +
1V"
13
b1 .
1U"
1W"
1Y"
b111111111011010 !
b111111111011010 -
0X"
1"
#14843788
0"
#15039101
1M
0F
0C
0I
02
0<
0@
0G
05
0?
0>
0V"
03
b0 +
06
0=
0U"
b0 .
04
0W"
0Y"
17
09
1X"
b111111111011001 !
b111111111011001 -
08
1"
#15234414
0"
#15429727
0M
1F
1C
1I
1<
1@
1G
19
1?
1>
12
16
1=
15
14
b111 +
1V"
13
b111 .
1U"
1W"
1Y"
b111111111011000 !
b111111111011000 -
0X"
1"
#15625040
0"
#15820353
1W
02
0P
0F
0<
05
0S
0I
0?
0V"
03
0J
0Q
0@
0G
b0 +
06
0=
0U"
0H
0>
b0 .
04
0W"
0Y"
1K
0M
0A
1C
07
19
1X"
0L
1B
b111111111010111 !
b111111111010111 -
18
1"
#16015666
0"
#16210979
09
12
15
b1 +
1V"
13
b1 .
1U"
1W"
1Y"
b111111111010110 !
b111111111010110 -
0X"
1"
#16406292
0"
#16601605
1C
02
0<
05
0?
0V"
03
b0 +
06
0=
0U"
b0 .
04
0W"
0Y"
17
09
1X"
b111111111010101 !
b111111111010101 -
08
1"
#16796918
0"
#16992231
0C
1<
19
1?
12
16
1=
15
14
b11 +
1V"
13
b11 .
1U"
1W"
1Y"
b111111111010100 !
b111111111010100 -
0X"
1"
#17187544
0"
#17382857
1W
0P
0M
0S
02
0F
0J
0Q
0<
05
0I
0H
0?
0V"
03
0@
0G
b0 +
06
0=
0U"
0>
b0 .
04
0W"
0Y"
1A
0C
07
19
1X"
0B
b111111111010011 !
b111111111010011 -
18
1"
#17578170
0"
#17773483
09
12
15
b1 +
1V"
13
b1 .
1U"
1W"
1Y"
b111111111010010 !
b111111111010010 -
0X"
1"
#17968796
0"
#18164109
1W
0P
0M
0S
0F
0J
0Q
0C
0I
0H
02
0<
0@
0G
05
0?
0>
0V"
03
b0 +
06
0=
0U"
b0 .
04
0W"
0Y"
17
09
1X"
b111111111010001 !
b111111111010001 -
08
1"
#18359422
0"
#18554735
0W
1P
1M
1S
1F
1J
1Q
1C
1I
1H
1<
1@
1G
19
1?
1>
12
16
1=
15
14
b1111 +
1V"
13
b1111 .
1U"
1W"
1Y"
b111111111010000 !
b111111111010000 -
0X"
1"
#18750048
0"
#18945361
1k
0d
0a
0g
02
0Z
0^
0e
0P
0F
0<
05
0]
0\
0S
0I
0?
0V"
03
0T
0[
0J
0Q
0@
0G
b0 +
06
0=
0U"
0R
0H
0>
b0 .
04
0W"
0Y"
1U
0W
0K
1M
0A
1C
07
19
1X"
0V
1L
1B
b111111111001111 !
b111111111001111 -
18
1"
#19140674
0"
#19335987
09
12
15
b1 +
1V"
13
b1 .
1U"
1W"
1Y"
b111111111001110 !
b111111111001110 -
0X"
1"
#19337987
19
02
05
b0 +
0V"
03
b0 .
0U"
0)
1%
#19531300
0"
#19726613
1W
1P
0M
1S
1F
1J
1N
0C
1I
1E
1<
1@
1D
09
1?
1;
12
16
1:
15
11
b1111 +
1V"
10
0W"
0Y"
b1111 /
1T"
b111111111001111 !
b111111111001111 -
1X"
1"
#19921926
0"
#20117239
0a
0<
0F
0P
0Z
02
0?
0I
0S
0]
05
06
0:
0@
0D
0J
0N
0T
0X
b0 +
0V"
00
17
09
01
1A
0C
0;
1K
0M
0E
0U
1W
0O
1W"
1Y"
b0 /
0T"
08
0B
0L
1V
b111111111010000 !
b111111111010000 -
0X"
1"
#20312552
0"
#20507865
19
12
15
b1 +
1V"
10
0W"
0Y"
b1 /
1T"
b111111111010001 !
b111111111010001 -
1X"
1"
#20703178
0"
#20898491
0C
0<
02
0?
05
06
0:
b0 +
0V"
00
07
19
01
1W"
1Y"
b0 /
0T"
18
b111111111010010 !
b111111111010010 -
0X"
1"
#21093804
0"
#21289117
1C
1<
09
1?
12
16
1:
15
11
b11 +
1V"
10
0W"
0Y"
b11 /
1T"
b111111111010011 !
b111111111010011 -
1X"
1"
#21484430
0"
#21679743
0M
0<
0F
02
0?
0I
05
06
0:
0@
0D
b0 +
0V"
00
17
09
01
0A
1C
0;
1W"
1Y"
b0 /
0T"
08
1B
b111111111010100 !
b111111111010100 -
0X"
1"
#21875056
0"
#22070369
19
12
15
b1 +
1V"
10
0W"
0Y"
b1 /
1T"
b111111111010101 !
b111111111010101 -
1X"
1"
#22265682
0"
#22460995
0M
0F
1C
0I
0<
0@
0D
02
0?
0;
05
06
0:
b0 +
0V"
00
07
19
01
1W"
1Y"
b0 /
0T"
18
b111111111010110 !
b111111111010110 -
0X"
1"
#22656308
0"
#22851621
1M
1F
0C
1I
1<
1@
1D
09
1?
1;
12
16
1:
15
11
b111 +
1V"
10
0W"
0Y"
b111 /
1T"
b111111111010111 !
b111111111010111 -
1X"
1"
#23046934
0"
#23242247
0a
0Z
1W
0]
0<
0F
0P
0T
0X
02
0?
0I
0S
0O
05
06
0:
0@
0D
0J
0N
b0 +
0V"
00
17
09
01
1A
0C
0;
0K
1M
0E
1W"
1Y"
b0 /
0T"
08
0B
1L
b111111111011000 !
b111111111011000 -
0X"
1"
#23437560
0"
#23632873
19
12
15
b1 +
1V"
10
0W"
0Y"
b1 /
1T"
b111111111011001 !
b111111111011001 -
1X"
1"
#23828186
0"
#24023499
0C
0<
02
0?
05
06
0:
b0 +
0V"
00
07
19
01
1W"
1Y"
b0 /
0T"
18
b111111111011010 !
b111111111011010 -
0X"
1"
#24218812
0"
#24414125
1C
1<
09
1?
12
16
1:
15
11
b11 +
1V"
10
0W"
0Y"
b11 /
1T"
b111111111011011 !
b111111111011011 -
1X"
1"
#24609438
0"
#24804751
0a
0Z
1W
0]
0P
0T
0X
1M
0S
0O
0<
0F
0J
0N
02
0?
0I
0E
05
06
0:
0@
0D
b0 +
0V"
00
17
09
01
0A
1C
0;
1W"
1Y"
b0 /
0T"
08
1B
b111111111011100 !
b111111111011100 -
0X"
1"
#25000064
0"
#25195377
19
12
15
b1 +
1V"
10
0W"
0Y"
b1 /
1T"
b111111111011101 !
b111111111011101 -
1X"
1"
#25390690
0"
#25586003
0a
0Z
1W
0]
0P
0T
0X
1M
0S
0O
0F
0J
0N
1C
0I
0E
0<
0@
0D
02
0?
0;
05
06
0:
b0 +
0V"
00
07
19
01
1W"
1Y"
b0 /
0T"
18
b111111111011110 !
b111111111011110 -
0X"
1"
#25781316
0"
#25976629
1a
1Z
0W
1]
1P
1T
1X
0M
1S
1O
1F
1J
1N
0C
1I
1E
1<
1@
1D
09
1?
1;
12
16
1:
15
11
b11111 +
1V"
10
0W"
0Y"
b11111 /
1T"
b111111111011111 !
b111111111011111 -
1X"
1"
#26171942
0"
#26367255
0Z"
1\"
0*
1S"
0]"
0'
0L"
0P"
1I"
0O"
0K"
0B"
0F"
0J"
1?"
0E"
0A"
08"
0<"
0@"
15"
0;"
07"
0."
02"
06"
1+"
01"
0-"
0$"
0("
0,"
1!"
0'"
0#"
0x
0|
0""
1u
0{
0w
0n
0r
0v
1k
0q
0m
0<
0F
0P
0Z
0d
0h
0l
02
0?
0I
0S
0]
0g
0c
05
06
0:
0@
0D
0J
0N
0T
0X
0^
0b
b0 +
0V"
00
17
09
01
1A
0C
0;
1K
0M
0E
1U
0W
0O
0_
1a
0Y
1W"
1Y"
b0 /
0T"
08
0B
0L
0V
1`
b111111111100000 !
b111111111100000 -
0X"
1"
#26562568
0"
#26757881
19
12
15
b1 +
1V"
10
0W"
0Y"
b1 /
1T"
b111111111100001 !
b111111111100001 -
1X"
1"
#26953194
0"
#27148507
0C
0<
02
0?
05
06
0:
b0 +
0V"
00
07
19
01
1W"
1Y"
b0 /
0T"
18
b111111111100010 !
b111111111100010 -
0X"
1"
#27343820
0"
#27539133
1C
1<
09
1?
12
16
1:
15
11
b11 +
1V"
10
0W"
0Y"
b11 /
1T"
b111111111100011 !
b111111111100011 -
1X"
1"
#27734446
0"
#27929759
0M
0<
0F
02
0?
0I
05
06
0:
0@
0D
b0 +
0V"
00
17
09
01
0A
1C
0;
1W"
1Y"
b0 /
0T"
08
1B
b111111111100100 !
b111111111100100 -
0X"
1"
#28125072
0"
#28320385
19
12
15
b1 +
1V"
10
0W"
0Y"
b1 /
1T"
b111111111100101 !
b111111111100101 -
1X"
1"
#28515698
0"
