verilog/final_verilog/Readout/ro_block_1.vcd
$date
	Mon Mar 21 23:55:07 2022
$end
$version
	Icarus Verilog
$end
$timescale
	1ps
$end
$scope module tb_ro_1 $end
$var wire 2 ! out [1:0] $end
$var reg 1 " clk_ext $end
$var reg 2 # in1 [1:0] $end
$var reg 1 $ pwr $end
$var reg 1 % rstb $end
$var real 1 & clk_in_hp $end
$scope module b1 $end
$var wire 1 " clk_ext $end
$var wire 2 ' in1 [1:0] $end
$var wire 1 $ pwr $end
$var wire 1 % rstb $end
$var wire 2 ( out [1:0] $end
$var wire 1 ) ctrl $end
$upscope $end
$upscope $end
$enddefinitions $end
#0
$dumpvars
x)
bx (
b10 '
r195.3125 &
0%
1$
b10 #
0"
bx !
$end
#2000
0)
#3000
bz !
bz (
#195313
1"
#276000
1%
#390626
0"
#585939
1"
#781252
0"
#782252
1)
#783252
b10 !
b10 (
#976565
1"
#977565
0)
#978565
bz !
bz (
#1171878
0"
#1172878
1)
#1173878
b10 !
b10 (
#1176565
0%
#1178565
0)
#1179565
bz !
bz (
