verilog/final_verilog/Readout/ro_block_3.vcd
$date
	Mon Mar 21 19:31:01 2022
$end
$version
	Icarus Verilog
$end
$timescale
	1ps
$end
$scope module tb_ro_3 $end
$var wire 2 ! out [1:0] $end
$var reg 1 " clk_4 $end
$var reg 1 # clk_ext $end
$var reg 2 $ in3 [1:0] $end
$var reg 1 % pwr $end
$var real 1 & clk_in_hp $end
$var real 1 ' clk_in_hp2 $end
$scope module b3 $end
$var wire 1 " clk_4 $end
$var wire 1 # clk_ext $end
$var wire 2 ( in3 [1:0] $end
$var wire 1 % pwr $end
$var wire 2 ) out [1:0] $end
$var wire 1 * ctrl $end
$upscope $end
$upscope $end
$enddefinitions $end
#0
$dumpvars
x*
bx )
b10 (
r781.25 '
r195.3125 &
1%
b10 $
1#
1"
bx !
$end
#195313
0#
#196313
0*
#197313
bz !
bz )
#390626
1#
#585939
0#
#781250
0"
#781252
1#
#783250
1*
#784250
b10 !
b10 )
#976565
0#
#977565
0*
#978565
bz !
bz )
#1171878
1#
#1367191
0#
#1562500
1"
#1562504
1#
#1757817
0#
#1953130
1#
#2148443
0#
#2343750
0"
#2343756
1#
#2345750
1*
#2346750
b10 !
b10 )
#2539069
0#
#2540069
0*
#2541069
bz !
bz )
#2734382
1#
#2929695
0#
#3125000
1"
#3125008
1#
#3320321
0#
#3515634
1#
#3710947
0#
#3906250
0"
#3906260
1#
#3908250
1*
#3909250
b10 !
b10 )
#4101573
0#
#4102573
0*
#4103573
bz !
bz )
#4296886
1#
#4492199
0#
#4687500
1"
#4687512
1#
#4882825
0#
#5078138
1#
#5273451
0#
#5468750
0"
#5468764
1#
#5470750
1*
#5471750
b10 !
b10 )
#5664077
0#
#5665077
0*
#5666077
bz !
bz )
#5859390
1#
#6054703
0#
#6250000
1"
#6250016
1#
#6445329
0#
#6640642
1#
#6835955
0#
#7031250
0"
#7031268
1#
#7033250
1*
#7034250
b10 !
b10 )
#7226581
0#
#7227581
0*
#7228581
bz !
bz )
#7421894
1#
#7617207
0#
#7812500
1"
#7812520
1#
#8007833
0#
#8203146
1#
#8398459
0#
#8593750
0"
#8593772
1#
#8595750
1*
#8596750
b10 !
b10 )
#8789085
0#
#8790085
0*
#8791085
bz !
bz )
#8984398
1#
#9179711
0#
#9375000
1"
#9375024
1#
#9570337
0#
#9765650
1#
#9960963
0#
#10156250
0"
#10156276
1#
#10158250
1*
#10159250
b10 !
b10 )
#10351589
0#
#10352589
0*
#10353589
bz !
bz )
#10546902
1#
#10742215
0#
#10937500
1"
#10937528
1#
#11132841
0#
#11328154
1#
#11523467
0#
#11718750
0"
#11718780
1#
#11720750
1*
#11721750
b10 !
b10 )
#11914093
0#
#11915093
0*
#11916093
bz !
bz )
#12109406
1#
#12304719
0#
#12500000
1"
#12500032
1#
#12695345
0#
#12890658
1#
#13085971
0#
#13281250
0"
#13281284
1#
#13283250
1*
#13284250
b10 !
b10 )
#13476597
0#
#13477597
0*
#13478597
bz !
bz )
#13671910
1#
#13867223
0#
#14062500
1"
#14062536
1#
#14257849
0#
#14453162
1#
#14648475
0#
#14843750
0"
#14843788
1#
#14845750
1*
#14846750
b10 !
b10 )
#15039101
0#
#15040101
0*
#15041101
bz !
bz )
#15234414
1#
#15429727
0#
#15625000
1"
#15625040
1#
#15820353
0#
#16015666
1#
#16210979
0#
#16406250
0"
#16406292
1#
#16408250
1*
#16409250
b10 !
b10 )
#16601605
0#
#16602605
0*
#16603605
bz !
bz )
#16796918
1#
#16992231
0#
#17187500
1"
#17187544
1#
#17382857
0#
#17578170
1#
#17773483
0#
#17968750
0"
#17968796
1#
#17970750
1*
#17971750
b10 !
b10 )
#18164109
0#
#18165109
0*
#18166109
bz !
bz )
#18359422
1#
#18554735
0#
#18750000
1"
#18750048
1#
#18945361
0#
#19140674
1#
#19335987
0#
#19531250
0"
#19531300
1#
#19533250
1*
#19534250
b10 !
b10 )
#19726613
0#
#19727613
0*
#19728613
bz !
bz )
#19921926
1#
#20117239
0#
#20312500
1"
#20312552
1#
#20507865
0#
#20703178
1#
#20898491
0#
#21093750
0"
#21093804
1#
#21095750
1*
#21096750
b10 !
b10 )
#21289117
0#
#21290117
0*
#21291117
bz !
bz )
#21484430
1#
#21679743
0#
#21875000
1"
#21875056
1#
#22070369
0#
#22265682
1#
#22460995
0#
#22656250
0"
#22656308
1#
#22658250
1*
#22659250
b10 !
b10 )
#22851621
0#
#22852621
0*
#22853621
bz !
bz )
#23046934
1#
#23242247
0#
#23437500
1"
#23437560
1#
#23632873
0#
#23828186
1#
#24023499
0#
#24218750
0"
#24218812
1#
#24220750
1*
#24221750
b10 !
b10 )
#24414125
0#
#24415125
0*
#24416125
bz !
bz )
#24609438
1#
#24804751
0#
#25000000
1"
#25000064
1#
#25195377
0#
#25390690
1#
#25586003
0#
#25781250
0"
#25781316
1#
#25783250
1*
#25784250
b10 !
b10 )
#25976629
0#
#25977629
0*
#25978629
bz !
bz )
#26171942
1#
#26367255
0#
#26562500
1"
#26562568
1#
#26757881
0#
#26953194
1#
#27148507
0#
#27343750
0"
#27343820
1#
#27345750
1*
#27346750
b10 !
b10 )
#27539133
0#
#27540133
0*
#27541133
bz !
bz )
#27734446
1#
#27929759
0#
#28125000
1"
#28125072
1#
#28320385
0#
#28515698
1#
#28711011
0#
#28906250
0"
#28906324
1#
#28908250
1*
#28909250
b10 !
b10 )
#29101637
0#
#29102637
0*
#29103637
bz !
bz )
#29296950
1#
#29492263
0#
#29687500
1"
#29687576
1#
#29882889
0#
#30078202
1#
#30273515
0#
#30468750
0"
#30468828
1#
#30470750
1*
#30471750
b10 !
b10 )
#30664141
0#
#30665141
0*
#30666141
bz !
bz )
