verilog/final_verilog/Readout/ro_block_7.vcd
$date
	Mon Mar 21 20:02:51 2022
$end
$version
	Icarus Verilog
$end
$timescale
	1ps
$end
$scope module tb_ro_7 $end
$var wire 2 ! out [1:0] $end
$var reg 1 " clk_64 $end
$var reg 1 # clk_ext $end
$var reg 2 $ in7 [1:0] $end
$var reg 1 % pwr $end
$var real 1 & clk_in_hp $end
$var real 1 ' clk_in_hp2 $end
$scope module b7 $end
$var wire 1 " clk_64 $end
$var wire 1 # clk_ext $end
$var wire 2 ( in7 [1:0] $end
$var wire 1 % pwr $end
$var wire 2 ) out [1:0] $end
$var wire 1 * ctrl $end
$upscope $end
$upscope $end
$enddefinitions $end
#0
$dumpvars
x*
bx )
b10 (
r12800.16384209718 '
r200 &
1%
b10 $
1#
1"
bx !
$end
#200000
0#
#201000
0*
#202000
bz !
bz )
#400000
1#
#600000
0#
#800000
1#
#1000000
0#
#1200000
1#
#1400000
0#
#1600000
1#
#1800000
0#
#2000000
1#
#2200000
0#
#2400000
1#
#2600000
0#
#2800000
1#
#3000000
0#
#3200000
1#
#3400000
0#
#3600000
1#
#3800000
0#
#4000000
1#
#4200000
0#
#4400000
1#
#4600000
0#
#4800000
1#
#5000000
0#
#5200000
1#
#5400000
0#
#5600000
1#
#5800000
0#
#6000000
1#
#6200000
0#
#6400000
1#
#6600000
0#
#6800000
1#
#7000000
0#
#7200000
1#
#7400000
0#
#7600000
1#
#7800000
0#
#8000000
1#
#8200000
0#
#8400000
1#
#8600000
0#
#8800000
1#
#9000000
0#
#9200000
1#
#9400000
0#
#9600000
1#
#9800000
0#
#10000000
1#
#10200000
0#
#10400000
1#
#10600000
0#
#10800000
1#
#11000000
0#
#11200000
1#
#11400000
0#
#11600000
1#
#11800000
0#
#12000000
1#
#12200000
0#
#12400000
1#
#12600000
0#
#12800000
1#
#12800164
0"
#12802164
1*
#12803164
b10 !
b10 )
#13000000
0#
#13001000
0*
#13002000
bz !
bz )
#13200000
1#
#13400000
0#
#13600000
1#
#13800000
0#
#14000000
1#
#14200000
0#
#14400000
1#
#14600000
0#
#14800000
1#
#15000000
0#
#15200000
1#
#15400000
0#
#15600000
1#
#15800000
0#
#16000000
1#
#16200000
0#
#16400000
1#
#16600000
0#
#16800000
1#
#17000000
0#
#17200000
1#
#17400000
0#
#17600000
1#
#17800000
0#
#18000000
1#
#18200000
0#
#18400000
1#
#18600000
0#
#18800000
1#
#19000000
0#
#19200000
1#
#19400000
0#
#19600000
1#
#19800000
0#
#20000000
1#
#20200000
0#
#20400000
1#
#20600000
0#
#20800000
1#
#21000000
0#
#21200000
1#
#21400000
0#
#21600000
1#
#21800000
0#
#22000000
1#
#22200000
0#
#22400000
1#
#22600000
0#
#22800000
1#
#23000000
0#
#23200000
1#
#23400000
0#
#23600000
1#
#23800000
0#
#24000000
1#
#24200000
0#
#24400000
1#
#24600000
0#
#24800000
1#
#25000000
0#
#25200000
1#
#25400000
0#
#25600000
1#
#25600328
1"
#25800000
0#
#26000000
1#
#26200000
0#
#26400000
1#
#26600000
0#
#26800000
1#
#27000000
0#
#27200000
1#
#27400000
0#
#27600000
1#
#27800000
0#
#28000000
1#
#28200000
0#
#28400000
1#
#28600000
0#
#28800000
1#
#29000000
0#
#29200000
1#
#29400000
0#
#29600000
1#
#29800000
0#
#30000000
1#
#30200000
0#
#30400000
1#
#30600000
0#
#30800000
1#
#31000000
0#
#31200000
1#
#31400000
0#
#31600000
1#
#31800000
0#
#32000000
1#
#32200000
0#
#32400000
1#
#32600000
0#
#32800000
1#
#33000000
0#
#33200000
1#
#33400000
0#
#33600000
1#
#33800000
0#
#34000000
1#
#34200000
0#
#34400000
1#
#34600000
0#
#34800000
1#
#35000000
0#
#35200000
1#
#35400000
0#
#35600000
1#
#35800000
0#
#36000000
1#
#36200000
0#
#36400000
1#
#36600000
0#
#36800000
1#
#37000000
0#
#37200000
1#
#37400000
0#
#37600000
1#
#37800000
0#
#38000000
1#
#38200000
0#
#38400000
1#
#38400492
0"
#38402492
1*
#38403492
b10 !
b10 )
#38600000
0#
#38601000
0*
#38602000
bz !
bz )
