verilog/final_verilog/Readout/ro_block_6.vcd
$date
	Mon Mar 21 19:33:11 2022
$end
$version
	Icarus Verilog
$end
$timescale
	1ps
$end
$scope module tb_ro_6 $end
$var wire 2 ! out [1:0] $end
$var reg 1 " clk_32 $end
$var reg 1 # clk_ext $end
$var reg 2 $ in6 [1:0] $end
$var reg 1 % pwr $end
$var real 1 & clk_in_hp $end
$var real 1 ' clk_in_hp2 $end
$scope module b6 $end
$var wire 1 " clk_32 $end
$var wire 1 # clk_ext $end
$var wire 2 ( in6 [1:0] $end
$var wire 1 % pwr $end
$var wire 2 ) out [1:0] $end
$var wire 1 * ctrl $end
$upscope $end
$upscope $end
$enddefinitions $end
#0
$dumpvars
x*
bx )
b10 (
r6250 '
r195.3125 &
1%
b10 $
1#
1"
bx !
$end
#195313
0#
#196313
0*
#197313
bz !
bz )
#390626
1#
#585939
0#
#781252
1#
#976565
0#
#1171878
1#
#1367191
0#
#1562504
1#
#1757817
0#
#1953130
1#
#2148443
0#
#2343756
1#
#2539069
0#
#2734382
1#
#2929695
0#
#3125008
1#
#3320321
0#
#3515634
1#
#3710947
0#
#3906260
1#
#4101573
0#
#4296886
1#
#4492199
0#
#4687512
1#
#4882825
0#
#5078138
1#
#5273451
0#
#5468764
1#
#5664077
0#
#5859390
1#
#6054703
0#
#6250000
0"
#6250016
1#
#6252000
1*
#6253000
b10 !
b10 )
#6445329
0#
#6446329
0*
#6447329
bz !
bz )
#6640642
1#
#6835955
0#
#7031268
1#
#7226581
0#
#7421894
1#
#7617207
0#
#7812520
1#
#8007833
0#
#8203146
1#
#8398459
0#
#8593772
1#
#8789085
0#
#8984398
1#
#9179711
0#
#9375024
1#
#9570337
0#
#9765650
1#
#9960963
0#
#10156276
1#
#10351589
0#
#10546902
1#
#10742215
0#
#10937528
1#
#11132841
0#
#11328154
1#
#11523467
0#
#11718780
1#
#11914093
0#
#12109406
1#
#12304719
0#
#12500000
1"
#12500032
1#
#12695345
0#
#12890658
1#
#13085971
0#
#13281284
1#
#13476597
0#
#13671910
1#
#13867223
0#
#14062536
1#
#14257849
0#
#14453162
1#
#14648475
0#
#14843788
1#
#15039101
0#
#15234414
1#
#15429727
0#
#15625040
1#
#15820353
0#
#16015666
1#
#16210979
0#
#16406292
1#
#16601605
0#
#16796918
1#
#16992231
0#
#17187544
1#
#17382857
0#
#17578170
1#
#17773483
0#
#17968796
1#
#18164109
0#
#18359422
1#
#18554735
0#
#18750000
0"
#18750048
1#
#18752000
1*
#18753000
b10 !
b10 )
#18945361
0#
#18946361
0*
#18947361
bz !
bz )
