verilog/final_verilog/Readout/ro_block_2.vcd
$date
	Mon Mar 21 19:29:05 2022
$end
$version
	Icarus Verilog
$end
$timescale
	1ps
$end
$scope module tb_ro_2 $end
$var wire 2 ! out [1:0] $end
$var reg 1 " clk_2 $end
$var reg 1 # clk_ext $end
$var reg 2 $ in2 [1:0] $end
$var reg 1 % pwr $end
$var real 1 & clk_in_hp $end
$var real 1 ' clk_in_hp2 $end
$scope module b2 $end
$var wire 1 " clk_2 $end
$var wire 1 # clk_ext $end
$var wire 2 ( in2 [1:0] $end
$var wire 1 % pwr $end
$var wire 2 ) out [1:0] $end
$var wire 1 * ctrl $end
$upscope $end
$upscope $end
$enddefinitions $end
#0
$dumpvars
x*
bx )
b10 (
r390.625 '
r195.3125 &
1%
b10 $
1#
1"
bx !
$end
#195313
0#
#196313
0*
#197313
bz !
bz )
#390625
0"
#390626
1#
#392625
1*
#393625
b10 !
b10 )
#585939
0#
#586939
0*
#587939
bz !
bz )
#781250
1"
#781252
1#
#976565
0#
#1171875
0"
#1171878
1#
#1173875
1*
#1174875
b10 !
b10 )
#1367191
0#
#1368191
0*
#1369191
bz !
bz )
#1562500
1"
#1562504
1#
#1757817
0#
#1953125
0"
#1953130
1#
#1955125
1*
#1956125
b10 !
b10 )
#2148443
0#
#2149443
0*
#2150443
bz !
bz )
#2343750
1"
#2343756
1#
#2539069
0#
#2734375
0"
#2734382
1#
#2736375
1*
#2737375
b10 !
b10 )
#2929695
0#
#2930695
0*
#2931695
bz !
bz )
#3125000
1"
#3125008
1#
#3320321
0#
#3515625
0"
#3515634
1#
#3517625
1*
#3518625
b10 !
b10 )
#3710947
0#
#3711947
0*
#3712947
bz !
bz )
#3906250
1"
#3906260
1#
#4101573
0#
#4296875
0"
#4296886
1#
#4298875
1*
#4299875
b10 !
b10 )
#4492199
0#
#4493199
0*
#4494199
bz !
bz )
#4687500
1"
#4687512
1#
#4882825
0#
#5078125
0"
#5078138
1#
#5080125
1*
#5081125
b10 !
b10 )
#5273451
0#
#5274451
0*
#5275451
bz !
bz )
#5468750
1"
#5468764
1#
#5664077
0#
#5859375
0"
#5859390
1#
#5861375
1*
#5862375
b10 !
b10 )
#6054703
0#
#6055703
0*
#6056703
bz !
bz )
#6250000
1"
#6250016
1#
#6445329
0#
#6640625
0"
#6640642
1#
#6642625
1*
#6643625
b10 !
b10 )
#6835955
0#
#6836955
0*
#6837955
bz !
bz )
#7031250
1"
#7031268
1#
#7226581
0#
#7421875
0"
#7421894
1#
#7423875
1*
#7424875
b10 !
b10 )
#7617207
0#
#7618207
0*
#7619207
bz !
bz )
#7812500
1"
#7812520
1#
#8007833
0#
#8203125
0"
#8203146
1#
#8205125
1*
#8206125
b10 !
b10 )
#8398459
0#
#8399459
0*
#8400459
bz !
bz )
#8593750
1"
#8593772
1#
#8789085
0#
#8984375
0"
#8984398
1#
#8986375
1*
#8987375
b10 !
b10 )
#9179711
0#
#9180711
0*
#9181711
bz !
bz )
#9375000
1"
#9375024
1#
#9570337
0#
#9765625
0"
#9765650
1#
#9767625
1*
#9768625
b10 !
b10 )
#9960963
0#
#9961963
0*
#9962963
bz !
bz )
#10156250
1"
#10156276
1#
#10351589
0#
#10546875
0"
#10546902
1#
#10548875
1*
#10549875
b10 !
b10 )
#10742215
0#
#10743215
0*
#10744215
bz !
bz )
#10937500
1"
#10937528
1#
#11132841
0#
#11328125
0"
#11328154
1#
#11330125
1*
#11331125
b10 !
b10 )
#11523467
0#
#11524467
0*
#11525467
bz !
bz )
#11718750
1"
#11718780
1#
#11914093
0#
#12109375
0"
#12109406
1#
#12111375
1*
#12112375
b10 !
b10 )
#12304719
0#
#12305719
0*
#12306719
bz !
bz )
#12500000
1"
#12500032
1#
#12695345
0#
#12890625
0"
#12890658
1#
#12892625
1*
#12893625
b10 !
b10 )
#13085971
0#
#13086971
0*
#13087971
bz !
bz )
#13281250
1"
#13281284
1#
#13476597
0#
#13671875
0"
#13671910
1#
#13673875
1*
#13674875
b10 !
b10 )
#13867223
0#
#13868223
0*
#13869223
bz !
bz )
#14062500
1"
#14062536
1#
#14257849
0#
#14453125
0"
#14453162
1#
#14455125
1*
#14456125
b10 !
b10 )
#14648475
0#
#14649475
0*
#14650475
bz !
bz )
#14843750
1"
#14843788
1#
#15039101
0#
#15234375
0"
#15234414
1#
#15236375
1*
#15237375
b10 !
b10 )
#15429727
0#
#15430727
0*
#15431727
bz !
bz )
