verilog/final_verilog/final readout/ro_block_1.vcd
$date
	Mon May 23 18:11:37 2022
$end
$version
	Icarus Verilog
$end
$timescale
	1ps
$end
$scope module tb_ro_integrated $end
$var wire 1 ! muxed_out $end
$var wire 17 " gc_clk [16:0] $end
$var reg 8 # clk_ext [7:0] $end
$var reg 1 $ clk_ext_global $end
$var reg 8 % comp_out [7:0] $end
$var reg 1 & en_global $end
$var reg 1 ' gc_rstb $end
$var reg 1 ( pwr $end
$var real 1 ) clk_half_pd_0 $end
$var real 1 * clk_half_pd_1 $end
$var real 1 + clk_half_pd_2 $end
$var real 1 , clk_half_pd_3 $end
$var real 1 - clk_half_pd_4 $end
$var real 1 . clk_half_pd_5 $end
$var real 1 / clk_half_pd_6 $end
$var real 1 0 clk_half_pd_7 $end
$var real 1 1 clk_half_pd_global $end
$var real 1 2 comp_out_half_pd_0 $end
$var real 1 3 comp_out_half_pd_1 $end
$var real 1 4 comp_out_half_pd_2 $end
$var real 1 5 comp_out_half_pd_3 $end
$var real 1 6 comp_out_half_pd_4 $end
$var real 1 7 comp_out_half_pd_5 $end
$var real 1 8 comp_out_half_pd_6 $end
$var real 1 9 comp_out_half_pd_7 $end
$scope module gc_clock $end
$var wire 1 $ clk $end
$var wire 1 & enable $end
$var wire 1 ' reset $end
$var reg 17 : gray_count [16:0] $end
$var reg 1 ; q_msb $end
$var integer 32 < i [31:0] $end
$var integer 32 = j [31:0] $end
$var integer 32 > k [31:0] $end
$upscope $end
$scope module ro_int $end
$var wire 8 ? clk_ext [7:0] $end
$var wire 8 @ gray [7:0] $end
$var wire 8 A in [7:0] $end
$var wire 1 ! out_mux $end
$var wire 1 ( pwr $end
$scope begin ro_loop[0] $end
$scope module ro $end
$var wire 1 B clk_ext $end
$var wire 1 C gray $end
$var wire 1 D in $end
$var wire 1 ! out_mux $end
$var wire 1 ( pwr $end
$var wire 1 E eff_out $end
$scope module ef $end
$var wire 1 C clk $end
$var wire 1 ( d $end
$var wire 1 B rstb $end
$var wire 2 F q [1:0] $end
$var wire 1 E out $end
$var wire 1 G buff_out $end
$scope module bf $end
$var wire 1 C in $end
$var wire 3 H w [2:0] $end
$var wire 1 G out $end
$scope begin buffer_loop[0] $end
$scope module g2 $end
$var wire 1 I a $end
$var wire 1 J out $end
$upscope $end
$upscope $end
$scope begin buffer_loop[1] $end
$scope module g2 $end
$var wire 1 K a $end
$var wire 1 L out $end
$upscope $end
$upscope $end
$scope module g1 $end
$var wire 1 C a $end
$var wire 1 M out $end
$upscope $end
$scope module g3 $end
$var wire 1 N a $end
$var wire 1 G out $end
$upscope $end
$upscope $end
$scope module dff $end
$var wire 1 G clk $end
$var wire 1 ( d $end
$var wire 1 B rstb $end
$var reg 1 O q $end
$upscope $end
$scope module dff_n $end
$var wire 1 G clk $end
$var wire 1 ( d $end
$var wire 1 B rstb $end
$var reg 1 P q $end
$upscope $end
$scope module mux $end
$var wire 1 Q in_0 $end
$var wire 1 R in_1 $end
$var wire 1 C sel $end
$var reg 1 E out $end
$upscope $end
$upscope $end
$scope module tribuf $end
$var wire 1 E ctrl $end
$var wire 1 D in $end
$var reg 1 S out $end
$upscope $end
$upscope $end
$upscope $end
$scope begin ro_loop[1] $end
$scope module ro $end
$var wire 1 T clk_ext $end
$var wire 1 U gray $end
$var wire 1 V in $end
$var wire 1 ! out_mux $end
$var wire 1 ( pwr $end
$var wire 1 W eff_out $end
$scope module ef $end
$var wire 1 U clk $end
$var wire 1 ( d $end
$var wire 1 T rstb $end
$var wire 2 X q [1:0] $end
$var wire 1 W out $end
$var wire 1 Y buff_out $end
$scope module bf $end
$var wire 1 U in $end
$var wire 3 Z w [2:0] $end
$var wire 1 Y out $end
$scope begin buffer_loop[0] $end
$scope module g2 $end
$var wire 1 [ a $end
$var wire 1 \ out $end
$upscope $end
$upscope $end
$scope begin buffer_loop[1] $end
$scope module g2 $end
$var wire 1 ] a $end
$var wire 1 ^ out $end
$upscope $end
$upscope $end
$scope module g1 $end
$var wire 1 U a $end
$var wire 1 _ out $end
$upscope $end
$scope module g3 $end
$var wire 1 ` a $end
$var wire 1 Y out $end
$upscope $end
$upscope $end
$scope module dff $end
$var wire 1 Y clk $end
$var wire 1 ( d $end
$var wire 1 T rstb $end
$var reg 1 a q $end
$upscope $end
$scope module dff_n $end
$var wire 1 Y clk $end
$var wire 1 ( d $end
$var wire 1 T rstb $end
$var reg 1 b q $end
$upscope $end
$scope module mux $end
$var wire 1 c in_0 $end
$var wire 1 d in_1 $end
$var wire 1 U sel $end
$var reg 1 W out $end
$upscope $end
$upscope $end
$scope module tribuf $end
$var wire 1 W ctrl $end
$var wire 1 V in $end
$var reg 1 e out $end
$upscope $end
$upscope $end
$upscope $end
$scope begin ro_loop[2] $end
$scope module ro $end
$var wire 1 f clk_ext $end
$var wire 1 g gray $end
$var wire 1 h in $end
$var wire 1 ! out_mux $end
$var wire 1 ( pwr $end
$var wire 1 i eff_out $end
$scope module ef $end
$var wire 1 g clk $end
$var wire 1 ( d $end
$var wire 1 f rstb $end
$var wire 2 j q [1:0] $end
$var wire 1 i out $end
$var wire 1 k buff_out $end
$scope module bf $end
$var wire 1 g in $end
$var wire 3 l w [2:0] $end
$var wire 1 k out $end
$scope begin buffer_loop[0] $end
$scope module g2 $end
$var wire 1 m a $end
$var wire 1 n out $end
$upscope $end
$upscope $end
$scope begin buffer_loop[1] $end
$scope module g2 $end
$var wire 1 o a $end
$var wire 1 p out $end
$upscope $end
$upscope $end
$scope module g1 $end
$var wire 1 g a $end
$var wire 1 q out $end
$upscope $end
$scope module g3 $end
$var wire 1 r a $end
$var wire 1 k out $end
$upscope $end
$upscope $end
$scope module dff $end
$var wire 1 k clk $end
$var wire 1 ( d $end
$var wire 1 f rstb $end
$var reg 1 s q $end
$upscope $end
$scope module dff_n $end
$var wire 1 k clk $end
$var wire 1 ( d $end
$var wire 1 f rstb $end
$var reg 1 t q $end
$upscope $end
$scope module mux $end
$var wire 1 u in_0 $end
$var wire 1 v in_1 $end
$var wire 1 g sel $end
$var reg 1 i out $end
$upscope $end
$upscope $end
$scope module tribuf $end
$var wire 1 i ctrl $end
$var wire 1 h in $end
$var reg 1 w out $end
$upscope $end
$upscope $end
$upscope $end
$scope begin ro_loop[3] $end
$scope module ro $end
$var wire 1 x clk_ext $end
$var wire 1 y gray $end
$var wire 1 z in $end
$var wire 1 ! out_mux $end
$var wire 1 ( pwr $end
$var wire 1 { eff_out $end
$scope module ef $end
$var wire 1 y clk $end
$var wire 1 ( d $end
$var wire 1 x rstb $end
$var wire 2 | q [1:0] $end
$var wire 1 { out $end
$var wire 1 } buff_out $end
$scope module bf $end
$var wire 1 y in $end
$var wire 3 ~ w [2:0] $end
$var wire 1 } out $end
$scope begin buffer_loop[0] $end
$scope module g2 $end
$var wire 1 !" a $end
$var wire 1 "" out $end
$upscope $end
$upscope $end
$scope begin buffer_loop[1] $end
$scope module g2 $end
$var wire 1 #" a $end
$var wire 1 $" out $end
$upscope $end
$upscope $end
$scope module g1 $end
$var wire 1 y a $end
$var wire 1 %" out $end
$upscope $end
$scope module g3 $end
$var wire 1 &" a $end
$var wire 1 } out $end
$upscope $end
$upscope $end
$scope module dff $end
$var wire 1 } clk $end
$var wire 1 ( d $end
$var wire 1 x rstb $end
$var reg 1 '" q $end
$upscope $end
$scope module dff_n $end
$var wire 1 } clk $end
$var wire 1 ( d $end
$var wire 1 x rstb $end
$var reg 1 (" q $end
$upscope $end
$scope module mux $end
$var wire 1 )" in_0 $end
$var wire 1 *" in_1 $end
$var wire 1 y sel $end
$var reg 1 { out $end
$upscope $end
$upscope $end
$scope module tribuf $end
$var wire 1 { ctrl $end
$var wire 1 z in $end
$var reg 1 +" out $end
$upscope $end
$upscope $end
$upscope $end
$scope begin ro_loop[4] $end
$scope module ro $end
$var wire 1 ," clk_ext $end
$var wire 1 -" gray $end
$var wire 1 ." in $end
$var wire 1 ! out_mux $end
$var wire 1 ( pwr $end
$var wire 1 /" eff_out $end
$scope module ef $end
$var wire 1 -" clk $end
$var wire 1 ( d $end
$var wire 1 ," rstb $end
$var wire 2 0" q [1:0] $end
$var wire 1 /" out $end
$var wire 1 1" buff_out $end
$scope module bf $end
$var wire 1 -" in $end
$var wire 3 2" w [2:0] $end
$var wire 1 1" out $end
$scope begin buffer_loop[0] $end
$scope module g2 $end
$var wire 1 3" a $end
$var wire 1 4" out $end
$upscope $end
$upscope $end
$scope begin buffer_loop[1] $end
$scope module g2 $end
$var wire 1 5" a $end
$var wire 1 6" out $end
$upscope $end
$upscope $end
$scope module g1 $end
$var wire 1 -" a $end
$var wire 1 7" out $end
$upscope $end
$scope module g3 $end
$var wire 1 8" a $end
$var wire 1 1" out $end
$upscope $end
$upscope $end
$scope module dff $end
$var wire 1 1" clk $end
$var wire 1 ( d $end
$var wire 1 ," rstb $end
$var reg 1 9" q $end
$upscope $end
$scope module dff_n $end
$var wire 1 1" clk $end
$var wire 1 ( d $end
$var wire 1 ," rstb $end
$var reg 1 :" q $end
$upscope $end
$scope module mux $end
$var wire 1 ;" in_0 $end
$var wire 1 <" in_1 $end
$var wire 1 -" sel $end
$var reg 1 /" out $end
$upscope $end
$upscope $end
$scope module tribuf $end
$var wire 1 /" ctrl $end
$var wire 1 ." in $end
$var reg 1 =" out $end
$upscope $end
$upscope $end
$upscope $end
$scope begin ro_loop[5] $end
$scope module ro $end
$var wire 1 >" clk_ext $end
$var wire 1 ?" gray $end
$var wire 1 @" in $end
$var wire 1 ! out_mux $end
$var wire 1 ( pwr $end
$var wire 1 A" eff_out $end
$scope module ef $end
$var wire 1 ?" clk $end
$var wire 1 ( d $end
$var wire 1 >" rstb $end
$var wire 2 B" q [1:0] $end
$var wire 1 A" out $end
$var wire 1 C" buff_out $end
$scope module bf $end
$var wire 1 ?" in $end
$var wire 3 D" w [2:0] $end
$var wire 1 C" out $end
$scope begin buffer_loop[0] $end
$scope module g2 $end
$var wire 1 E" a $end
$var wire 1 F" out $end
$upscope $end
$upscope $end
$scope begin buffer_loop[1] $end
$scope module g2 $end
$var wire 1 G" a $end
$var wire 1 H" out $end
$upscope $end
$upscope $end
$scope module g1 $end
$var wire 1 ?" a $end
$var wire 1 I" out $end
$upscope $end
$scope module g3 $end
$var wire 1 J" a $end
$var wire 1 C" out $end
$upscope $end
$upscope $end
$scope module dff $end
$var wire 1 C" clk $end
$var wire 1 ( d $end
$var wire 1 >" rstb $end
$var reg 1 K" q $end
$upscope $end
$scope module dff_n $end
$var wire 1 C" clk $end
$var wire 1 ( d $end
$var wire 1 >" rstb $end
$var reg 1 L" q $end
$upscope $end
$scope module mux $end
$var wire 1 M" in_0 $end
$var wire 1 N" in_1 $end
$var wire 1 ?" sel $end
$var reg 1 A" out $end
$upscope $end
$upscope $end
$scope module tribuf $end
$var wire 1 A" ctrl $end
$var wire 1 @" in $end
$var reg 1 O" out $end
$upscope $end
$upscope $end
$upscope $end
$scope begin ro_loop[6] $end
$scope module ro $end
$var wire 1 P" clk_ext $end
$var wire 1 Q" gray $end
$var wire 1 R" in $end
$var wire 1 ! out_mux $end
$var wire 1 ( pwr $end
$var wire 1 S" eff_out $end
$scope module ef $end
$var wire 1 Q" clk $end
$var wire 1 ( d $end
$var wire 1 P" rstb $end
$var wire 2 T" q [1:0] $end
$var wire 1 S" out $end
$var wire 1 U" buff_out $end
$scope module bf $end
$var wire 1 Q" in $end
$var wire 3 V" w [2:0] $end
$var wire 1 U" out $end
$scope begin buffer_loop[0] $end
$scope module g2 $end
$var wire 1 W" a $end
$var wire 1 X" out $end
$upscope $end
$upscope $end
$scope begin buffer_loop[1] $end
$scope module g2 $end
$var wire 1 Y" a $end
$var wire 1 Z" out $end
$upscope $end
$upscope $end
$scope module g1 $end
$var wire 1 Q" a $end
$var wire 1 [" out $end
$upscope $end
$scope module g3 $end
$var wire 1 \" a $end
$var wire 1 U" out $end
$upscope $end
$upscope $end
$scope module dff $end
$var wire 1 U" clk $end
$var wire 1 ( d $end
$var wire 1 P" rstb $end
$var reg 1 ]" q $end
$upscope $end
$scope module dff_n $end
$var wire 1 U" clk $end
$var wire 1 ( d $end
$var wire 1 P" rstb $end
$var reg 1 ^" q $end
$upscope $end
$scope module mux $end
$var wire 1 _" in_0 $end
$var wire 1 `" in_1 $end
$var wire 1 Q" sel $end
$var reg 1 S" out $end
$upscope $end
$upscope $end
$scope module tribuf $end
$var wire 1 S" ctrl $end
$var wire 1 R" in $end
$var reg 1 a" out $end
$upscope $end
$upscope $end
$upscope $end
$scope begin ro_loop[7] $end
$scope module ro $end
$var wire 1 b" clk_ext $end
$var wire 1 c" gray $end
$var wire 1 d" in $end
$var wire 1 ! out_mux $end
$var wire 1 ( pwr $end
$var wire 1 e" eff_out $end
$scope module ef $end
$var wire 1 c" clk $end
$var wire 1 ( d $end
$var wire 1 b" rstb $end
$var wire 2 f" q [1:0] $end
$var wire 1 e" out $end
$var wire 1 g" buff_out $end
$scope module bf $end
$var wire 1 c" in $end
$var wire 3 h" w [2:0] $end
$var wire 1 g" out $end
$scope begin buffer_loop[0] $end
$scope module g2 $end
$var wire 1 i" a $end
$var wire 1 j" out $end
$upscope $end
$upscope $end
$scope begin buffer_loop[1] $end
$scope module g2 $end
$var wire 1 k" a $end
$var wire 1 l" out $end
$upscope $end
$upscope $end
$scope module g1 $end
$var wire 1 c" a $end
$var wire 1 m" out $end
$upscope $end
$scope module g3 $end
$var wire 1 n" a $end
$var wire 1 g" out $end
$upscope $end
$upscope $end
$scope module dff $end
$var wire 1 g" clk $end
$var wire 1 ( d $end
$var wire 1 b" rstb $end
$var reg 1 o" q $end
$upscope $end
$scope module dff_n $end
$var wire 1 g" clk $end
$var wire 1 ( d $end
$var wire 1 b" rstb $end
$var reg 1 p" q $end
$upscope $end
$scope module mux $end
$var wire 1 q" in_0 $end
$var wire 1 r" in_1 $end
$var wire 1 c" sel $end
$var reg 1 e" out $end
$upscope $end
$upscope $end
$scope module tribuf $end
$var wire 1 e" ctrl $end
$var wire 1 d" in $end
$var reg 1 s" out $end
$upscope $end
$upscope $end
$upscope $end
$upscope $end
$upscope $end
$enddefinitions $end
#0
$dumpvars
zs"
0r"
0q"
0p"
0o"
1n"
1m"
1l"
0k"
0j"
1i"
b101 h"
0g"
b0 f"
0e"
0d"
0c"
0b"
za"
0`"
0_"
0^"
0]"
1\"
1["
1Z"
0Y"
0X"
1W"
b101 V"
0U"
b0 T"
0S"
0R"
0Q"
0P"
zO"
0N"
0M"
0L"
0K"
1J"
1I"
1H"
0G"
0F"
1E"
b101 D"
0C"
b0 B"
0A"
0@"
0?"
0>"
z="
0<"
0;"
0:"
09"
18"
17"
16"
05"
04"
13"
b101 2"
01"
b0 0"
0/"
0."
0-"
0,"
z+"
0*"
0)"
0("
0'"
1&"
1%"
1$"
0#"
0""
1!"
b101 ~
0}
b0 |
0{
0z
0y
0x
zw
0v
0u
0t
0s
1r
1q
1p
0o
0n
1m
b101 l
0k
b0 j
0i
0h
0g
0f
ze
0d
0c
0b
0a
1`
1_
1^
0]
0\
1[
b101 Z
0Y
b0 X
0W
0V
0U
0T
zS
0R
0Q
0P
0O
1N
1M
1L
0K
0J
1I
b101 H
0G
b0 F
0E
0D
0C
0B
b0 A
b0 @
b0 ?
b10001 >
b10000 =
b10001 <
0;
b0 :
r50000 9
r25000 8
r12500 7
r6250 6
r3125 5
r1562.5 4
r781.25 3
r390.625 2
r195.3125 1
r25000 0
r12500 /
r6250 .
r3125 -
r1562.5 ,
r781.25 +
r390.625 *
r195.3125 )
1(
0'
1&
b0 %
0$
b0 #
b0 "
z!
$end
#1000
1!
1S
1E
1R
b10 F
1O
1G
0N
0L
1K
1J
0I
b10 H
0M
1C
b1 @
b1 "
b1 :
b10001 >
b10000 =
1d"
1b"
1R"
1P"
1@"
1>"
1."
1,"
1z
1x
1h
1f
1V
1T
1D
1B
b10000 <
1'
b11111111 %
b11111111 A
b11111111 #
b11111111 ?
1$
#196313
1e
1W
1d
b10 X
1a
1Y
0`
0^
1]
1\
0[
b10 Z
0_
1U
b11 @
b11 "
b11 :
0E
0R
b10001 >
b10000 =
b0 F
0O
1!
zS
0D
0B
b10000 <
b11111110 %
b11111110 A
b11111110 #
b11111110 ?
0$
#391625
0W
0d
b0 X
0a
z!
ze
0V
0T
b11111100 %
b11111100 A
b11111100 #
b11111100 ?
#391626
0!
0S
1E
1Q
b1 F
1P
0G
1N
1L
0K
0J
1I
b101 H
1M
0C
b10 @
b10 "
b10 :
b10001 >
b10000 =
1B
b10000 <
b11111101 #
b11111101 ?
1$
#586938
1!
1S
1D
b11111101 %
b11111101 A
#586939
1w
1i
1v
b10 j
1s
1k
0r
0p
1o
1n
0m
b10 l
0q
1g
b110 @
b110 "
b110 :
1!
zS
0E
0Q
b10001 >
b10000 =
b0 F
0P
0B
b10000 <
b11111100 #
b11111100 ?
0$
#782250
0i
0v
b0 j
0s
z!
zw
1T
0h
0f
b11111001 %
b11111001 A
b11111010 #
b11111010 ?
#782252
1!
1S
1E
1R
b10 F
1O
1G
0N
0L
1K
1J
0I
b10 H
0M
1C
b111 @
b111 "
b111 :
b10001 >
b10000 =
1B
b10000 <
b11111011 #
b11111011 ?
1$
#977563
0!
0S
0D
b11111000 %
b11111000 A
#977565
0e
1W
1c
b1 X
1b
0Y
1`
1^
0]
0\
1[
b101 Z
1_
0U
b101 @
b101 "
b101 :
0!
zS
0E
0R
b10001 >
b10000 =
b0 F
0O
0B
b10000 <
b11111010 #
b11111010 ?
0$
#1172875
0W
0c
b0 X
0b
z!
ze
0T
1V
b11111000 #
b11111000 ?
b11111010 %
b11111010 A
#1172878
0!
0S
1E
1Q
b1 F
1P
0G
1N
1L
0K
0J
1I
b101 H
1M
0C
b100 @
b100 "
b100 :
b10001 >
b10000 =
1B
b10000 <
b11111001 #
b11111001 ?
1$
#1368188
1!
1S
1D
b11111011 %
b11111011 A
#1368191
1+"
1{
1*"
b10 |
1'"
1}
0&"
0$"
1#"
1""
0!"
b10 ~
0%"
1y
b1100 @
b1100 "
b1100 :
1!
zS
0E
0Q
b10001 >
b10000 =
b0 F
0P
0B
b10000 <
b11111000 #
b11111000 ?
0$
#1563500
0{
0*"
b0 |
0'"
z!
z+"
1T
1f
0z
0x
b11110011 %
b11110011 A
b11110110 #
b11110110 ?
#1563504
1!
1S
1E
1R
b10 F
1O
1G
0N
0L
1K
1J
0I
b10 H
0M
1C
b1101 @
b1101 "
b1101 :
b10001 >
b10000 =
1B
b10000 <
b11110111 #
b11110111 ?
1$
#1758813
0!
0S
0D
b11110010 %
b11110010 A
#1758817
1e
1W
1d
b10 X
1a
1Y
0`
0^
1]
1\
0[
b10 Z
0_
1U
b1111 @
b1111 "
b1111 :
1!
zS
0E
0R
b10001 >
b10000 =
b0 F
0O
0B
b10000 <
b11110110 #
b11110110 ?
0$
#1954125
0W
0d
b0 X
0a
z!
ze
0T
0V
b11110100 #
b11110100 ?
b11110000 %
b11110000 A
#1954130
0!
0S
1E
1Q
b1 F
1P
0G
1N
1L
0K
0J
1I
b101 H
1M
0C
b1110 @
b1110 "
b1110 :
b10001 >
b10000 =
1B
b10000 <
b11110101 #
b11110101 ?
1$
#2149438
1!
1S
1D
b11110001 %
b11110001 A
#2149443
0w
1i
1u
b1 j
1t
0k
1r
1p
0o
0n
1m
b101 l
1q
0g
b1010 @
b1010 "
b1010 :
0!
zS
0E
0Q
b10001 >
b10000 =
b0 F
0P
0B
b10000 <
b11110100 #
b11110100 ?
0$
#2344750
0i
0u
b0 j
0t
z!
zw
1T
0f
1h
b11110010 #
b11110010 ?
b11110101 %
b11110101 A
#2344756
1!
1S
1E
1R
b10 F
1O
1G
0N
0L
1K
1J
0I
b10 H
0M
1C
b1011 @
b1011 "
b1011 :
b10001 >
b10000 =
1B
b10000 <
b11110011 #
b11110011 ?
1$
#2540063
0!
0S
0D
b11110100 %
b11110100 A
#2540069
0e
1W
1c
b1 X
1b
0Y
1`
1^
0]
0\
1[
b101 Z
1_
0U
b1001 @
b1001 "
b1001 :
0!
zS
0E
0R
b10001 >
b10000 =
b0 F
0O
0B
b10000 <
b11110010 #
b11110010 ?
0$
#2735375
0W
0c
b0 X
0b
z!
ze
0T
1V
b11110000 #
b11110000 ?
b11110110 %
b11110110 A
#2735382
0!
0S
1E
1Q
b1 F
1P
0G
1N
1L
0K
0J
1I
b101 H
1M
0C
b1000 @
b1000 "
b1000 :
b10001 >
b10000 =
1B
b10000 <
b11110001 #
b11110001 ?
1$
#2930688
1!
1S
1D
b11110111 %
b11110111 A
#2930695
1="
1/"
1<"
b10 0"
19"
11"
08"
06"
15"
14"
03"
b10 2"
07"
1-"
b11000 @
b11000 "
b11000 :
1!
zS
0E
0Q
b10001 >
b10000 =
b0 F
0P
0B
b10000 <
b11110000 #
b11110000 ?
0$
#3126000
0/"
0<"
b0 0"
09"
z!
z="
1T
1f
1x
0."
0,"
b11100111 %
b11100111 A
b11101110 #
b11101110 ?
#3126008
1!
1S
1E
1R
b10 F
1O
1G
0N
0L
1K
1J
0I
b10 H
0M
1C
b11001 @
b11001 "
b11001 :
b10001 >
b10000 =
1B
b10000 <
b11101111 #
b11101111 ?
1$
#3321313
0!
0S
0D
b11100110 %
b11100110 A
#3321321
1e
1W
1d
b10 X
1a
1Y
0`
0^
1]
1\
0[
b10 Z
0_
1U
b11011 @
b11011 "
b11011 :
1!
zS
0E
0R
b10001 >
b10000 =
b0 F
0O
0B
b10000 <
b11101110 #
b11101110 ?
0$
#3516625
0W
0d
b0 X
0a
z!
ze
0T
0V
b11101100 #
b11101100 ?
b11100100 %
b11100100 A
#3516634
0!
0S
1E
1Q
b1 F
1P
0G
1N
1L
0K
0J
1I
b101 H
1M
0C
b11010 @
b11010 "
b11010 :
b10001 >
b10000 =
1B
b10000 <
b11101101 #
b11101101 ?
1$
#3711938
1!
1S
1D
b11100101 %
b11100101 A
#3711947
1w
1i
1v
b10 j
1s
1k
0r
0p
1o
1n
0m
b10 l
0q
1g
b11110 @
b11110 "
b11110 :
1!
zS
0E
0Q
b10001 >
b10000 =
b0 F
0P
0B
b10000 <
b11101100 #
b11101100 ?
0$
#3907250
0i
0v
b0 j
0s
z!
zw
1T
0f
0h
b11101010 #
b11101010 ?
b11100001 %
b11100001 A
#3907260
1!
1S
1E
1R
b10 F
1O
1G
0N
0L
1K
1J
0I
b10 H
0M
1C
b11111 @
b11111 "
b11111 :
b10001 >
b10000 =
1B
b10000 <
b11101011 #
b11101011 ?
1$
#4102563
0!
0S
0D
b11100000 %
b11100000 A
#4102573
0e
1W
1c
b1 X
1b
0Y
1`
1^
0]
0\
1[
b101 Z
1_
0U
b11101 @
b11101 "
b11101 :
0!
zS
0E
0R
b10001 >
b10000 =
b0 F
0O
0B
b10000 <
b11101010 #
b11101010 ?
0$
#4297875
0W
0c
b0 X
0b
z!
ze
0T
1V
b11101000 #
b11101000 ?
b11100010 %
b11100010 A
#4297886
0!
0S
1E
1Q
b1 F
1P
0G
1N
1L
0K
0J
1I
b101 H
1M
0C
b11100 @
b11100 "
b11100 :
b10001 >
b10000 =
1B
b10000 <
b11101001 #
b11101001 ?
1$
#4493188
1!
1S
1D
b11100011 %
b11100011 A
#4493199
0+"
1{
1)"
b1 |
1("
0}
1&"
1$"
0#"
0""
1!"
b101 ~
1%"
0y
b10100 @
b10100 "
b10100 :
0!
zS
0E
0Q
b10001 >
b10000 =
b0 F
0P
0B
b10000 <
b11101000 #
b11101000 ?
0$
#4688500
0{
0)"
b0 |
0("
z!
z+"
1T
1f
0x
1z
b11100110 #
b11100110 ?
b11101011 %
b11101011 A
#4688512
1!
1S
1E
1R
b10 F
1O
1G
0N
0L
1K
1J
0I
b10 H
0M
1C
b10101 @
b10101 "
b10101 :
b10001 >
b10000 =
1B
b10000 <
b11100111 #
b11100111 ?
1$
#4883813
0!
0S
0D
b11101010 %
b11101010 A
#4883825
1e
1W
1d
b10 X
1a
1Y
0`
0^
1]
1\
0[
b10 Z
0_
1U
b10111 @
b10111 "
b10111 :
1!
zS
0E
0R
b10001 >
b10000 =
b0 F
0O
0B
b10000 <
b11100110 #
b11100110 ?
0$
#5079125
0W
0d
b0 X
0a
z!
ze
0T
0V
b11100100 #
b11100100 ?
b11101000 %
b11101000 A
#5079138
0!
0S
1E
1Q
b1 F
1P
0G
1N
1L
0K
0J
1I
b101 H
1M
0C
b10110 @
b10110 "
b10110 :
b10001 >
b10000 =
1B
b10000 <
b11100101 #
b11100101 ?
1$
#5274438
1!
1S
1D
b11101001 %
b11101001 A
#5274451
0w
1i
1u
b1 j
1t
0k
1r
1p
0o
0n
1m
b101 l
1q
0g
b10010 @
b10010 "
b10010 :
0!
zS
0E
0Q
b10001 >
b10000 =
b0 F
0P
0B
b10000 <
b11100100 #
b11100100 ?
0$
#5469750
0i
0u
b0 j
0t
z!
zw
1T
0f
1h
b11100010 #
b11100010 ?
b11101101 %
b11101101 A
#5469764
1!
1S
1E
1R
b10 F
1O
1G
0N
0L
1K
1J
0I
b10 H
0M
1C
b10011 @
b10011 "
b10011 :
b10001 >
b10000 =
1B
b10000 <
b11100011 #
b11100011 ?
1$
#5665063
0!
0S
0D
b11101100 %
b11101100 A
#5665077
0e
1W
1c
b1 X
1b
0Y
1`
1^
0]
0\
1[
b101 Z
1_
0U
b10001 @
b10001 "
b10001 :
0!
zS
0E
0R
b10001 >
b10000 =
b0 F
0O
0B
b10000 <
b11100010 #
b11100010 ?
0$
#5860375
0W
0c
b0 X
0b
z!
ze
0T
1V
b11100000 #
b11100000 ?
b11101110 %
b11101110 A
#5860390
0!
0S
1E
1Q
b1 F
1P
0G
1N
1L
0K
0J
1I
b101 H
1M
0C
b10000 @
b10000 "
b10000 :
b10001 >
b10000 =
1B
b10000 <
b11100001 #
b11100001 ?
1$
#6055688
1!
1S
1D
b11101111 %
b11101111 A
#6055703
1O"
1A"
1N"
b10 B"
1K"
1C"
0J"
0H"
1G"
1F"
0E"
b10 D"
0I"
1?"
b110000 @
b110000 "
b110000 :
1!
zS
0E
0Q
b10001 >
b10000 =
b0 F
0P
0B
b10000 <
b11100000 #
b11100000 ?
0$
#6251000
0A"
0N"
b0 B"
0K"
z!
zO"
1T
1f
1x
1,"
0@"
0>"
b11001111 %
b11001111 A
b11011110 #
b11011110 ?
#6251016
1!
1S
1E
1R
b10 F
1O
1G
0N
0L
1K
1J
0I
b10 H
0M
1C
b110001 @
b110001 "
b110001 :
b10001 >
b10000 =
1B
b10000 <
b11011111 #
b11011111 ?
1$
#6446313
0!
0S
0D
b11001110 %
b11001110 A
#6446329
1e
1W
1d
b10 X
1a
1Y
0`
0^
1]
1\
0[
b10 Z
0_
1U
b110011 @
b110011 "
b110011 :
1!
zS
0E
0R
b10001 >
b10000 =
b0 F
0O
0B
b10000 <
b11011110 #
b11011110 ?
0$
#6641625
0W
0d
b0 X
0a
z!
ze
0T
0V
b11011100 #
b11011100 ?
b11001100 %
b11001100 A
#6641642
0!
0S
1E
1Q
b1 F
1P
0G
1N
1L
0K
0J
1I
b101 H
1M
0C
b110010 @
b110010 "
b110010 :
b10001 >
b10000 =
1B
b10000 <
b11011101 #
b11011101 ?
1$
#6836938
1!
1S
1D
b11001101 %
b11001101 A
#6836955
1w
1i
1v
b10 j
1s
1k
0r
0p
1o
1n
0m
b10 l
0q
1g
b110110 @
b110110 "
b110110 :
1!
zS
0E
0Q
b10001 >
b10000 =
b0 F
0P
0B
b10000 <
b11011100 #
b11011100 ?
0$
#7032250
0i
0v
b0 j
0s
z!
zw
1T
0f
0h
b11011010 #
b11011010 ?
b11001001 %
b11001001 A
#7032268
1!
1S
1E
1R
b10 F
1O
1G
0N
0L
1K
1J
0I
b10 H
0M
1C
b110111 @
b110111 "
b110111 :
b10001 >
b10000 =
1B
b10000 <
b11011011 #
b11011011 ?
1$
#7227563
0!
0S
0D
b11001000 %
b11001000 A
#7227581
0e
1W
1c
b1 X
1b
0Y
1`
1^
0]
0\
1[
b101 Z
1_
0U
b110101 @
b110101 "
b110101 :
0!
zS
0E
0R
b10001 >
b10000 =
b0 F
0O
0B
b10000 <
b11011010 #
b11011010 ?
0$
#7422875
0W
0c
b0 X
0b
z!
ze
0T
1V
b11011000 #
b11011000 ?
b11001010 %
b11001010 A
#7422894
0!
0S
1E
1Q
b1 F
1P
0G
1N
1L
0K
0J
1I
b101 H
1M
0C
b110100 @
b110100 "
b110100 :
b10001 >
b10000 =
1B
b10000 <
b11011001 #
b11011001 ?
1$
#7618188
1!
1S
1D
b11001011 %
b11001011 A
#7618207
1+"
1{
1*"
b10 |
1'"
1}
0&"
0$"
1#"
1""
0!"
b10 ~
0%"
1y
b111100 @
b111100 "
b111100 :
1!
zS
0E
0Q
b10001 >
b10000 =
b0 F
0P
0B
b10000 <
b11011000 #
b11011000 ?
0$
#7813500
0{
0*"
b0 |
0'"
z!
z+"
1T
1f
0x
0z
b11010110 #
b11010110 ?
b11000011 %
b11000011 A
#7813520
1!
1S
1E
1R
b10 F
1O
1G
0N
0L
1K
1J
0I
b10 H
0M
1C
b111101 @
b111101 "
b111101 :
b10001 >
b10000 =
1B
b10000 <
b11010111 #
b11010111 ?
1$
#8008813
0!
0S
0D
b11000010 %
b11000010 A
#8008833
1e
1W
1d
b10 X
1a
1Y
0`
0^
1]
1\
0[
b10 Z
0_
1U
b111111 @
b111111 "
b111111 :
1!
zS
0E
0R
b10001 >
b10000 =
b0 F
0O
0B
b10000 <
b11010110 #
b11010110 ?
0$
#8204125
0W
0d
b0 X
0a
z!
ze
0T
0V
b11010100 #
b11010100 ?
b11000000 %
b11000000 A
