verilog/final_verilog/final readout/ro_block_2.vcd
$date
	Thu May 19 18:08:18 2022
$end
$version
	Icarus Verilog
$end
$timescale
	1ps
$end
$scope module tb_ro_block_2 $end
$var wire 1 ! muxed_out $end
$var wire 17 " gc_clk [16:0] $end
$var reg 1 # clk_ext $end
$var reg 1 $ clk_ext_global $end
$var reg 1 % comp_out $end
$var reg 1 & en_global $end
$var reg 1 ' gc_rstb $end
$var reg 1 ( pwr $end
$var real 1 ) clk_half_pd $end
$var real 1 * clk_half_pd_global $end
$var real 1 + comp_out_half_pd $end
$scope module gc_clock $end
$var wire 1 $ clk $end
$var wire 1 & enable $end
$var wire 1 ' reset $end
$var reg 17 , gray_count [16:0] $end
$var reg 1 - q_msb $end
$var integer 32 . i [31:0] $end
$var integer 32 / j [31:0] $end
$var integer 32 0 k [31:0] $end
$upscope $end
$scope module ro1 $end
$var wire 1 # clk_ext $end
$var wire 1 1 gray $end
$var wire 1 % in $end
$var wire 1 ( pwr $end
$var wire 1 ! out_mux $end
$var wire 1 2 eff_out $end
$scope module ef $end
$var wire 1 1 clk $end
$var wire 1 ( d $end
$var wire 1 # rstb $end
$var wire 2 3 q [1:0] $end
$var wire 1 2 out $end
$var wire 1 4 buff_out $end
$scope module bf $end
$var wire 1 1 in $end
$var wire 3 5 w [2:0] $end
$var wire 1 4 out $end
$scope begin buffer_loop[0] $end
$scope module g2 $end
$var wire 1 6 a $end
$var wire 1 7 out $end
$upscope $end
$upscope $end
$scope begin buffer_loop[1] $end
$scope module g2 $end
$var wire 1 8 a $end
$var wire 1 9 out $end
$upscope $end
$upscope $end
$scope module g1 $end
$var wire 1 1 a $end
$var wire 1 : out $end
$upscope $end
$scope module g3 $end
$var wire 1 ; a $end
$var wire 1 4 out $end
$upscope $end
$upscope $end
$scope module dff $end
$var wire 1 4 clk $end
$var wire 1 ( d $end
$var wire 1 # rstb $end
$var reg 1 < q $end
$upscope $end
$scope module dff_n $end
$var wire 1 4 clk $end
$var wire 1 ( d $end
$var wire 1 # rstb $end
$var reg 1 = q $end
$upscope $end
$scope module mux $end
$var wire 1 > in_0 $end
$var wire 1 ? in_1 $end
$var wire 1 1 sel $end
$var reg 1 2 out $end
$upscope $end
$upscope $end
$scope module tribuf $end
$var wire 1 2 ctrl $end
$var wire 1 % in $end
$var reg 1 ! out $end
$upscope $end
$upscope $end
$upscope $end
$enddefinitions $end
#0
$dumpvars
0?
0>
0=
0<
1;
1:
19
08
07
16
b101 5
04
b0 3
02
01
b10001 0
b10000 /
b10001 .
0-
b0 ,
r781.25 +
r195.3125 *
r390.625 )
1(
0'
1&
0%
0$
0#
b0 "
z!
$end
#1000
b1 "
b1 ,
b10001 0
b10000 /
b10000 .
1'
1%
1#
1$
#196313
1!
12
1?
b10 3
1<
14
0;
09
18
17
06
b10 5
0:
11
b11 "
b11 ,
b10001 0
b10000 /
b10000 .
0$
#391625
02
0?
b0 3
0<
z!
0%
0#
#391626
b10 "
b10 ,
b10001 0
b10000 /
b10000 .
1$
#586939
b110 "
b110 ,
b10001 0
b10000 /
b10000 .
0$
#782250
1#
#782252
b111 "
b111 ,
b10001 0
b10000 /
b10000 .
1$
#977565
0!
12
1>
b1 3
1=
04
1;
19
08
07
16
b101 5
1:
01
b101 "
b101 ,
b10001 0
b10000 /
b10000 .
0$
#1172875
02
0>
b0 3
0=
z!
0#
1%
#1172878
b100 "
b100 ,
b10001 0
b10000 /
b10000 .
1$
#1368191
b1100 "
b1100 ,
b10001 0
b10000 /
b10000 .
0$
#1563500
1#
#1563504
b1101 "
b1101 ,
b10001 0
b10000 /
b10000 .
1$
#1758817
1!
12
1?
b10 3
1<
14
0;
09
18
17
06
b10 5
0:
11
b1111 "
b1111 ,
b10001 0
b10000 /
b10000 .
0$
#1954125
02
0?
b0 3
0<
z!
0#
0%
#1954130
b1110 "
b1110 ,
b10001 0
b10000 /
b10000 .
1$
#2149443
b1010 "
b1010 ,
b10001 0
b10000 /
b10000 .
0$
#2344750
1#
#2344756
b1011 "
b1011 ,
b10001 0
b10000 /
b10000 .
1$
#2540069
0!
12
1>
b1 3
1=
04
1;
19
08
07
16
b101 5
1:
01
b1001 "
b1001 ,
b10001 0
b10000 /
b10000 .
0$
#2735375
02
0>
b0 3
0=
z!
0#
1%
#2735382
b1000 "
b1000 ,
b10001 0
b10000 /
b10000 .
1$
#2930695
b11000 "
b11000 ,
b10001 0
b10000 /
b10000 .
0$
#3126000
1#
#3126008
b11001 "
b11001 ,
b10001 0
b10000 /
b10000 .
1$
#3321321
1!
12
1?
b10 3
1<
14
0;
09
18
17
06
b10 5
0:
11
b11011 "
b11011 ,
b10001 0
b10000 /
b10000 .
0$
#3516625
02
0?
b0 3
0<
z!
0#
0%
#3516634
b11010 "
b11010 ,
b10001 0
b10000 /
b10000 .
1$
#3711947
b11110 "
b11110 ,
b10001 0
b10000 /
b10000 .
0$
#3907250
1#
#3907260
b11111 "
b11111 ,
b10001 0
b10000 /
b10000 .
1$
#4102573
0!
12
1>
b1 3
1=
04
1;
19
08
07
16
b101 5
1:
01
b11101 "
b11101 ,
b10001 0
b10000 /
b10000 .
0$
#4297875
02
0>
b0 3
0=
z!
0#
1%
#4297886
b11100 "
b11100 ,
b10001 0
b10000 /
b10000 .
1$
#4493199
b10100 "
b10100 ,
b10001 0
b10000 /
b10000 .
0$
#4688500
1#
#4688512
b10101 "
b10101 ,
b10001 0
b10000 /
b10000 .
1$
#4883825
1!
12
1?
b10 3
1<
14
0;
09
18
17
06
b10 5
0:
11
b10111 "
b10111 ,
b10001 0
b10000 /
b10000 .
0$
#5079125
02
0?
b0 3
0<
z!
0#
0%
#5079138
b10110 "
b10110 ,
b10001 0
b10000 /
b10000 .
1$
#5274451
b10010 "
b10010 ,
b10001 0
b10000 /
b10000 .
0$
#5469750
1#
#5469764
b10011 "
b10011 ,
b10001 0
b10000 /
b10000 .
1$
#5665077
0!
12
1>
b1 3
1=
04
1;
19
08
07
16
b101 5
1:
01
b10001 "
b10001 ,
b10001 0
b10000 /
b10000 .
0$
#5860375
02
0>
b0 3
0=
z!
0#
1%
#5860390
b10000 "
b10000 ,
b10001 0
b10000 /
b10000 .
1$
#6055703
b110000 "
b110000 ,
b10001 0
b10000 /
b10000 .
0$
#6251000
1#
#6251016
b110001 "
b110001 ,
b10001 0
b10000 /
b10000 .
1$
#6446329
1!
12
1?
b10 3
1<
14
0;
09
18
17
06
b10 5
0:
11
b110011 "
b110011 ,
b10001 0
b10000 /
b10000 .
0$
#6641625
02
0?
b0 3
0<
z!
0#
0%
#6641642
b110010 "
b110010 ,
b10001 0
b10000 /
b10000 .
1$
#6836955
b110110 "
b110110 ,
b10001 0
b10000 /
b10000 .
0$
#7032250
1#
#7032268
b110111 "
b110111 ,
b10001 0
b10000 /
b10000 .
1$
#7227581
0!
12
1>
b1 3
1=
04
1;
19
08
07
16
b101 5
1:
01
b110101 "
b110101 ,
b10001 0
b10000 /
b10000 .
0$
#7422875
02
0>
b0 3
0=
z!
0#
1%
#7422894
b110100 "
b110100 ,
b10001 0
b10000 /
b10000 .
1$
#7618207
b111100 "
b111100 ,
b10001 0
b10000 /
b10000 .
0$
#7813500
1#
#7813520
b111101 "
b111101 ,
b10001 0
b10000 /
b10000 .
1$
#8008833
1!
12
1?
b10 3
1<
14
0;
09
18
17
06
b10 5
0:
11
b111111 "
b111111 ,
b10001 0
b10000 /
b10000 .
0$
#8204125
02
0?
b0 3
0<
z!
0#
0%
#8204146
b111110 "
b111110 ,
b10001 0
b10000 /
b10000 .
1$
#8399459
b111010 "
b111010 ,
b10001 0
b10000 /
b10000 .
0$
#8594750
1#
#8594772
b111011 "
b111011 ,
b10001 0
b10000 /
b10000 .
1$
#8790085
0!
12
1>
b1 3
1=
04
1;
19
08
07
16
b101 5
1:
01
b111001 "
b111001 ,
b10001 0
b10000 /
b10000 .
0$
#8985375
02
0>
b0 3
0=
z!
0#
1%
#8985398
b111000 "
b111000 ,
b10001 0
b10000 /
b10000 .
1$
#9180711
b101000 "
b101000 ,
b10001 0
b10000 /
b10000 .
0$
#9376000
1#
#9376024
b101001 "
b101001 ,
b10001 0
b10000 /
b10000 .
1$
#9571337
1!
12
1?
b10 3
1<
14
0;
09
18
17
06
b10 5
0:
11
b101011 "
b101011 ,
b10001 0
b10000 /
b10000 .
0$
#9766625
02
0?
b0 3
0<
z!
0#
0%
#9766650
b101010 "
b101010 ,
b10001 0
b10000 /
b10000 .
1$
#9961963
b101110 "
b101110 ,
b10001 0
b10000 /
b10000 .
0$
#10157250
1#
#10157276
b101111 "
b101111 ,
b10001 0
b10000 /
b10000 .
1$
#10352589
0!
12
1>
b1 3
1=
04
1;
19
08
07
16
b101 5
1:
01
b101101 "
b101101 ,
b10001 0
b10000 /
b10000 .
0$
#10547875
02
0>
b0 3
0=
z!
0#
1%
#10547902
b101100 "
b101100 ,
b10001 0
b10000 /
b10000 .
1$
#10743215
b100100 "
b100100 ,
b10001 0
b10000 /
b10000 .
0$
#10938500
1#
#10938528
b100101 "
b100101 ,
b10001 0
b10000 /
b10000 .
1$
#11133841
1!
12
1?
b10 3
1<
14
0;
09
18
17
06
b10 5
0:
11
b100111 "
b100111 ,
b10001 0
b10000 /
b10000 .
0$
#11329125
02
0?
b0 3
0<
z!
0#
0%
#11329154
b100110 "
b100110 ,
b10001 0
b10000 /
b10000 .
1$
#11524467
b100010 "
b100010 ,
b10001 0
b10000 /
b10000 .
0$
#11719750
1#
#11719780
b100011 "
b100011 ,
b10001 0
b10000 /
b10000 .
1$
#11915093
0!
12
1>
b1 3
1=
04
1;
19
08
07
16
b101 5
1:
01
b100001 "
b100001 ,
b10001 0
b10000 /
b10000 .
0$
#12110375
02
0>
b0 3
0=
z!
0#
1%
#12110406
b100000 "
b100000 ,
b10001 0
b10000 /
b10000 .
1$
#12305719
b1100000 "
b1100000 ,
b10001 0
b10000 /
b10000 .
0$
#12501000
1#
#12501032
b1100001 "
b1100001 ,
b10001 0
b10000 /
b10000 .
1$
#12696345
1!
12
1?
b10 3
1<
14
0;
09
18
17
06
b10 5
0:
11
b1100011 "
b1100011 ,
b10001 0
b10000 /
b10000 .
0$
#12891625
02
0?
b0 3
0<
z!
0#
0%
#12891658
b1100010 "
b1100010 ,
b10001 0
b10000 /
b10000 .
1$
#13086971
b1100110 "
b1100110 ,
b10001 0
b10000 /
b10000 .
0$
#13282250
1#
#13282284
b1100111 "
b1100111 ,
b10001 0
b10000 /
b10000 .
1$
#13477597
0!
12
1>
b1 3
1=
04
1;
19
08
07
16
b101 5
1:
01
b1100101 "
b1100101 ,
b10001 0
b10000 /
b10000 .
0$
#13672875
02
0>
b0 3
0=
z!
0#
1%
#13672910
b1100100 "
b1100100 ,
b10001 0
b10000 /
b10000 .
1$
#13868223
b1101100 "
b1101100 ,
b10001 0
b10000 /
b10000 .
0$
#14063500
1#
#14063536
b1101101 "
b1101101 ,
b10001 0
b10000 /
b10000 .
1$
#14258849
1!
12
1?
b10 3
1<
14
0;
09
18
17
06
b10 5
0:
11
b1101111 "
b1101111 ,
b10001 0
b10000 /
b10000 .
0$
#14454125
02
0?
b0 3
0<
z!
0#
0%
#14454162
b1101110 "
b1101110 ,
b10001 0
b10000 /
b10000 .
1$
#14649475
b1101010 "
b1101010 ,
b10001 0
b10000 /
b10000 .
0$
#14844750
1#
#14844788
b1101011 "
b1101011 ,
b10001 0
b10000 /
b10000 .
1$
#15040101
0!
12
1>
b1 3
1=
04
1;
19
08
07
16
b101 5
1:
01
b1101001 "
b1101001 ,
b10001 0
b10000 /
b10000 .
0$
#15235375
02
0>
b0 3
0=
z!
0#
1%
#15235414
b1101000 "
b1101000 ,
b10001 0
b10000 /
b10000 .
1$
#15430727
b1111000 "
b1111000 ,
b10001 0
b10000 /
b10000 .
0$
#15626000
1#
#15626040
b1111001 "
b1111001 ,
b10001 0
b10000 /
b10000 .
1$
#15821353
1!
12
1?
b10 3
1<
14
0;
09
18
17
06
b10 5
0:
11
b1111011 "
b1111011 ,
b10001 0
b10000 /
b10000 .
0$
#16016625
02
0?
b0 3
0<
z!
0#
0%
#16016666
b1111010 "
b1111010 ,
b10001 0
b10000 /
b10000 .
1$
#16211979
b1111110 "
b1111110 ,
b10001 0
b10000 /
b10000 .
0$
#16407250
1#
#16407292
b1111111 "
b1111111 ,
b10001 0
b10000 /
b10000 .
1$
#16602605
0!
12
1>
b1 3
1=
04
1;
19
08
07
16
b101 5
1:
01
b1111101 "
b1111101 ,
b10001 0
b10000 /
b10000 .
0$
#16797875
02
0>
b0 3
0=
z!
0#
1%
#16797918
b1111100 "
b1111100 ,
b10001 0
b10000 /
b10000 .
1$
#16993231
b1110100 "
b1110100 ,
b10001 0
b10000 /
b10000 .
0$
#17188500
1#
#17188544
b1110101 "
b1110101 ,
b10001 0
b10000 /
b10000 .
1$
#17383857
1!
12
1?
b10 3
1<
14
0;
09
18
17
06
b10 5
0:
11
b1110111 "
b1110111 ,
b10001 0
b10000 /
b10000 .
0$
#17579125
02
0?
b0 3
0<
z!
0#
0%
#17579170
b1110110 "
b1110110 ,
b10001 0
b10000 /
b10000 .
1$
#17774483
b1110010 "
b1110010 ,
b10001 0
b10000 /
b10000 .
0$
#17969750
1#
#17969796
b1110011 "
b1110011 ,
b10001 0
b10000 /
b10000 .
1$
#18165109
0!
12
1>
b1 3
1=
04
1;
19
08
07
16
b101 5
1:
01
b1110001 "
b1110001 ,
b10001 0
b10000 /
b10000 .
0$
#18360375
02
0>
b0 3
0=
z!
0#
1%
#18360422
b1110000 "
b1110000 ,
b10001 0
b10000 /
b10000 .
1$
#18555735
b1010000 "
b1010000 ,
b10001 0
b10000 /
b10000 .
0$
#18751000
1#
#18751048
b1010001 "
b1010001 ,
b10001 0
b10000 /
b10000 .
1$
#18946361
1!
12
1?
b10 3
1<
14
0;
09
18
17
06
b10 5
0:
11
b1010011 "
b1010011 ,
b10001 0
b10000 /
b10000 .
0$
#19141625
02
0?
b0 3
0<
z!
0#
0%
#19141674
b1010010 "
b1010010 ,
b10001 0
b10000 /
b10000 .
1$
#19336987
b1010110 "
b1010110 ,
b10001 0
b10000 /
b10000 .
0$
#19532250
1#
#19532300
b1010111 "
b1010111 ,
b10001 0
b10000 /
b10000 .
1$
#19727613
0!
12
1>
b1 3
1=
04
1;
19
08
07
16
b101 5
1:
01
b1010101 "
b1010101 ,
b10001 0
b10000 /
b10000 .
0$
#19922875
02
0>
b0 3
0=
z!
0#
1%
#19922926
b1010100 "
b1010100 ,
b10001 0
b10000 /
b10000 .
1$
#20118239
b1011100 "
b1011100 ,
b10001 0
b10000 /
b10000 .
0$
#20313500
1#
#20313552
b1011101 "
b1011101 ,
b10001 0
b10000 /
b10000 .
1$
#20508865
1!
12
1?
b10 3
1<
14
0;
09
18
17
06
b10 5
0:
11
b1011111 "
b1011111 ,
b10001 0
b10000 /
b10000 .
0$
#20704125
02
0?
b0 3
0<
z!
0#
0%
#20704178
b1011110 "
b1011110 ,
b10001 0
b10000 /
b10000 .
1$
#20899491
b1011010 "
b1011010 ,
b10001 0
b10000 /
b10000 .
0$
#21094750
1#
#21094804
b1011011 "
b1011011 ,
b10001 0
b10000 /
b10000 .
1$
#21290117
0!
12
1>
b1 3
1=
04
1;
19
08
07
16
b101 5
1:
01
b1011001 "
b1011001 ,
b10001 0
b10000 /
b10000 .
0$
#21485375
02
0>
b0 3
0=
z!
0#
1%
#21485430
b1011000 "
b1011000 ,
b10001 0
b10000 /
b10000 .
1$
#21680743
b1001000 "
b1001000 ,
b10001 0
b10000 /
b10000 .
0$
#21876000
1#
#21876056
b1001001 "
b1001001 ,
b10001 0
b10000 /
b10000 .
1$
#22071369
1!
12
1?
b10 3
1<
14
0;
09
18
17
06
b10 5
0:
11
b1001011 "
b1001011 ,
b10001 0
b10000 /
b10000 .
0$
#22266625
02
0?
b0 3
0<
z!
0#
0%
#22266682
b1001010 "
b1001010 ,
b10001 0
b10000 /
b10000 .
1$
#22461995
b1001110 "
b1001110 ,
b10001 0
b10000 /
b10000 .
0$
#22657250
1#
#22657308
b1001111 "
b1001111 ,
b10001 0
b10000 /
b10000 .
1$
#22852621
0!
12
1>
b1 3
1=
04
1;
19
08
07
16
b101 5
1:
01
b1001101 "
b1001101 ,
b10001 0
b10000 /
b10000 .
0$
#23047875
02
0>
b0 3
0=
z!
0#
1%
#23047934
b1001100 "
b1001100 ,
b10001 0
b10000 /
b10000 .
1$
#23243247
b1000100 "
b1000100 ,
b10001 0
b10000 /
b10000 .
0$
#23438500
1#
#23438560
b1000101 "
b1000101 ,
b10001 0
b10000 /
b10000 .
1$
#23633873
1!
12
1?
b10 3
1<
14
0;
09
18
17
06
b10 5
0:
11
b1000111 "
b1000111 ,
b10001 0
b10000 /
b10000 .
0$
#23829125
02
0?
b0 3
0<
z!
0#
0%
#23829186
b1000110 "
b1000110 ,
b10001 0
b10000 /
b10000 .
1$
#24024499
b1000010 "
b1000010 ,
b10001 0
b10000 /
b10000 .
0$
#24219750
1#
#24219812
b1000011 "
b1000011 ,
b10001 0
b10000 /
b10000 .
1$
#24415125
0!
12
1>
b1 3
1=
04
1;
19
08
07
16
b101 5
1:
01
b1000001 "
b1000001 ,
b10001 0
b10000 /
b10000 .
0$
#24610375
02
0>
b0 3
0=
z!
0#
1%
#24610438
b1000000 "
b1000000 ,
b10001 0
b10000 /
b10000 .
1$
#24805751
b11000000 "
b11000000 ,
b10001 0
b10000 /
b10000 .
0$
#25001000
1#
#25001064
b11000001 "
b11000001 ,
b10001 0
b10000 /
b10000 .
1$
#25196377
1!
12
1?
b10 3
1<
14
0;
09
18
17
06
b10 5
0:
11
b11000011 "
b11000011 ,
b10001 0
b10000 /
b10000 .
0$
#25391625
02
0?
b0 3
0<
z!
0#
0%
#25391690
b11000010 "
b11000010 ,
b10001 0
b10000 /
b10000 .
1$
#25587003
b11000110 "
b11000110 ,
b10001 0
b10000 /
b10000 .
0$
#25782250
1#
#25782316
b11000111 "
b11000111 ,
b10001 0
b10000 /
b10000 .
1$
#25977629
0!
12
1>
b1 3
1=
04
1;
19
08
07
16
b101 5
1:
01
b11000101 "
b11000101 ,
b10001 0
b10000 /
b10000 .
0$
#26172875
02
0>
b0 3
0=
z!
0#
1%
#26172942
b11000100 "
b11000100 ,
b10001 0
b10000 /
b10000 .
1$
#26368255
b11001100 "
b11001100 ,
b10001 0
b10000 /
b10000 .
0$
#26563500
1#
#26563568
b11001101 "
b11001101 ,
b10001 0
b10000 /
b10000 .
1$
#26758881
1!
12
1?
b10 3
1<
14
0;
09
18
17
06
b10 5
0:
11
b11001111 "
b11001111 ,
b10001 0
b10000 /
b10000 .
0$
#26954125
02
0?
b0 3
0<
z!
0#
0%
#26954194
b11001110 "
b11001110 ,
b10001 0
b10000 /
b10000 .
1$
#27149507
b11001010 "
b11001010 ,
b10001 0
b10000 /
b10000 .
0$
#27344750
1#
#27344820
b11001011 "
b11001011 ,
b10001 0
b10000 /
b10000 .
1$
#27540133
0!
12
1>
b1 3
1=
04
1;
19
08
07
16
b101 5
1:
01
b11001001 "
b11001001 ,
b10001 0
b10000 /
b10000 .
0$
#27735375
02
0>
b0 3
0=
z!
0#
1%
#27735446
b11001000 "
b11001000 ,
b10001 0
b10000 /
b10000 .
1$
#27930759
b11011000 "
b11011000 ,
b10001 0
b10000 /
b10000 .
0$
#28126000
1#
#28126072
b11011001 "
b11011001 ,
b10001 0
b10000 /
b10000 .
1$
#28321385
1!
12
1?
b10 3
1<
14
0;
09
18
17
06
b10 5
0:
11
b11011011 "
b11011011 ,
b10001 0
b10000 /
b10000 .
0$
#28516625
02
0?
b0 3
0<
z!
0#
0%
#28516698
b11011010 "
b11011010 ,
b10001 0
b10000 /
b10000 .
1$
#28712011
b11011110 "
b11011110 ,
b10001 0
b10000 /
b10000 .
0$
#28907250
1#
#28907324
b11011111 "
b11011111 ,
b10001 0
b10000 /
b10000 .
1$
#29102637
0!
12
1>
b1 3
1=
04
1;
19
08
07
16
b101 5
1:
01
b11011101 "
b11011101 ,
b10001 0
b10000 /
b10000 .
0$
#29297875
02
0>
b0 3
0=
z!
0#
1%
#29297950
b11011100 "
b11011100 ,
b10001 0
b10000 /
b10000 .
1$
#29493263
b11010100 "
b11010100 ,
b10001 0
b10000 /
b10000 .
0$
#29688500
1#
#29688576
b11010101 "
b11010101 ,
b10001 0
b10000 /
b10000 .
1$
#29883889
1!
12
1?
b10 3
1<
14
0;
09
18
17
06
b10 5
0:
11
b11010111 "
b11010111 ,
b10001 0
b10000 /
b10000 .
0$
#30079125
02
0?
b0 3
0<
z!
0#
0%
#30079202
b11010110 "
b11010110 ,
b10001 0
b10000 /
b10000 .
1$
#30274515
b11010010 "
b11010010 ,
b10001 0
b10000 /
b10000 .
0$
#30469750
1#
#30469828
b11010011 "
b11010011 ,
b10001 0
b10000 /
b10000 .
1$
#30665141
0!
12
1>
b1 3
1=
04
1;
19
08
07
16
b101 5
1:
01
b11010001 "
b11010001 ,
b10001 0
b10000 /
b10000 .
0$
#30860375
02
0>
b0 3
0=
z!
0#
1%
#30860454
b11010000 "
b11010000 ,
b10001 0
b10000 /
b10000 .
1$
#31055767
b11110000 "
b11110000 ,
b10001 0
b10000 /
b10000 .
0$
#31251000
1#
#31251080
b11110001 "
b11110001 ,
b10001 0
b10000 /
b10000 .
1$
#31446393
1!
12
1?
b10 3
1<
14
0;
09
18
17
06
b10 5
0:
11
b11110011 "
b11110011 ,
b10001 0
b10000 /
b10000 .
0$
#31641625
02
0?
b0 3
0<
z!
0#
0%
#31641706
b11110010 "
b11110010 ,
b10001 0
b10000 /
b10000 .
1$
#31837019
b11110110 "
b11110110 ,
b10001 0
b10000 /
b10000 .
0$
#32032250
1#
#32032332
b11110111 "
b11110111 ,
b10001 0
b10000 /
b10000 .
1$
#32227645
0!
12
1>
b1 3
1=
04
1;
19
08
07
16
b101 5
1:
01
b11110101 "
b11110101 ,
b10001 0
b10000 /
b10000 .
0$
#32422875
02
0>
b0 3
0=
z!
0#
1%
#32422958
b11110100 "
b11110100 ,
b10001 0
b10000 /
b10000 .
1$
#32618271
b11111100 "
b11111100 ,
b10001 0
b10000 /
b10000 .
0$
#32813500
1#
#32813584
b11111101 "
b11111101 ,
b10001 0
b10000 /
b10000 .
1$
#33008897
1!
12
1?
b10 3
1<
14
0;
09
18
17
06
b10 5
0:
11
b11111111 "
b11111111 ,
b10001 0
b10000 /
b10000 .
0$
#33204125
02
0?
b0 3
0<
z!
0#
0%
#33204210
b11111110 "
b11111110 ,
b10001 0
b10000 /
b10000 .
1$
#33399523
b11111010 "
b11111010 ,
b10001 0
b10000 /
b10000 .
0$
#33594750
1#
#33594836
b11111011 "
b11111011 ,
b10001 0
b10000 /
b10000 .
1$
#33790149
0!
12
1>
b1 3
1=
04
1;
19
08
07
16
b101 5
1:
01
b11111001 "
b11111001 ,
b10001 0
b10000 /
b10000 .
0$
#33985375
02
0>
b0 3
0=
z!
0#
1%
#33985462
b11111000 "
b11111000 ,
b10001 0
b10000 /
b10000 .
1$
#34180775
b11101000 "
b11101000 ,
b10001 0
b10000 /
b10000 .
0$
#34376000
1#
#34376088
b11101001 "
b11101001 ,
b10001 0
b10000 /
b10000 .
1$
#34571401
1!
12
1?
b10 3
1<
14
0;
09
18
17
06
b10 5
0:
11
b11101011 "
b11101011 ,
b10001 0
b10000 /
b10000 .
0$
#34766625
02
0?
b0 3
0<
z!
0#
0%
#34766714
b11101010 "
b11101010 ,
b10001 0
b10000 /
b10000 .
1$
#34962027
b11101110 "
b11101110 ,
b10001 0
b10000 /
b10000 .
0$
#35157250
1#
#35157340
b11101111 "
b11101111 ,
b10001 0
b10000 /
b10000 .
1$
#35352653
0!
12
1>
b1 3
1=
04
1;
19
08
07
16
b101 5
1:
01
b11101101 "
b11101101 ,
b10001 0
b10000 /
b10000 .
0$
#35547875
02
0>
b0 3
0=
z!
0#
1%
#35547966
b11101100 "
b11101100 ,
b10001 0
b10000 /
b10000 .
1$
#35743279
b11100100 "
b11100100 ,
b10001 0
b10000 /
b10000 .
0$
#35938500
1#
#35938592
b11100101 "
b11100101 ,
b10001 0
b10000 /
b10000 .
1$
#36133905
1!
12
1?
b10 3
1<
14
0;
09
18
17
06
b10 5
0:
11
b11100111 "
b11100111 ,
b10001 0
b10000 /
b10000 .
0$
#36329125
02
0?
b0 3
0<
z!
0#
0%
#36329218
b11100110 "
b11100110 ,
b10001 0
b10000 /
b10000 .
1$
#36524531
b11100010 "
b11100010 ,
b10001 0
b10000 /
b10000 .
0$
#36719750
1#
#36719844
b11100011 "
b11100011 ,
b10001 0
b10000 /
b10000 .
1$
#36915157
0!
12
1>
b1 3
1=
04
1;
19
08
07
16
b101 5
1:
01
b11100001 "
b11100001 ,
b10001 0
b10000 /
b10000 .
0$
#37110375
02
0>
b0 3
0=
z!
0#
1%
#37110470
b11100000 "
b11100000 ,
b10001 0
b10000 /
b10000 .
1$
#37305783
b10100000 "
b10100000 ,
b10001 0
b10000 /
b10000 .
0$
#37501000
1#
#37501096
b10100001 "
b10100001 ,
b10001 0
b10000 /
b10000 .
1$
#37696409
1!
12
1?
b10 3
1<
14
0;
09
18
17
06
b10 5
0:
11
b10100011 "
b10100011 ,
b10001 0
b10000 /
b10000 .
0$
#37891625
02
0?
b0 3
0<
z!
0#
0%
#37891722
b10100010 "
b10100010 ,
b10001 0
b10000 /
b10000 .
1$
#38087035
b10100110 "
b10100110 ,
b10001 0
b10000 /
b10000 .
0$
#38282250
1#
#38282348
b10100111 "
b10100111 ,
b10001 0
b10000 /
b10000 .
1$
#38477661
0!
12
1>
b1 3
1=
04
1;
19
08
07
16
b101 5
1:
01
b10100101 "
b10100101 ,
b10001 0
b10000 /
b10000 .
0$
#38672875
02
0>
b0 3
0=
z!
0#
1%
#38672974
b10100100 "
b10100100 ,
b10001 0
b10000 /
b10000 .
1$
#38868287
b10101100 "
b10101100 ,
b10001 0
b10000 /
b10000 .
0$
#39063500
1#
#39063600
b10101101 "
b10101101 ,
b10001 0
b10000 /
b10000 .
1$
#39258913
1!
12
1?
b10 3
1<
14
0;
09
18
17
06
b10 5
0:
11
b10101111 "
b10101111 ,
b10001 0
b10000 /
b10000 .
0$
#39454125
02
0?
b0 3
0<
z!
0#
0%
#39454226
b10101110 "
b10101110 ,
b10001 0
b10000 /
b10000 .
1$
#39649539
b10101010 "
b10101010 ,
b10001 0
b10000 /
b10000 .
0$
#39844750
1#
#39844852
b10101011 "
b10101011 ,
b10001 0
b10000 /
b10000 .
1$
#40040165
0!
12
1>
b1 3
1=
04
1;
19
08
07
16
b101 5
1:
01
b10101001 "
b10101001 ,
b10001 0
b10000 /
b10000 .
0$
#40235375
02
0>
b0 3
0=
z!
0#
1%
#40235478
b10101000 "
b10101000 ,
b10001 0
b10000 /
b10000 .
1$
#40430791
b10111000 "
b10111000 ,
b10001 0
b10000 /
b10000 .
0$
#40626000
1#
#40626104
b10111001 "
b10111001 ,
b10001 0
b10000 /
b10000 .
1$
#40821417
1!
12
1?
b10 3
1<
14
0;
09
18
17
06
b10 5
0:
11
b10111011 "
b10111011 ,
b10001 0
b10000 /
b10000 .
0$
#41016625
02
0?
b0 3
0<
z!
0#
0%
#41016730
b10111010 "
b10111010 ,
b10001 0
b10000 /
b10000 .
1$
#41212043
b10111110 "
b10111110 ,
b10001 0
b10000 /
b10000 .
0$
#41407250
1#
#41407356
b10111111 "
b10111111 ,
b10001 0
b10000 /
b10000 .
1$
#41602669
0!
12
1>
b1 3
1=
04
1;
19
08
07
16
b101 5
1:
01
b10111101 "
b10111101 ,
b10001 0
b10000 /
b10000 .
0$
#41797875
02
0>
b0 3
0=
z!
0#
1%
#41797982
b10111100 "
b10111100 ,
b10001 0
b10000 /
b10000 .
1$
#41993295
b10110100 "
b10110100 ,
b10001 0
b10000 /
b10000 .
0$
#42188500
1#
#42188608
b10110101 "
b10110101 ,
b10001 0
b10000 /
b10000 .
1$
#42383921
1!
12
1?
b10 3
1<
14
0;
09
18
17
06
b10 5
0:
11
b10110111 "
b10110111 ,
b10001 0
b10000 /
b10000 .
0$
#42579125
02
0?
b0 3
0<
z!
0#
0%
#42579234
b10110110 "
b10110110 ,
b10001 0
b10000 /
b10000 .
1$
#42774547
b10110010 "
b10110010 ,
b10001 0
b10000 /
b10000 .
0$
#42969750
1#
#42969860
b10110011 "
b10110011 ,
b10001 0
b10000 /
b10000 .
1$
#43165173
0!
12
1>
b1 3
1=
04
1;
19
08
07
16
b101 5
1:
01
b10110001 "
b10110001 ,
b10001 0
b10000 /
b10000 .
0$
#43360375
02
0>
b0 3
0=
z!
0#
1%
#43360486
b10110000 "
b10110000 ,
b10001 0
b10000 /
b10000 .
1$
#43555799
b10010000 "
b10010000 ,
b10001 0
b10000 /
b10000 .
0$
#43751000
1#
#43751112
b10010001 "
b10010001 ,
b10001 0
b10000 /
b10000 .
1$
#43946425
1!
12
1?
b10 3
1<
14
0;
09
18
17
06
b10 5
0:
11
b10010011 "
b10010011 ,
b10001 0
b10000 /
b10000 .
0$
#44141625
02
0?
b0 3
0<
z!
0#
0%
#44141738
b10010010 "
b10010010 ,
b10001 0
b10000 /
b10000 .
1$
#44337051
b10010110 "
b10010110 ,
b10001 0
b10000 /
b10000 .
0$
#44532250
1#
#44532364
b10010111 "
b10010111 ,
b10001 0
b10000 /
b10000 .
1$
#44727677
0!
12
1>
b1 3
1=
04
1;
19
08
07
16
b101 5
1:
01
b10010101 "
b10010101 ,
b10001 0
b10000 /
b10000 .
0$
#44922875
02
0>
b0 3
0=
z!
0#
1%
#44922990
b10010100 "
b10010100 ,
b10001 0
b10000 /
b10000 .
1$
#45118303
b10011100 "
b10011100 ,
b10001 0
b10000 /
b10000 .
0$
