verilog/final_verilog/final readout/ro_block_8.vcd
$date
	Wed May 25 10:42:31 2022
$end
$version
	Icarus Verilog
$end
$timescale
	1fs
$end
$scope module tb_ro_block_8 $end
$var wire 2 ! muxed_out [1:0] $end
$var wire 17 " gc_clk [16:0] $end
$var reg 1 # clk_ext $end
$var reg 1 $ clk_ext_global $end
$var reg 1 % comp_out $end
$var reg 1 & en_global $end
$var reg 1 ' gc_rstb $end
$var reg 1 ( pwr $end
$var real 1 ) clk_half_pd $end
$var real 1 * clk_half_pd_global $end
$var real 1 + comp_out_half_pd $end
$scope module gc_clock $end
$var wire 1 $ clk $end
$var wire 1 & enable $end
$var wire 1 ' reset $end
$var reg 17 , gray_count [16:0] $end
$var reg 1 - q_msb $end
$var integer 32 . i [31:0] $end
$var integer 32 / j [31:0] $end
$var integer 32 0 k [31:0] $end
$upscope $end
$scope module rox8 $end
$var wire 1 # clk_ext $end
$var wire 1 1 gray $end
$var wire 1 % in_pol $end
$var wire 1 % in_pol_eve $end
$var wire 1 ( pwr $end
$var wire 1 2 out_mux_pol_eve $end
$var wire 1 3 out_mux_pol $end
$scope module ro_pol $end
$var wire 1 # clk_ext $end
$var wire 1 1 gray $end
$var wire 1 % in $end
$var wire 1 ( pwr $end
$var wire 1 3 out_mux $end
$var wire 1 4 eff_out $end
$scope module ef $end
$var wire 1 1 clk $end
$var wire 1 ( d $end
$var wire 1 # rstb $end
$var wire 2 5 q [1:0] $end
$var wire 1 4 out $end
$var wire 1 6 buff_out $end
$scope module bf $end
$var wire 1 1 in $end
$var wire 3 7 w [2:0] $end
$var wire 1 6 out $end
$scope begin buffer_loop[0] $end
$scope module g2 $end
$var wire 1 8 a $end
$var wire 1 9 out $end
$upscope $end
$upscope $end
$scope begin buffer_loop[1] $end
$scope module g2 $end
$var wire 1 : a $end
$var wire 1 ; out $end
$upscope $end
$upscope $end
$scope module g1 $end
$var wire 1 1 a $end
$var wire 1 < out $end
$upscope $end
$scope module g3 $end
$var wire 1 = a $end
$var wire 1 6 out $end
$upscope $end
$upscope $end
$scope module dff $end
$var wire 1 6 clk $end
$var wire 1 ( d $end
$var wire 1 # rstb $end
$var reg 1 > q $end
$upscope $end
$scope module dff_n $end
$var wire 1 6 clk $end
$var wire 1 ( d $end
$var wire 1 # rstb $end
$var reg 1 ? q $end
$upscope $end
$scope module mux $end
$var wire 1 @ in_0 $end
$var wire 1 A in_1 $end
$var wire 1 1 sel $end
$var reg 1 4 out $end
$upscope $end
$upscope $end
$scope module tribuf $end
$var wire 1 4 ctrl $end
$var wire 1 % in $end
$var reg 1 3 out $end
$upscope $end
$upscope $end
$scope module ro_pol_eve $end
$var wire 1 # clk_ext $end
$var wire 1 1 gray $end
$var wire 1 % in $end
$var wire 1 ( pwr $end
$var wire 1 2 out_mux $end
$var wire 1 B eff_out $end
$scope module ef $end
$var wire 1 1 clk $end
$var wire 1 ( d $end
$var wire 1 # rstb $end
$var wire 2 C q [1:0] $end
$var wire 1 B out $end
$var wire 1 D buff_out $end
$scope module bf $end
$var wire 1 1 in $end
$var wire 3 E w [2:0] $end
$var wire 1 D out $end
$scope begin buffer_loop[0] $end
$scope module g2 $end
$var wire 1 F a $end
$var wire 1 G out $end
$upscope $end
$upscope $end
$scope begin buffer_loop[1] $end
$scope module g2 $end
$var wire 1 H a $end
$var wire 1 I out $end
$upscope $end
$upscope $end
$scope module g1 $end
$var wire 1 1 a $end
$var wire 1 J out $end
$upscope $end
$scope module g3 $end
$var wire 1 K a $end
$var wire 1 D out $end
$upscope $end
$upscope $end
$scope module dff $end
$var wire 1 D clk $end
$var wire 1 ( d $end
$var wire 1 # rstb $end
$var reg 1 L q $end
$upscope $end
$scope module dff_n $end
$var wire 1 D clk $end
$var wire 1 ( d $end
$var wire 1 # rstb $end
$var reg 1 M q $end
$upscope $end
$scope module mux $end
$var wire 1 N in_0 $end
$var wire 1 O in_1 $end
$var wire 1 1 sel $end
$var reg 1 B out $end
$upscope $end
$upscope $end
$scope module tribuf $end
$var wire 1 B ctrl $end
$var wire 1 % in $end
$var reg 1 2 out $end
$upscope $end
$upscope $end
$upscope $end
$upscope $end
$enddefinitions $end
#0
$dumpvars
0O
0N
0M
0L
1K
1J
1I
0H
0G
1F
b101 E
0D
b0 C
0B
0A
0@
0?
0>
1=
1<
1;
0:
09
18
b101 7
06
b0 5
04
z3
z2
01
b10001 0
b10000 /
b10001 .
0-
b0 ,
r50000 +
r195.3125 *
r25000 )
1(
0'
1&
0%
0$
0#
b0 "
bz !
$end
#1000000
b1 "
b1 ,
b10001 0
b10000 /
b10000 .
1'
1%
1#
1$
#196312500
b11 "
b11 ,
b10001 0
b10000 /
b10000 .
0$
#391625000
b10 "
b10 ,
b10001 0
b10000 /
b10000 .
1$
#586937500
b110 "
b110 ,
b10001 0
b10000 /
b10000 .
0$
#782250000
b111 "
b111 ,
b10001 0
b10000 /
b10000 .
1$
#977562500
b101 "
b101 ,
b10001 0
b10000 /
b10000 .
0$
#1172875000
b100 "
b100 ,
b10001 0
b10000 /
b10000 .
1$
#1368187500
b1100 "
b1100 ,
b10001 0
b10000 /
b10000 .
0$
#1563500000
b1101 "
b1101 ,
b10001 0
b10000 /
b10000 .
1$
#1758812500
b1111 "
b1111 ,
b10001 0
b10000 /
b10000 .
0$
#1954125000
b1110 "
b1110 ,
b10001 0
b10000 /
b10000 .
1$
#2149437500
b1010 "
b1010 ,
b10001 0
b10000 /
b10000 .
0$
#2344750000
b1011 "
b1011 ,
b10001 0
b10000 /
b10000 .
1$
#2540062500
b1001 "
b1001 ,
b10001 0
b10000 /
b10000 .
0$
#2735375000
b1000 "
b1000 ,
b10001 0
b10000 /
b10000 .
1$
#2930687500
b11000 "
b11000 ,
b10001 0
b10000 /
b10000 .
0$
#3126000000
b11001 "
b11001 ,
b10001 0
b10000 /
b10000 .
1$
#3321312500
b11011 "
b11011 ,
b10001 0
b10000 /
b10000 .
0$
#3516625000
b11010 "
b11010 ,
b10001 0
b10000 /
b10000 .
1$
#3711937500
b11110 "
b11110 ,
b10001 0
b10000 /
b10000 .
0$
#3907250000
b11111 "
b11111 ,
b10001 0
b10000 /
b10000 .
1$
#4102562500
b11101 "
b11101 ,
b10001 0
b10000 /
b10000 .
0$
#4297875000
b11100 "
b11100 ,
b10001 0
b10000 /
b10000 .
1$
#4493187500
b10100 "
b10100 ,
b10001 0
b10000 /
b10000 .
0$
#4688500000
b10101 "
b10101 ,
b10001 0
b10000 /
b10000 .
1$
#4883812500
b10111 "
b10111 ,
b10001 0
b10000 /
b10000 .
0$
#5079125000
b10110 "
b10110 ,
b10001 0
b10000 /
b10000 .
1$
#5274437500
b10010 "
b10010 ,
b10001 0
b10000 /
b10000 .
0$
#5469750000
b10011 "
b10011 ,
b10001 0
b10000 /
b10000 .
1$
#5665062500
b10001 "
b10001 ,
b10001 0
b10000 /
b10000 .
0$
#5860375000
b10000 "
b10000 ,
b10001 0
b10000 /
b10000 .
1$
#6055687500
b110000 "
b110000 ,
b10001 0
b10000 /
b10000 .
0$
#6251000000
b110001 "
b110001 ,
b10001 0
b10000 /
b10000 .
1$
#6446312500
b110011 "
b110011 ,
b10001 0
b10000 /
b10000 .
0$
#6641625000
b110010 "
b110010 ,
b10001 0
b10000 /
b10000 .
1$
#6836937500
b110110 "
b110110 ,
b10001 0
b10000 /
b10000 .
0$
#7032250000
b110111 "
b110111 ,
b10001 0
b10000 /
b10000 .
1$
#7227562500
b110101 "
b110101 ,
b10001 0
b10000 /
b10000 .
0$
#7422875000
b110100 "
b110100 ,
b10001 0
b10000 /
b10000 .
1$
#7618187500
b111100 "
b111100 ,
b10001 0
b10000 /
b10000 .
0$
#7813500000
b111101 "
b111101 ,
b10001 0
b10000 /
b10000 .
1$
#8008812500
b111111 "
b111111 ,
b10001 0
b10000 /
b10000 .
0$
#8204125000
b111110 "
b111110 ,
b10001 0
b10000 /
b10000 .
1$
#8399437500
b111010 "
b111010 ,
b10001 0
b10000 /
b10000 .
0$
#8594750000
b111011 "
b111011 ,
b10001 0
b10000 /
b10000 .
1$
#8790062500
b111001 "
b111001 ,
b10001 0
b10000 /
b10000 .
0$
#8985375000
b111000 "
b111000 ,
b10001 0
b10000 /
b10000 .
1$
#9180687500
b101000 "
b101000 ,
b10001 0
b10000 /
b10000 .
0$
#9376000000
b101001 "
b101001 ,
b10001 0
b10000 /
b10000 .
1$
#9571312500
b101011 "
b101011 ,
b10001 0
b10000 /
b10000 .
0$
#9766625000
b101010 "
b101010 ,
b10001 0
b10000 /
b10000 .
1$
#9961937500
b101110 "
b101110 ,
b10001 0
b10000 /
b10000 .
0$
#10157250000
b101111 "
b101111 ,
b10001 0
b10000 /
b10000 .
1$
#10352562500
b101101 "
b101101 ,
b10001 0
b10000 /
b10000 .
0$
#10547875000
b101100 "
b101100 ,
b10001 0
b10000 /
b10000 .
1$
#10743187500
b100100 "
b100100 ,
b10001 0
b10000 /
b10000 .
0$
#10938500000
b100101 "
b100101 ,
b10001 0
b10000 /
b10000 .
1$
#11133812500
b100111 "
b100111 ,
b10001 0
b10000 /
b10000 .
0$
#11329125000
b100110 "
b100110 ,
b10001 0
b10000 /
b10000 .
1$
#11524437500
b100010 "
b100010 ,
b10001 0
b10000 /
b10000 .
0$
#11719750000
b100011 "
b100011 ,
b10001 0
b10000 /
b10000 .
1$
#11915062500
b100001 "
b100001 ,
b10001 0
b10000 /
b10000 .
0$
#12110375000
b100000 "
b100000 ,
b10001 0
b10000 /
b10000 .
1$
#12305687500
b1100000 "
b1100000 ,
b10001 0
b10000 /
b10000 .
0$
#12501000000
b1100001 "
b1100001 ,
b10001 0
b10000 /
b10000 .
1$
#12696312500
b1100011 "
b1100011 ,
b10001 0
b10000 /
b10000 .
0$
#12891625000
b1100010 "
b1100010 ,
b10001 0
b10000 /
b10000 .
1$
#13086937500
b1100110 "
b1100110 ,
b10001 0
b10000 /
b10000 .
0$
#13282250000
b1100111 "
b1100111 ,
b10001 0
b10000 /
b10000 .
1$
#13477562500
b1100101 "
b1100101 ,
b10001 0
b10000 /
b10000 .
0$
#13672875000
b1100100 "
b1100100 ,
b10001 0
b10000 /
b10000 .
1$
#13868187500
b1101100 "
b1101100 ,
b10001 0
b10000 /
b10000 .
0$
#14063500000
b1101101 "
b1101101 ,
b10001 0
b10000 /
b10000 .
1$
#14258812500
b1101111 "
b1101111 ,
b10001 0
b10000 /
b10000 .
0$
#14454125000
b1101110 "
b1101110 ,
b10001 0
b10000 /
b10000 .
1$
#14649437500
b1101010 "
b1101010 ,
b10001 0
b10000 /
b10000 .
0$
#14844750000
b1101011 "
b1101011 ,
b10001 0
b10000 /
b10000 .
1$
#15040062500
b1101001 "
b1101001 ,
b10001 0
b10000 /
b10000 .
0$
#15235375000
b1101000 "
b1101000 ,
b10001 0
b10000 /
b10000 .
1$
#15430687500
b1111000 "
b1111000 ,
b10001 0
b10000 /
b10000 .
0$
#15626000000
b1111001 "
b1111001 ,
b10001 0
b10000 /
b10000 .
1$
#15821312500
b1111011 "
b1111011 ,
b10001 0
b10000 /
b10000 .
0$
#16016625000
b1111010 "
b1111010 ,
b10001 0
b10000 /
b10000 .
1$
#16211937500
b1111110 "
b1111110 ,
b10001 0
b10000 /
b10000 .
0$
#16407250000
b1111111 "
b1111111 ,
b10001 0
b10000 /
b10000 .
1$
#16602562500
b1111101 "
b1111101 ,
b10001 0
b10000 /
b10000 .
0$
#16797875000
b1111100 "
b1111100 ,
b10001 0
b10000 /
b10000 .
1$
#16993187500
b1110100 "
b1110100 ,
b10001 0
b10000 /
b10000 .
0$
#17188500000
b1110101 "
b1110101 ,
b10001 0
b10000 /
b10000 .
1$
#17383812500
b1110111 "
b1110111 ,
b10001 0
b10000 /
b10000 .
0$
#17579125000
b1110110 "
b1110110 ,
b10001 0
b10000 /
b10000 .
1$
#17774437500
b1110010 "
b1110010 ,
b10001 0
b10000 /
b10000 .
0$
#17969750000
b1110011 "
b1110011 ,
b10001 0
b10000 /
b10000 .
1$
#18165062500
b1110001 "
b1110001 ,
b10001 0
b10000 /
b10000 .
0$
#18360375000
b1110000 "
b1110000 ,
b10001 0
b10000 /
b10000 .
1$
#18555687500
b1010000 "
b1010000 ,
b10001 0
b10000 /
b10000 .
0$
#18751000000
b1010001 "
b1010001 ,
b10001 0
b10000 /
b10000 .
1$
#18946312500
b1010011 "
b1010011 ,
b10001 0
b10000 /
b10000 .
0$
#19141625000
b1010010 "
b1010010 ,
b10001 0
b10000 /
b10000 .
1$
#19336937500
b1010110 "
b1010110 ,
b10001 0
b10000 /
b10000 .
0$
#19532250000
b1010111 "
b1010111 ,
b10001 0
b10000 /
b10000 .
1$
#19727562500
b1010101 "
b1010101 ,
b10001 0
b10000 /
b10000 .
0$
#19922875000
b1010100 "
b1010100 ,
b10001 0
b10000 /
b10000 .
1$
#20118187500
b1011100 "
b1011100 ,
b10001 0
b10000 /
b10000 .
0$
#20313500000
b1011101 "
b1011101 ,
b10001 0
b10000 /
b10000 .
1$
#20508812500
b1011111 "
b1011111 ,
b10001 0
b10000 /
b10000 .
0$
#20704125000
b1011110 "
b1011110 ,
b10001 0
b10000 /
b10000 .
1$
#20899437500
b1011010 "
b1011010 ,
b10001 0
b10000 /
b10000 .
0$
#21094750000
b1011011 "
b1011011 ,
b10001 0
b10000 /
b10000 .
1$
#21290062500
b1011001 "
b1011001 ,
b10001 0
b10000 /
b10000 .
0$
#21485375000
b1011000 "
b1011000 ,
b10001 0
b10000 /
b10000 .
1$
#21680687500
b1001000 "
b1001000 ,
b10001 0
b10000 /
b10000 .
0$
#21876000000
b1001001 "
b1001001 ,
b10001 0
b10000 /
b10000 .
1$
#22071312500
b1001011 "
b1001011 ,
b10001 0
b10000 /
b10000 .
0$
#22266625000
b1001010 "
b1001010 ,
b10001 0
b10000 /
b10000 .
1$
#22461937500
b1001110 "
b1001110 ,
b10001 0
b10000 /
b10000 .
0$
#22657250000
b1001111 "
b1001111 ,
b10001 0
b10000 /
b10000 .
1$
#22852562500
b1001101 "
b1001101 ,
b10001 0
b10000 /
b10000 .
0$
#23047875000
b1001100 "
b1001100 ,
b10001 0
b10000 /
b10000 .
1$
#23243187500
b1000100 "
b1000100 ,
b10001 0
b10000 /
b10000 .
0$
#23438500000
b1000101 "
b1000101 ,
b10001 0
b10000 /
b10000 .
1$
#23633812500
b1000111 "
b1000111 ,
b10001 0
b10000 /
b10000 .
0$
#23829125000
b1000110 "
b1000110 ,
b10001 0
b10000 /
b10000 .
1$
#24024437500
b1000010 "
b1000010 ,
b10001 0
b10000 /
b10000 .
0$
#24219750000
b1000011 "
b1000011 ,
b10001 0
b10000 /
b10000 .
1$
#24415062500
b1000001 "
b1000001 ,
b10001 0
b10000 /
b10000 .
0$
#24610375000
b1000000 "
b1000000 ,
b10001 0
b10000 /
b10000 .
1$
#24805687500
13
b11 !
12
14
1B
1A
1O
b10 5
1>
b10 C
1L
16
1D
0=
0K
0;
0I
1:
1H
19
1G
08
0F
b10 7
0<
b10 E
0J
11
b11000000 "
b11000000 ,
b10001 0
b10000 /
b10000 .
0$
#25001000000
b11000001 "
b11000001 ,
z3
bz !
z2
04
0B
b10001 0
b10000 /
0A
0O
b0 5
0>
b0 C
0L
b10000 .
1$
0#
#25002000000
0%
#25196312500
b11000011 "
b11000011 ,
b10001 0
b10000 /
b10000 .
0$
#25391625000
b11000010 "
b11000010 ,
b10001 0
b10000 /
b10000 .
1$
#25586937500
b11000110 "
b11000110 ,
b10001 0
b10000 /
b10000 .
0$
#25782250000
b11000111 "
b11000111 ,
b10001 0
b10000 /
b10000 .
1$
#25977562500
b11000101 "
b11000101 ,
b10001 0
b10000 /
b10000 .
0$
#26172875000
b11000100 "
b11000100 ,
b10001 0
b10000 /
b10000 .
1$
#26368187500
b11001100 "
b11001100 ,
b10001 0
b10000 /
b10000 .
0$
#26563500000
b11001101 "
b11001101 ,
b10001 0
b10000 /
b10000 .
1$
#26758812500
b11001111 "
b11001111 ,
b10001 0
b10000 /
b10000 .
0$
#26954125000
b11001110 "
b11001110 ,
b10001 0
b10000 /
b10000 .
1$
#27149437500
b11001010 "
b11001010 ,
b10001 0
b10000 /
b10000 .
0$
#27344750000
b11001011 "
b11001011 ,
b10001 0
b10000 /
b10000 .
1$
#27540062500
b11001001 "
b11001001 ,
b10001 0
b10000 /
b10000 .
0$
#27735375000
b11001000 "
b11001000 ,
b10001 0
b10000 /
b10000 .
1$
#27930687500
b11011000 "
b11011000 ,
b10001 0
b10000 /
b10000 .
0$
#28126000000
b11011001 "
b11011001 ,
b10001 0
b10000 /
b10000 .
1$
#28321312500
b11011011 "
b11011011 ,
b10001 0
b10000 /
b10000 .
0$
#28516625000
b11011010 "
b11011010 ,
b10001 0
b10000 /
b10000 .
1$
#28711937500
b11011110 "
b11011110 ,
b10001 0
b10000 /
b10000 .
0$
#28907250000
b11011111 "
b11011111 ,
b10001 0
b10000 /
b10000 .
1$
#29102562500
b11011101 "
b11011101 ,
b10001 0
b10000 /
b10000 .
0$
#29297875000
b11011100 "
b11011100 ,
b10001 0
b10000 /
b10000 .
1$
#29493187500
b11010100 "
b11010100 ,
b10001 0
b10000 /
b10000 .
0$
#29688500000
b11010101 "
b11010101 ,
b10001 0
b10000 /
b10000 .
1$
#29883812500
b11010111 "
b11010111 ,
b10001 0
b10000 /
b10000 .
0$
#30079125000
b11010110 "
b11010110 ,
b10001 0
b10000 /
b10000 .
1$
#30274437500
b11010010 "
b11010010 ,
b10001 0
b10000 /
b10000 .
0$
#30469750000
b11010011 "
b11010011 ,
b10001 0
b10000 /
b10000 .
1$
#30665062500
b11010001 "
b11010001 ,
b10001 0
b10000 /
b10000 .
0$
#30860375000
b11010000 "
b11010000 ,
b10001 0
b10000 /
b10000 .
1$
#31055687500
b11110000 "
b11110000 ,
b10001 0
b10000 /
b10000 .
0$
#31251000000
b11110001 "
b11110001 ,
b10001 0
b10000 /
b10000 .
1$
#31446312500
b11110011 "
b11110011 ,
b10001 0
b10000 /
b10000 .
0$
#31641625000
b11110010 "
b11110010 ,
b10001 0
b10000 /
b10000 .
1$
#31836937500
b11110110 "
b11110110 ,
b10001 0
b10000 /
b10000 .
0$
#32032250000
b11110111 "
b11110111 ,
b10001 0
b10000 /
b10000 .
1$
#32227562500
b11110101 "
b11110101 ,
b10001 0
b10000 /
b10000 .
0$
#32422875000
b11110100 "
b11110100 ,
b10001 0
b10000 /
b10000 .
1$
#32618187500
b11111100 "
b11111100 ,
b10001 0
b10000 /
b10000 .
0$
#32813500000
b11111101 "
b11111101 ,
b10001 0
b10000 /
b10000 .
1$
#33008812500
b11111111 "
b11111111 ,
b10001 0
b10000 /
b10000 .
0$
#33204125000
b11111110 "
b11111110 ,
b10001 0
b10000 /
b10000 .
1$
#33399437500
b11111010 "
b11111010 ,
b10001 0
b10000 /
b10000 .
0$
#33594750000
b11111011 "
b11111011 ,
b10001 0
b10000 /
b10000 .
1$
#33790062500
b11111001 "
b11111001 ,
b10001 0
b10000 /
b10000 .
0$
#33985375000
b11111000 "
b11111000 ,
b10001 0
b10000 /
b10000 .
1$
#34180687500
b11101000 "
b11101000 ,
b10001 0
b10000 /
b10000 .
0$
#34376000000
b11101001 "
b11101001 ,
b10001 0
b10000 /
b10000 .
1$
#34571312500
b11101011 "
b11101011 ,
b10001 0
b10000 /
b10000 .
0$
#34766625000
b11101010 "
b11101010 ,
b10001 0
b10000 /
b10000 .
1$
#34961937500
b11101110 "
b11101110 ,
b10001 0
b10000 /
b10000 .
0$
#35157250000
b11101111 "
b11101111 ,
b10001 0
b10000 /
b10000 .
1$
#35352562500
b11101101 "
b11101101 ,
b10001 0
b10000 /
b10000 .
0$
#35547875000
b11101100 "
b11101100 ,
b10001 0
b10000 /
b10000 .
1$
#35743187500
b11100100 "
b11100100 ,
b10001 0
b10000 /
b10000 .
0$
#35938500000
b11100101 "
b11100101 ,
b10001 0
b10000 /
b10000 .
1$
#36133812500
b11100111 "
b11100111 ,
b10001 0
b10000 /
b10000 .
0$
#36329125000
b11100110 "
b11100110 ,
b10001 0
b10000 /
b10000 .
1$
#36524437500
b11100010 "
b11100010 ,
b10001 0
b10000 /
b10000 .
0$
#36719750000
b11100011 "
b11100011 ,
b10001 0
b10000 /
b10000 .
1$
#36915062500
b11100001 "
b11100001 ,
b10001 0
b10000 /
b10000 .
0$
#37110375000
b11100000 "
b11100000 ,
b10001 0
b10000 /
b10000 .
1$
#37305687500
b10100000 "
b10100000 ,
b10001 0
b10000 /
b10000 .
0$
#37501000000
b10100001 "
b10100001 ,
b10001 0
b10000 /
b10000 .
1$
#37696312500
b10100011 "
b10100011 ,
b10001 0
b10000 /
b10000 .
0$
#37891625000
b10100010 "
b10100010 ,
b10001 0
b10000 /
b10000 .
1$
#38086937500
b10100110 "
b10100110 ,
b10001 0
b10000 /
b10000 .
0$
#38282250000
b10100111 "
b10100111 ,
b10001 0
b10000 /
b10000 .
1$
#38477562500
b10100101 "
b10100101 ,
b10001 0
b10000 /
b10000 .
0$
#38672875000
b10100100 "
b10100100 ,
b10001 0
b10000 /
b10000 .
1$
#38868187500
b10101100 "
b10101100 ,
b10001 0
b10000 /
b10000 .
0$
#39063500000
b10101101 "
b10101101 ,
b10001 0
b10000 /
b10000 .
1$
#39258812500
b10101111 "
b10101111 ,
b10001 0
b10000 /
b10000 .
0$
#39454125000
b10101110 "
b10101110 ,
b10001 0
b10000 /
b10000 .
1$
#39649437500
b10101010 "
b10101010 ,
b10001 0
b10000 /
b10000 .
0$
#39844750000
b10101011 "
b10101011 ,
b10001 0
b10000 /
b10000 .
1$
#40040062500
b10101001 "
b10101001 ,
b10001 0
b10000 /
b10000 .
0$
#40235375000
b10101000 "
b10101000 ,
b10001 0
b10000 /
b10000 .
1$
#40430687500
b10111000 "
b10111000 ,
b10001 0
b10000 /
b10000 .
0$
#40626000000
b10111001 "
b10111001 ,
b10001 0
b10000 /
b10000 .
1$
#40821312500
b10111011 "
b10111011 ,
b10001 0
b10000 /
b10000 .
0$
#41016625000
b10111010 "
b10111010 ,
b10001 0
b10000 /
b10000 .
1$
#41211937500
b10111110 "
b10111110 ,
b10001 0
b10000 /
b10000 .
0$
#41407250000
b10111111 "
b10111111 ,
b10001 0
b10000 /
b10000 .
1$
#41602562500
b10111101 "
b10111101 ,
b10001 0
b10000 /
b10000 .
0$
#41797875000
b10111100 "
b10111100 ,
b10001 0
b10000 /
b10000 .
1$
#41993187500
b10110100 "
b10110100 ,
b10001 0
b10000 /
b10000 .
0$
#42188500000
b10110101 "
b10110101 ,
b10001 0
b10000 /
b10000 .
1$
#42383812500
b10110111 "
b10110111 ,
b10001 0
b10000 /
b10000 .
0$
#42579125000
b10110110 "
b10110110 ,
b10001 0
b10000 /
b10000 .
1$
#42774437500
b10110010 "
b10110010 ,
b10001 0
b10000 /
b10000 .
0$
#42969750000
b10110011 "
b10110011 ,
b10001 0
b10000 /
b10000 .
1$
#43165062500
b10110001 "
b10110001 ,
b10001 0
b10000 /
b10000 .
0$
#43360375000
b10110000 "
b10110000 ,
b10001 0
b10000 /
b10000 .
1$
#43555687500
b10010000 "
b10010000 ,
b10001 0
b10000 /
b10000 .
0$
#43751000000
b10010001 "
b10010001 ,
b10001 0
b10000 /
b10000 .
1$
#43946312500
b10010011 "
b10010011 ,
b10001 0
b10000 /
b10000 .
0$
#44141625000
b10010010 "
b10010010 ,
b10001 0
b10000 /
b10000 .
1$
#44336937500
b10010110 "
b10010110 ,
b10001 0
b10000 /
b10000 .
0$
#44532250000
b10010111 "
b10010111 ,
b10001 0
b10000 /
b10000 .
1$
#44727562500
b10010101 "
b10010101 ,
b10001 0
b10000 /
b10000 .
0$
#44922875000
b10010100 "
b10010100 ,
b10001 0
b10000 /
b10000 .
1$
#45118187500
b10011100 "
b10011100 ,
b10001 0
b10000 /
b10000 .
0$
#45313500000
b10011101 "
b10011101 ,
b10001 0
b10000 /
b10000 .
1$
#45508812500
b10011111 "
b10011111 ,
b10001 0
b10000 /
b10000 .
0$
#45704125000
b10011110 "
b10011110 ,
b10001 0
b10000 /
b10000 .
1$
#45899437500
b10011010 "
b10011010 ,
b10001 0
b10000 /
b10000 .
0$
#46094750000
b10011011 "
b10011011 ,
b10001 0
b10000 /
b10000 .
1$
#46290062500
b10011001 "
b10011001 ,
b10001 0
b10000 /
b10000 .
0$
#46485375000
b10011000 "
b10011000 ,
b10001 0
b10000 /
b10000 .
1$
#46680687500
b10001000 "
b10001000 ,
b10001 0
b10000 /
b10000 .
0$
#46876000000
b10001001 "
b10001001 ,
b10001 0
b10000 /
b10000 .
1$
#47071312500
b10001011 "
b10001011 ,
b10001 0
b10000 /
b10000 .
0$
#47266625000
b10001010 "
b10001010 ,
b10001 0
b10000 /
b10000 .
1$
#47461937500
b10001110 "
b10001110 ,
b10001 0
b10000 /
b10000 .
0$
#47657250000
b10001111 "
b10001111 ,
b10001 0
b10000 /
b10000 .
1$
#47852562500
b10001101 "
b10001101 ,
b10001 0
b10000 /
b10000 .
0$
#48047875000
b10001100 "
b10001100 ,
b10001 0
b10000 /
b10000 .
1$
#48243187500
b10000100 "
b10000100 ,
b10001 0
b10000 /
b10000 .
0$
#48438500000
b10000101 "
b10000101 ,
b10001 0
b10000 /
b10000 .
1$
#48633812500
b10000111 "
b10000111 ,
b10001 0
b10000 /
b10000 .
0$
#48829125000
b10000110 "
b10000110 ,
b10001 0
b10000 /
b10000 .
1$
#49024437500
b10000010 "
b10000010 ,
b10001 0
b10000 /
b10000 .
0$
#49219750000
b10000011 "
b10000011 ,
b10001 0
b10000 /
b10000 .
1$
#49415062500
b10000001 "
b10000001 ,
b10001 0
b10000 /
b10000 .
0$
#49610375000
b10000000 "
b10000000 ,
b10001 0
b10000 /
b10000 .
1$
#49805687500
b110000000 "
b110000000 ,
b10001 0
b10000 /
b10000 .
0$
#50001000000
b110000001 "
b110000001 ,
b10001 0
b10000 /
b10000 .
1$
1#
#50196312500
b110000011 "
b110000011 ,
b10001 0
b10000 /
b10000 .
0$
#50391625000
b110000010 "
b110000010 ,
b10001 0
b10000 /
b10000 .
1$
#50586937500
b110000110 "
b110000110 ,
b10001 0
b10000 /
b10000 .
0$
#50782250000
b110000111 "
b110000111 ,
b10001 0
b10000 /
b10000 .
1$
#50977562500
b110000101 "
b110000101 ,
b10001 0
b10000 /
b10000 .
0$
#51172875000
b110000100 "
b110000100 ,
b10001 0
b10000 /
b10000 .
1$
#51368187500
b110001100 "
b110001100 ,
b10001 0
b10000 /
b10000 .
0$
#51563500000
b110001101 "
b110001101 ,
b10001 0
b10000 /
b10000 .
1$
#51758812500
b110001111 "
b110001111 ,
b10001 0
b10000 /
b10000 .
0$
#51954125000
b110001110 "
b110001110 ,
b10001 0
b10000 /
b10000 .
1$
#52149437500
b110001010 "
b110001010 ,
b10001 0
b10000 /
b10000 .
0$
#52344750000
b110001011 "
b110001011 ,
b10001 0
b10000 /
b10000 .
1$
#52540062500
b110001001 "
b110001001 ,
b10001 0
b10000 /
b10000 .
0$
#52735375000
b110001000 "
b110001000 ,
b10001 0
b10000 /
b10000 .
1$
#52930687500
b110011000 "
b110011000 ,
b10001 0
b10000 /
b10000 .
0$
#53126000000
b110011001 "
b110011001 ,
b10001 0
b10000 /
b10000 .
1$
#53321312500
b110011011 "
b110011011 ,
b10001 0
b10000 /
b10000 .
0$
#53516625000
b110011010 "
b110011010 ,
b10001 0
b10000 /
b10000 .
1$
#53711937500
b110011110 "
b110011110 ,
b10001 0
b10000 /
b10000 .
0$
#53907250000
b110011111 "
b110011111 ,
b10001 0
b10000 /
b10000 .
1$
#54102562500
b110011101 "
b110011101 ,
b10001 0
b10000 /
b10000 .
0$
#54297875000
b110011100 "
b110011100 ,
b10001 0
b10000 /
b10000 .
1$
#54493187500
b110010100 "
b110010100 ,
b10001 0
b10000 /
b10000 .
0$
#54688500000
b110010101 "
b110010101 ,
b10001 0
b10000 /
b10000 .
1$
#54883812500
b110010111 "
b110010111 ,
b10001 0
b10000 /
b10000 .
0$
#55079125000
b110010110 "
b110010110 ,
b10001 0
b10000 /
b10000 .
1$
#55274437500
b110010010 "
b110010010 ,
b10001 0
b10000 /
b10000 .
0$
#55469750000
b110010011 "
b110010011 ,
b10001 0
b10000 /
b10000 .
1$
#55665062500
b110010001 "
b110010001 ,
b10001 0
b10000 /
b10000 .
0$
#55860375000
b110010000 "
b110010000 ,
b10001 0
b10000 /
b10000 .
1$
#56055687500
b110110000 "
b110110000 ,
b10001 0
b10000 /
b10000 .
0$
#56251000000
b110110001 "
b110110001 ,
b10001 0
b10000 /
b10000 .
1$
#56446312500
b110110011 "
b110110011 ,
b10001 0
b10000 /
b10000 .
0$
#56641625000
b110110010 "
b110110010 ,
b10001 0
b10000 /
b10000 .
1$
#56836937500
b110110110 "
b110110110 ,
b10001 0
b10000 /
b10000 .
0$
#57032250000
b110110111 "
b110110111 ,
b10001 0
b10000 /
b10000 .
1$
#57227562500
b110110101 "
b110110101 ,
b10001 0
b10000 /
b10000 .
0$
#57422875000
b110110100 "
b110110100 ,
b10001 0
b10000 /
b10000 .
1$
#57618187500
b110111100 "
b110111100 ,
b10001 0
b10000 /
b10000 .
0$
#57813500000
b110111101 "
b110111101 ,
b10001 0
b10000 /
b10000 .
1$
#58008812500
b110111111 "
b110111111 ,
b10001 0
b10000 /
b10000 .
0$
#58204125000
b110111110 "
b110111110 ,
b10001 0
b10000 /
b10000 .
1$
#58399437500
b110111010 "
b110111010 ,
b10001 0
b10000 /
b10000 .
0$
#58594750000
b110111011 "
b110111011 ,
b10001 0
b10000 /
b10000 .
1$
#58790062500
b110111001 "
b110111001 ,
b10001 0
b10000 /
b10000 .
0$
