verilog/final_verilog/final readout/ro_block_2.vcd
$date
	Sat May 28 20:14:00 2022
$end
$version
	Icarus Verilog
$end
$timescale
	1fs
$end
$scope module tb_ro_block_2 $end
$var wire 2 ! read_out_iq [1:0] $end
$var wire 19 " gc_clk [18:0] $end
$var reg 1 # clk_master $end
$var reg 1 $ clkdiv2 $end
$var reg 1 % in_pol $end
$var reg 1 & in_pol_eve $end
$var reg 1 ' rstb $end
$var reg 1 ( vpwr $end
$var real 1 ) clk_core_half_pd $end
$var real 1 * clk_master_half_pd $end
$var real 1 + comp_out_half_pd $end
$scope module gc_clock $end
$var wire 1 # clk $end
$var wire 1 ' reset $end
$var reg 19 , gray_count [18:0] $end
$var reg 1 - q_msb $end
$var integer 32 . i [31:0] $end
$var integer 32 / j [31:0] $end
$var integer 32 0 k [31:0] $end
$upscope $end
$scope module ro_block $end
$var wire 1 # clk_master $end
$var wire 1 1 gray $end
$var wire 1 % in_pol $end
$var wire 1 & in_pol_eve $end
$var wire 1 ( vpwr $end
$var wire 1 2 out_mux_pol_eve $end
$var wire 1 3 out_mux_pol $end
$scope module ro_pol $end
$var wire 1 # clk_master $end
$var wire 1 1 gray $end
$var wire 1 % in $end
$var wire 1 ( vpwr $end
$var wire 1 3 readout $end
$var wire 1 4 eff_out $end
$scope module eff $end
$var wire 1 1 clk $end
$var wire 1 ( d $end
$var wire 1 # rstb $end
$var wire 2 5 q [1:0] $end
$var wire 1 4 out $end
$var wire 1 6 buff_out $end
$scope module bf $end
$var wire 1 1 in $end
$var wire 3 7 w [2:0] $end
$var wire 1 6 out $end
$scope begin buffer_loop[0] $end
$scope module g2 $end
$var wire 1 8 a $end
$var wire 1 9 out $end
$upscope $end
$upscope $end
$scope begin buffer_loop[1] $end
$scope module g2 $end
$var wire 1 : a $end
$var wire 1 ; out $end
$upscope $end
$upscope $end
$scope module g1 $end
$var wire 1 1 a $end
$var wire 1 < out $end
$upscope $end
$scope module g3 $end
$var wire 1 = a $end
$var wire 1 6 out $end
$upscope $end
$upscope $end
$scope module dff $end
$var wire 1 6 clk $end
$var wire 1 ( d $end
$var wire 1 # rstb $end
$var reg 1 > q $end
$upscope $end
$scope module dff_n $end
$var wire 1 6 clk $end
$var wire 1 ( d $end
$var wire 1 # rstb $end
$var reg 1 ? q $end
$upscope $end
$scope module mux $end
$var wire 1 @ in_0 $end
$var wire 1 A in_1 $end
$var wire 1 1 sel $end
$var reg 1 4 out $end
$upscope $end
$upscope $end
$scope module tribuf $end
$var wire 1 4 ctrl $end
$var wire 1 % in $end
$var reg 1 3 out $end
$upscope $end
$upscope $end
$scope module ro_pol_eve $end
$var wire 1 # clk_master $end
$var wire 1 1 gray $end
$var wire 1 & in $end
$var wire 1 ( vpwr $end
$var wire 1 2 readout $end
$var wire 1 B eff_out $end
$scope module eff $end
$var wire 1 1 clk $end
$var wire 1 ( d $end
$var wire 1 # rstb $end
$var wire 2 C q [1:0] $end
$var wire 1 B out $end
$var wire 1 D buff_out $end
$scope module bf $end
$var wire 1 1 in $end
$var wire 3 E w [2:0] $end
$var wire 1 D out $end
$scope begin buffer_loop[0] $end
$scope module g2 $end
$var wire 1 F a $end
$var wire 1 G out $end
$upscope $end
$upscope $end
$scope begin buffer_loop[1] $end
$scope module g2 $end
$var wire 1 H a $end
$var wire 1 I out $end
$upscope $end
$upscope $end
$scope module g1 $end
$var wire 1 1 a $end
$var wire 1 J out $end
$upscope $end
$scope module g3 $end
$var wire 1 K a $end
$var wire 1 D out $end
$upscope $end
$upscope $end
$scope module dff $end
$var wire 1 D clk $end
$var wire 1 ( d $end
$var wire 1 # rstb $end
$var reg 1 L q $end
$upscope $end
$scope module dff_n $end
$var wire 1 D clk $end
$var wire 1 ( d $end
$var wire 1 # rstb $end
$var reg 1 M q $end
$upscope $end
$scope module mux $end
$var wire 1 N in_0 $end
$var wire 1 O in_1 $end
$var wire 1 1 sel $end
$var reg 1 B out $end
$upscope $end
$upscope $end
$scope module tribuf $end
$var wire 1 B ctrl $end
$var wire 1 & in $end
$var reg 1 2 out $end
$upscope $end
$upscope $end
$upscope $end
$upscope $end
$enddefinitions $end
#0
$dumpvars
xO
1N
1M
xL
1K
1J
1I
0H
0G
1F
b101 E
0D
bx1 C
1B
xA
1@
1?
x>
1=
1<
1;
0:
09
18
b101 7
06
bx1 5
14
x3
x2
01
b10011 0
b10010 /
b10011 .
0-
b0 ,
r800 +
r200 *
r400 )
1(
0'
x&
x%
0$
0#
b0 "
bx !
$end
#5000000
1'
#7000000
12
b11 !
13
1&
1%
#200000000
b1 "
b1 ,
z3
bz !
z2
04
0B
b10011 0
b10010 /
0A
0@
0O
0N
0>
b0 5
0?
0L
b0 C
0M
b10010 .
1#
#400000000
13
b11 !
12
14
1B
1A
1O
b10 5
1>
b10 C
1L
16
1D
0=
0K
0;
0I
1:
1H
19
1G
08
0F
b10 7
0<
b10 E
0J
11
b11 "
b11 ,
b10011 0
b10010 /
b10010 .
0#
1$
#600000000
b10 "
b10 ,
z3
bz !
z2
04
0B
b10011 0
b10010 /
0A
0O
b0 5
0>
b0 C
0L
b10010 .
1#
#800000000
b110 "
b110 ,
b10011 0
b10010 /
b10010 .
0#
0$
#807000000
0&
0%
#1000000000
b111 "
b111 ,
b10011 0
b10010 /
b10010 .
1#
#1200000000
03
b0 !
02
14
1B
1@
1N
b1 5
1?
b1 C
1M
06
0D
1=
1K
1;
1I
0:
0H
09
0G
18
1F
b101 7
1<
b101 E
1J
01
b101 "
b101 ,
b10011 0
b10010 /
b10010 .
0#
1$
#1400000000
b100 "
b100 ,
z3
bz !
z2
04
0B
b10011 0
b10010 /
0@
0N
b0 5
0?
b0 C
0M
b10010 .
1#
#1600000000
b1100 "
b1100 ,
b10011 0
b10010 /
b10010 .
0#
0$
#1602000000
1%
1&
#1800000000
b1101 "
b1101 ,
b10011 0
b10010 /
b10010 .
1#
#2000000000
13
b11 !
12
14
1B
1A
1O
b10 5
1>
b10 C
1L
16
1D
0=
0K
0;
0I
1:
1H
19
1G
08
0F
b10 7
0<
b10 E
0J
11
b1111 "
b1111 ,
b10011 0
b10010 /
b10010 .
0#
1$
#2200000000
b1110 "
b1110 ,
z3
bz !
z2
04
0B
b10011 0
b10010 /
0A
0O
b0 5
0>
b0 C
0L
b10010 .
1#
#2400000000
b1010 "
b1010 ,
b10011 0
b10010 /
b10010 .
0#
0$
#2402000000
0%
0&
#2600000000
b1011 "
b1011 ,
b10011 0
b10010 /
b10010 .
1#
#2800000000
03
b0 !
02
14
1B
1@
1N
b1 5
1?
b1 C
1M
06
0D
1=
1K
1;
1I
0:
0H
09
0G
18
1F
b101 7
1<
b101 E
1J
01
b1001 "
b1001 ,
b10011 0
b10010 /
b10010 .
0#
1$
#3000000000
b1000 "
b1000 ,
z3
bz !
z2
04
0B
b10011 0
b10010 /
0@
0N
b0 5
0?
b0 C
0M
b10010 .
1#
#3200000000
b11000 "
b11000 ,
b10011 0
b10010 /
b10010 .
0#
0$
#3202000000
1&
1%
#3400000000
b11001 "
b11001 ,
b10011 0
b10010 /
b10010 .
1#
#3600000000
13
b11 !
12
14
1B
1A
1O
b10 5
1>
b10 C
1L
16
1D
0=
0K
0;
0I
1:
1H
19
1G
08
0F
b10 7
0<
b10 E
0J
11
b11011 "
b11011 ,
b10011 0
b10010 /
b10010 .
0#
1$
#3800000000
b11010 "
b11010 ,
z3
bz !
z2
04
0B
b10011 0
b10010 /
0A
0O
b0 5
0>
b0 C
0L
b10010 .
1#
#4000000000
b11110 "
b11110 ,
b10011 0
b10010 /
b10010 .
0#
0$
#4002000000
0&
0%
#4200000000
b11111 "
b11111 ,
b10011 0
b10010 /
b10010 .
1#
#4400000000
03
b0 !
02
14
1B
1@
1N
b1 5
1?
b1 C
1M
06
0D
1=
1K
1;
1I
0:
0H
09
0G
18
1F
b101 7
1<
b101 E
1J
01
b11101 "
b11101 ,
b10011 0
b10010 /
b10010 .
0#
1$
#4600000000
b11100 "
b11100 ,
z3
bz !
z2
04
0B
b10011 0
b10010 /
0@
0N
b0 5
0?
b0 C
0M
b10010 .
1#
#4800000000
b10100 "
b10100 ,
b10011 0
b10010 /
b10010 .
0#
0$
#4802000000
1%
1&
#5000000000
b10101 "
b10101 ,
b10011 0
b10010 /
b10010 .
1#
#5200000000
13
b11 !
12
14
1B
1A
1O
b10 5
1>
b10 C
1L
16
1D
0=
0K
0;
0I
1:
1H
19
1G
08
0F
b10 7
0<
b10 E
0J
11
b10111 "
b10111 ,
b10011 0
b10010 /
b10010 .
0#
1$
#5400000000
b10110 "
b10110 ,
z3
bz !
z2
04
0B
b10011 0
b10010 /
0A
0O
b0 5
0>
b0 C
0L
b10010 .
1#
#5600000000
b10010 "
b10010 ,
b10011 0
b10010 /
b10010 .
0#
0$
#5602000000
0%
0&
#5800000000
b10011 "
b10011 ,
b10011 0
b10010 /
b10010 .
1#
#6000000000
03
b0 !
02
14
1B
1@
1N
b1 5
1?
b1 C
1M
06
0D
1=
1K
1;
1I
0:
0H
09
0G
18
1F
b101 7
1<
b101 E
1J
01
b10001 "
b10001 ,
b10011 0
b10010 /
b10010 .
0#
1$
#6200000000
b10000 "
b10000 ,
z3
bz !
z2
04
0B
b10011 0
b10010 /
0@
0N
b0 5
0?
b0 C
0M
b10010 .
1#
#6400000000
b110000 "
b110000 ,
b10011 0
b10010 /
b10010 .
0#
0$
#6402000000
1&
1%
#6600000000
b110001 "
b110001 ,
b10011 0
b10010 /
b10010 .
1#
#6800000000
13
b11 !
12
14
1B
1A
1O
b10 5
1>
b10 C
1L
16
1D
0=
0K
0;
0I
1:
1H
19
1G
08
0F
b10 7
0<
b10 E
0J
11
b110011 "
b110011 ,
b10011 0
b10010 /
b10010 .
0#
1$
#7000000000
b110010 "
b110010 ,
z3
bz !
z2
04
0B
b10011 0
b10010 /
0A
0O
b0 5
0>
b0 C
0L
b10010 .
1#
#7200000000
b110110 "
b110110 ,
b10011 0
b10010 /
b10010 .
0#
0$
#7202000000
0&
0%
#7400000000
b110111 "
b110111 ,
b10011 0
b10010 /
b10010 .
1#
#7600000000
03
b0 !
02
14
1B
1@
1N
b1 5
1?
b1 C
1M
06
0D
1=
1K
1;
1I
0:
0H
09
0G
18
1F
b101 7
1<
b101 E
1J
01
b110101 "
b110101 ,
b10011 0
b10010 /
b10010 .
0#
1$
#7800000000
b110100 "
b110100 ,
z3
bz !
z2
04
0B
b10011 0
b10010 /
0@
0N
b0 5
0?
b0 C
0M
b10010 .
1#
#8000000000
b111100 "
b111100 ,
b10011 0
b10010 /
b10010 .
0#
0$
#8002000000
1%
1&
#8200000000
b111101 "
b111101 ,
b10011 0
b10010 /
b10010 .
1#
#8400000000
13
b11 !
12
14
1B
1A
1O
b10 5
1>
b10 C
1L
16
1D
0=
0K
0;
0I
1:
1H
19
1G
08
0F
b10 7
0<
b10 E
0J
11
b111111 "
b111111 ,
b10011 0
b10010 /
b10010 .
0#
1$
#8600000000
b111110 "
b111110 ,
z3
bz !
z2
04
0B
b10011 0
b10010 /
0A
0O
b0 5
0>
b0 C
0L
b10010 .
1#
#8800000000
b111010 "
b111010 ,
b10011 0
b10010 /
b10010 .
0#
0$
#8802000000
0%
0&
#9000000000
b111011 "
b111011 ,
b10011 0
b10010 /
b10010 .
1#
#9200000000
03
b0 !
02
14
1B
1@
1N
b1 5
1?
b1 C
1M
06
0D
1=
1K
1;
1I
0:
0H
09
0G
18
1F
b101 7
1<
b101 E
1J
01
b111001 "
b111001 ,
b10011 0
b10010 /
b10010 .
0#
1$
#9400000000
b111000 "
b111000 ,
z3
bz !
z2
04
0B
b10011 0
b10010 /
0@
0N
b0 5
0?
b0 C
0M
b10010 .
1#
#9600000000
b101000 "
b101000 ,
b10011 0
b10010 /
b10010 .
0#
0$
#9602000000
1&
1%
#9800000000
b101001 "
b101001 ,
b10011 0
b10010 /
b10010 .
1#
#10000000000
13
b11 !
12
14
1B
1A
1O
b10 5
1>
b10 C
1L
16
1D
0=
0K
0;
0I
1:
1H
19
1G
08
0F
b10 7
0<
b10 E
0J
11
b101011 "
b101011 ,
b10011 0
b10010 /
b10010 .
0#
1$
#10200000000
b101010 "
b101010 ,
z3
bz !
z2
04
0B
b10011 0
b10010 /
0A
0O
b0 5
0>
b0 C
0L
b10010 .
1#
#10400000000
b101110 "
b101110 ,
b10011 0
b10010 /
b10010 .
0#
0$
#10402000000
0&
0%
#10600000000
b101111 "
b101111 ,
b10011 0
b10010 /
b10010 .
1#
#10800000000
03
b0 !
02
14
1B
1@
1N
b1 5
1?
b1 C
1M
06
0D
1=
1K
1;
1I
0:
0H
09
0G
18
1F
b101 7
1<
b101 E
1J
01
b101101 "
b101101 ,
b10011 0
b10010 /
b10010 .
0#
1$
#11000000000
b101100 "
b101100 ,
z3
bz !
z2
04
0B
b10011 0
b10010 /
0@
0N
b0 5
0?
b0 C
0M
b10010 .
1#
#11200000000
b100100 "
b100100 ,
b10011 0
b10010 /
b10010 .
0#
0$
#11202000000
1%
1&
#11400000000
b100101 "
b100101 ,
b10011 0
b10010 /
b10010 .
1#
#11600000000
13
b11 !
12
14
1B
1A
1O
b10 5
1>
b10 C
1L
16
1D
0=
0K
0;
0I
1:
1H
19
1G
08
0F
b10 7
0<
b10 E
0J
11
b100111 "
b100111 ,
b10011 0
b10010 /
b10010 .
0#
1$
#11800000000
b100110 "
b100110 ,
z3
bz !
z2
04
0B
b10011 0
b10010 /
0A
0O
b0 5
0>
b0 C
0L
b10010 .
1#
#12000000000
b100010 "
b100010 ,
b10011 0
b10010 /
b10010 .
0#
0$
#12002000000
0%
0&
#12200000000
b100011 "
b100011 ,
b10011 0
b10010 /
b10010 .
1#
#12400000000
03
b0 !
02
14
1B
1@
1N
b1 5
1?
b1 C
1M
06
0D
1=
1K
1;
1I
0:
0H
09
0G
18
1F
b101 7
1<
b101 E
1J
01
b100001 "
b100001 ,
b10011 0
b10010 /
b10010 .
0#
1$
#12600000000
b100000 "
b100000 ,
z3
bz !
z2
04
0B
b10011 0
b10010 /
0@
0N
b0 5
0?
b0 C
0M
b10010 .
1#
#12800000000
b1100000 "
b1100000 ,
b10011 0
b10010 /
b10010 .
0#
0$
#12802000000
1&
1%
#13000000000
b1100001 "
b1100001 ,
b10011 0
b10010 /
b10010 .
1#
#13200000000
13
b11 !
12
14
1B
1A
1O
b10 5
1>
b10 C
1L
16
1D
0=
0K
0;
0I
1:
1H
19
1G
08
0F
b10 7
0<
b10 E
0J
11
b1100011 "
b1100011 ,
b10011 0
b10010 /
b10010 .
0#
1$
#13400000000
b1100010 "
b1100010 ,
z3
bz !
z2
04
0B
b10011 0
b10010 /
0A
0O
b0 5
0>
b0 C
0L
b10010 .
1#
#13600000000
b1100110 "
b1100110 ,
b10011 0
b10010 /
b10010 .
0#
0$
#13602000000
0&
0%
#13800000000
b1100111 "
b1100111 ,
b10011 0
b10010 /
b10010 .
1#
#14000000000
03
b0 !
02
14
1B
1@
1N
b1 5
1?
b1 C
1M
06
0D
1=
1K
1;
1I
0:
0H
09
0G
18
1F
b101 7
1<
b101 E
1J
01
b1100101 "
b1100101 ,
b10011 0
b10010 /
b10010 .
0#
1$
#14200000000
b1100100 "
b1100100 ,
z3
bz !
z2
04
0B
b10011 0
b10010 /
0@
0N
b0 5
0?
b0 C
0M
b10010 .
1#
#14400000000
b1101100 "
b1101100 ,
b10011 0
b10010 /
b10010 .
0#
0$
#14402000000
1%
1&
#14600000000
b1101101 "
b1101101 ,
b10011 0
b10010 /
b10010 .
1#
#14800000000
13
b11 !
12
14
1B
1A
1O
b10 5
1>
b10 C
1L
16
1D
0=
0K
0;
0I
1:
1H
19
1G
08
0F
b10 7
0<
b10 E
0J
11
b1101111 "
b1101111 ,
b10011 0
b10010 /
b10010 .
0#
1$
#15000000000
b1101110 "
b1101110 ,
z3
bz !
z2
04
0B
b10011 0
b10010 /
0A
0O
b0 5
0>
b0 C
0L
b10010 .
1#
#15200000000
b1101010 "
b1101010 ,
b10011 0
b10010 /
b10010 .
0#
0$
#15202000000
0%
0&
#15400000000
b1101011 "
b1101011 ,
b10011 0
b10010 /
b10010 .
1#
#15600000000
03
b0 !
02
14
1B
1@
1N
b1 5
1?
b1 C
1M
06
0D
1=
1K
1;
1I
0:
0H
09
0G
18
1F
b101 7
1<
b101 E
1J
01
b1101001 "
b1101001 ,
b10011 0
b10010 /
b10010 .
0#
1$
#15800000000
b1101000 "
b1101000 ,
z3
bz !
z2
04
0B
b10011 0
b10010 /
0@
0N
b0 5
0?
b0 C
0M
b10010 .
1#
#16000000000
b1111000 "
b1111000 ,
b10011 0
b10010 /
b10010 .
0#
0$
#16002000000
1&
1%
#16200000000
b1111001 "
b1111001 ,
b10011 0
b10010 /
b10010 .
1#
#16400000000
13
b11 !
12
14
1B
1A
1O
b10 5
1>
b10 C
1L
16
1D
0=
0K
0;
0I
1:
1H
19
1G
08
0F
b10 7
0<
b10 E
0J
11
b1111011 "
b1111011 ,
b10011 0
b10010 /
b10010 .
0#
1$
#16600000000
b1111010 "
b1111010 ,
z3
bz !
z2
04
0B
b10011 0
b10010 /
0A
0O
b0 5
0>
b0 C
0L
b10010 .
1#
#16800000000
b1111110 "
b1111110 ,
b10011 0
b10010 /
b10010 .
0#
0$
#16802000000
0&
0%
#17000000000
b1111111 "
b1111111 ,
b10011 0
b10010 /
b10010 .
1#
#17200000000
03
b0 !
02
14
1B
1@
1N
b1 5
1?
b1 C
1M
06
0D
1=
1K
1;
1I
0:
0H
09
0G
18
1F
b101 7
1<
b101 E
1J
01
b1111101 "
b1111101 ,
b10011 0
b10010 /
b10010 .
0#
1$
#17400000000
b1111100 "
b1111100 ,
z3
bz !
z2
04
0B
b10011 0
b10010 /
0@
0N
b0 5
0?
b0 C
0M
b10010 .
1#
#17600000000
b1110100 "
b1110100 ,
b10011 0
b10010 /
b10010 .
0#
0$
#17602000000
1%
1&
#17800000000
b1110101 "
b1110101 ,
b10011 0
b10010 /
b10010 .
1#
#18000000000
13
b11 !
12
14
1B
1A
1O
b10 5
1>
b10 C
1L
16
1D
0=
0K
0;
0I
1:
1H
19
1G
08
0F
b10 7
0<
b10 E
0J
11
b1110111 "
b1110111 ,
b10011 0
b10010 /
b10010 .
0#
1$
#18200000000
b1110110 "
b1110110 ,
z3
bz !
z2
04
0B
b10011 0
b10010 /
0A
0O
b0 5
0>
b0 C
0L
b10010 .
1#
#18400000000
b1110010 "
b1110010 ,
b10011 0
b10010 /
b10010 .
0#
0$
#18402000000
0%
0&
#18600000000
b1110011 "
b1110011 ,
b10011 0
b10010 /
b10010 .
1#
#18800000000
03
b0 !
02
14
1B
1@
1N
b1 5
1?
b1 C
1M
06
0D
1=
1K
1;
1I
0:
0H
09
0G
18
1F
b101 7
1<
b101 E
1J
01
b1110001 "
b1110001 ,
b10011 0
b10010 /
b10010 .
0#
1$
#19000000000
b1110000 "
b1110000 ,
z3
bz !
z2
04
0B
b10011 0
b10010 /
0@
0N
b0 5
0?
b0 C
0M
b10010 .
1#
#19200000000
b1010000 "
b1010000 ,
b10011 0
b10010 /
b10010 .
0#
0$
#19202000000
1&
1%
#19400000000
b1010001 "
b1010001 ,
b10011 0
b10010 /
b10010 .
1#
#19600000000
13
b11 !
12
14
1B
1A
1O
b10 5
1>
b10 C
1L
16
1D
0=
0K
0;
0I
1:
1H
19
1G
08
0F
b10 7
0<
b10 E
0J
11
b1010011 "
b1010011 ,
b10011 0
b10010 /
b10010 .
0#
1$
#19800000000
b1010010 "
b1010010 ,
z3
bz !
z2
04
0B
b10011 0
b10010 /
0A
0O
b0 5
0>
b0 C
0L
b10010 .
1#
#20000000000
b1010110 "
b1010110 ,
b10011 0
b10010 /
b10010 .
0#
0$
#20002000000
0&
0%
#20200000000
b1010111 "
b1010111 ,
b10011 0
b10010 /
b10010 .
1#
#20400000000
03
b0 !
02
14
1B
1@
1N
b1 5
1?
b1 C
1M
06
0D
1=
1K
1;
1I
0:
0H
09
0G
18
1F
b101 7
1<
b101 E
1J
01
b1010101 "
b1010101 ,
b10011 0
b10010 /
b10010 .
0#
1$
#20600000000
b1010100 "
b1010100 ,
z3
bz !
z2
04
0B
b10011 0
b10010 /
0@
0N
b0 5
0?
b0 C
0M
b10010 .
1#
#20800000000
b1011100 "
b1011100 ,
b10011 0
b10010 /
b10010 .
0#
0$
#20802000000
1%
1&
#21000000000
b1011101 "
b1011101 ,
b10011 0
b10010 /
b10010 .
1#
#21200000000
13
b11 !
12
14
1B
1A
1O
b10 5
1>
b10 C
1L
16
1D
0=
0K
0;
0I
1:
1H
19
1G
08
0F
b10 7
0<
b10 E
0J
11
b1011111 "
b1011111 ,
b10011 0
b10010 /
b10010 .
0#
1$
#21400000000
b1011110 "
b1011110 ,
z3
bz !
z2
04
0B
b10011 0
b10010 /
0A
0O
b0 5
0>
b0 C
0L
b10010 .
1#
#21600000000
b1011010 "
b1011010 ,
b10011 0
b10010 /
b10010 .
0#
0$
#21602000000
0%
0&
#21800000000
b1011011 "
b1011011 ,
b10011 0
b10010 /
b10010 .
1#
#22000000000
03
b0 !
02
14
1B
1@
1N
b1 5
1?
b1 C
1M
06
0D
1=
1K
1;
1I
0:
0H
09
0G
18
1F
b101 7
1<
b101 E
1J
01
b1011001 "
b1011001 ,
b10011 0
b10010 /
b10010 .
0#
1$
#22200000000
b1011000 "
b1011000 ,
z3
bz !
z2
04
0B
b10011 0
b10010 /
0@
0N
b0 5
0?
b0 C
0M
b10010 .
1#
#22400000000
b1001000 "
b1001000 ,
b10011 0
b10010 /
b10010 .
0#
0$
#22402000000
1&
1%
#22600000000
b1001001 "
b1001001 ,
b10011 0
b10010 /
b10010 .
1#
#22800000000
13
b11 !
12
14
1B
1A
1O
b10 5
1>
b10 C
1L
16
1D
0=
0K
0;
0I
1:
1H
19
1G
08
0F
b10 7
0<
b10 E
0J
11
b1001011 "
b1001011 ,
b10011 0
b10010 /
b10010 .
0#
1$
#23000000000
b1001010 "
b1001010 ,
z3
bz !
z2
04
0B
b10011 0
b10010 /
0A
0O
b0 5
0>
b0 C
0L
b10010 .
1#
#23200000000
b1001110 "
b1001110 ,
b10011 0
b10010 /
b10010 .
0#
0$
#23202000000
0&
0%
#23400000000
b1001111 "
b1001111 ,
b10011 0
b10010 /
b10010 .
1#
#23600000000
03
b0 !
02
14
1B
1@
1N
b1 5
1?
b1 C
1M
06
0D
1=
1K
1;
1I
0:
0H
09
0G
18
1F
b101 7
1<
b101 E
1J
01
b1001101 "
b1001101 ,
b10011 0
b10010 /
b10010 .
0#
1$
#23800000000
b1001100 "
b1001100 ,
z3
bz !
z2
04
0B
b10011 0
b10010 /
0@
0N
b0 5
0?
b0 C
0M
b10010 .
1#
#24000000000
b1000100 "
b1000100 ,
b10011 0
b10010 /
b10010 .
0#
0$
#24002000000
1%
1&
#24200000000
b1000101 "
b1000101 ,
b10011 0
b10010 /
b10010 .
1#
#24400000000
13
b11 !
12
14
1B
1A
1O
b10 5
1>
b10 C
1L
16
1D
0=
0K
0;
0I
1:
1H
19
1G
08
0F
b10 7
0<
b10 E
0J
11
b1000111 "
b1000111 ,
b10011 0
b10010 /
b10010 .
0#
1$
#24600000000
b1000110 "
b1000110 ,
z3
bz !
z2
04
0B
b10011 0
b10010 /
0A
0O
b0 5
0>
b0 C
0L
b10010 .
1#
#24800000000
b1000010 "
b1000010 ,
b10011 0
b10010 /
b10010 .
0#
0$
#24802000000
0%
0&
#25000000000
b1000011 "
b1000011 ,
b10011 0
b10010 /
b10010 .
1#
#25200000000
03
b0 !
02
14
1B
1@
1N
b1 5
1?
b1 C
1M
06
0D
1=
1K
1;
1I
0:
0H
09
0G
18
1F
b101 7
1<
b101 E
1J
01
b1000001 "
b1000001 ,
b10011 0
b10010 /
b10010 .
0#
1$
#25400000000
b1000000 "
b1000000 ,
z3
bz !
z2
04
0B
b10011 0
b10010 /
0@
0N
b0 5
0?
b0 C
0M
b10010 .
1#
#25600000000
b11000000 "
b11000000 ,
b10011 0
b10010 /
b10010 .
0#
0$
#25602000000
1&
1%
#25800000000
b11000001 "
b11000001 ,
b10011 0
b10010 /
b10010 .
1#
#26000000000
13
b11 !
12
14
1B
1A
1O
b10 5
1>
b10 C
1L
16
1D
0=
0K
0;
0I
1:
1H
19
1G
08
0F
b10 7
0<
b10 E
0J
11
b11000011 "
b11000011 ,
b10011 0
b10010 /
b10010 .
0#
1$
#26200000000
b11000010 "
b11000010 ,
z3
bz !
z2
04
0B
b10011 0
b10010 /
0A
0O
b0 5
0>
b0 C
0L
b10010 .
1#
#26400000000
b11000110 "
b11000110 ,
b10011 0
b10010 /
b10010 .
0#
0$
#26402000000
0&
0%
#26600000000
b11000111 "
b11000111 ,
b10011 0
b10010 /
b10010 .
1#
#26800000000
03
b0 !
02
14
1B
1@
1N
b1 5
1?
b1 C
1M
06
0D
1=
1K
1;
1I
0:
0H
09
0G
18
1F
b101 7
1<
b101 E
1J
01
b11000101 "
b11000101 ,
b10011 0
b10010 /
b10010 .
0#
1$
#27000000000
b11000100 "
b11000100 ,
z3
bz !
z2
04
0B
b10011 0
b10010 /
0@
0N
b0 5
0?
b0 C
0M
b10010 .
1#
#27200000000
b11001100 "
b11001100 ,
b10011 0
b10010 /
b10010 .
0#
0$
#27202000000
1%
1&
#27400000000
b11001101 "
b11001101 ,
b10011 0
b10010 /
b10010 .
1#
#27600000000
13
b11 !
12
14
1B
1A
1O
b10 5
1>
b10 C
1L
16
1D
0=
0K
0;
0I
1:
1H
19
1G
08
0F
b10 7
0<
b10 E
0J
11
b11001111 "
b11001111 ,
b10011 0
b10010 /
b10010 .
0#
1$
#27800000000
b11001110 "
b11001110 ,
z3
bz !
z2
04
0B
b10011 0
b10010 /
0A
0O
b0 5
0>
b0 C
0L
b10010 .
1#
#28000000000
b11001010 "
b11001010 ,
b10011 0
b10010 /
b10010 .
0#
0$
#28002000000
0%
0&
#28200000000
b11001011 "
b11001011 ,
b10011 0
b10010 /
b10010 .
1#
#28400000000
03
b0 !
02
14
1B
1@
1N
b1 5
1?
b1 C
1M
06
0D
1=
1K
1;
1I
0:
0H
09
0G
18
1F
b101 7
1<
b101 E
1J
01
b11001001 "
b11001001 ,
b10011 0
b10010 /
b10010 .
0#
1$
#28600000000
b11001000 "
b11001000 ,
z3
bz !
z2
04
0B
b10011 0
b10010 /
0@
0N
b0 5
0?
b0 C
0M
b10010 .
1#
#28800000000
b11011000 "
b11011000 ,
b10011 0
b10010 /
b10010 .
0#
0$
#28802000000
1&
1%
#29000000000
b11011001 "
b11011001 ,
b10011 0
b10010 /
b10010 .
1#
#29200000000
13
b11 !
12
14
1B
1A
1O
b10 5
1>
b10 C
1L
16
1D
0=
0K
0;
0I
1:
1H
19
1G
08
0F
b10 7
0<
b10 E
0J
11
b11011011 "
b11011011 ,
b10011 0
b10010 /
b10010 .
0#
1$
#29400000000
b11011010 "
b11011010 ,
z3
bz !
z2
04
0B
b10011 0
b10010 /
0A
0O
b0 5
0>
b0 C
0L
b10010 .
1#
#29600000000
b11011110 "
b11011110 ,
b10011 0
b10010 /
b10010 .
0#
0$
#29602000000
0&
0%
#29800000000
b11011111 "
b11011111 ,
b10011 0
b10010 /
b10010 .
1#
#30000000000
03
b0 !
02
14
1B
1@
1N
b1 5
1?
b1 C
1M
06
0D
1=
1K
1;
1I
0:
0H
09
0G
18
1F
b101 7
1<
b101 E
1J
01
b11011101 "
b11011101 ,
b10011 0
b10010 /
b10010 .
0#
1$
#30200000000
b11011100 "
b11011100 ,
z3
bz !
z2
04
0B
b10011 0
b10010 /
0@
0N
b0 5
0?
b0 C
0M
b10010 .
1#
#30400000000
b11010100 "
b11010100 ,
b10011 0
b10010 /
b10010 .
0#
0$
#30402000000
1%
1&
#30600000000
b11010101 "
b11010101 ,
b10011 0
b10010 /
b10010 .
1#
#30800000000
13
b11 !
12
14
1B
1A
1O
b10 5
1>
b10 C
1L
16
1D
0=
0K
0;
0I
1:
1H
19
1G
08
0F
b10 7
0<
b10 E
0J
11
b11010111 "
b11010111 ,
b10011 0
b10010 /
b10010 .
0#
1$
#31000000000
b11010110 "
b11010110 ,
z3
bz !
z2
04
0B
b10011 0
b10010 /
0A
0O
b0 5
0>
b0 C
0L
b10010 .
1#
#31200000000
b11010010 "
b11010010 ,
b10011 0
b10010 /
b10010 .
0#
0$
#31202000000
0%
0&
#31400000000
b11010011 "
b11010011 ,
b10011 0
b10010 /
b10010 .
1#
#31600000000
03
b0 !
02
14
1B
1@
1N
b1 5
1?
b1 C
1M
06
0D
1=
1K
1;
1I
0:
0H
09
0G
18
1F
b101 7
1<
b101 E
1J
01
b11010001 "
b11010001 ,
b10011 0
b10010 /
b10010 .
0#
1$
#31800000000
b11010000 "
b11010000 ,
z3
bz !
z2
04
0B
b10011 0
b10010 /
0@
0N
b0 5
0?
b0 C
0M
b10010 .
1#
#32000000000
b11110000 "
b11110000 ,
b10011 0
b10010 /
b10010 .
0#
0$
#32002000000
1&
1%
#32200000000
b11110001 "
b11110001 ,
b10011 0
b10010 /
b10010 .
1#
#32400000000
13
b11 !
12
14
1B
1A
1O
b10 5
1>
b10 C
1L
16
1D
0=
0K
0;
0I
1:
1H
19
1G
08
0F
b10 7
0<
b10 E
0J
11
b11110011 "
b11110011 ,
b10011 0
b10010 /
b10010 .
0#
1$
#32600000000
b11110010 "
b11110010 ,
z3
bz !
z2
04
0B
b10011 0
b10010 /
0A
0O
b0 5
0>
b0 C
0L
b10010 .
1#
#32800000000
b11110110 "
b11110110 ,
b10011 0
b10010 /
b10010 .
0#
0$
#32802000000
0&
0%
#33000000000
b11110111 "
b11110111 ,
b10011 0
b10010 /
b10010 .
1#
