verilog/final_verilog/final readout/ro_block_3.vcd
$date
	Sat May 28 20:30:46 2022
$end
$version
	Icarus Verilog
$end
$timescale
	1fs
$end
$scope module tb_ro_block_3 $end
$var wire 2 ! read_out_iq [1:0] $end
$var wire 19 " gc_clk [18:0] $end
$var reg 1 # clk_master $end
$var reg 1 $ clkdiv2 $end
$var reg 1 % in_pol $end
$var reg 1 & in_pol_eve $end
$var reg 1 ' rstb $end
$var reg 1 ( vpwr $end
$var real 1 ) clk_core_half_pd $end
$var real 1 * clk_master_half_pd $end
$var real 1 + comp_out_half_pd $end
$scope module gc_clock $end
$var wire 1 # clk $end
$var wire 1 ' reset $end
$var reg 19 , gray_count [18:0] $end
$var reg 1 - q_msb $end
$var integer 32 . i [31:0] $end
$var integer 32 / j [31:0] $end
$var integer 32 0 k [31:0] $end
$upscope $end
$scope module ro_block $end
$var wire 1 # clk_master $end
$var wire 1 1 gray $end
$var wire 1 % in_pol $end
$var wire 1 & in_pol_eve $end
$var wire 1 ( vpwr $end
$var wire 1 2 out_mux_pol_eve $end
$var wire 1 3 out_mux_pol $end
$scope module ro_pol $end
$var wire 1 # clk_master $end
$var wire 1 1 gray $end
$var wire 1 % in $end
$var wire 1 ( vpwr $end
$var wire 1 3 readout $end
$var wire 1 4 eff_out $end
$scope module eff $end
$var wire 1 1 clk $end
$var wire 1 ( d $end
$var wire 1 # rstb $end
$var wire 2 5 q [1:0] $end
$var wire 1 4 out $end
$var wire 1 6 buff_out $end
$scope module bf $end
$var wire 1 1 in $end
$var wire 3 7 w [2:0] $end
$var wire 1 6 out $end
$scope begin buffer_loop[0] $end
$scope module g2 $end
$var wire 1 8 a $end
$var wire 1 9 out $end
$upscope $end
$upscope $end
$scope begin buffer_loop[1] $end
$scope module g2 $end
$var wire 1 : a $end
$var wire 1 ; out $end
$upscope $end
$upscope $end
$scope module g1 $end
$var wire 1 1 a $end
$var wire 1 < out $end
$upscope $end
$scope module g3 $end
$var wire 1 = a $end
$var wire 1 6 out $end
$upscope $end
$upscope $end
$scope module dff $end
$var wire 1 6 clk $end
$var wire 1 ( d $end
$var wire 1 # rstb $end
$var reg 1 > q $end
$upscope $end
$scope module dff_n $end
$var wire 1 6 clk $end
$var wire 1 ( d $end
$var wire 1 # rstb $end
$var reg 1 ? q $end
$upscope $end
$scope module mux $end
$var wire 1 @ in_0 $end
$var wire 1 A in_1 $end
$var wire 1 1 sel $end
$var reg 1 4 out $end
$upscope $end
$upscope $end
$scope module tribuf $end
$var wire 1 4 ctrl $end
$var wire 1 % in $end
$var reg 1 3 out $end
$upscope $end
$upscope $end
$scope module ro_pol_eve $end
$var wire 1 # clk_master $end
$var wire 1 1 gray $end
$var wire 1 & in $end
$var wire 1 ( vpwr $end
$var wire 1 2 readout $end
$var wire 1 B eff_out $end
$scope module eff $end
$var wire 1 1 clk $end
$var wire 1 ( d $end
$var wire 1 # rstb $end
$var wire 2 C q [1:0] $end
$var wire 1 B out $end
$var wire 1 D buff_out $end
$scope module bf $end
$var wire 1 1 in $end
$var wire 3 E w [2:0] $end
$var wire 1 D out $end
$scope begin buffer_loop[0] $end
$scope module g2 $end
$var wire 1 F a $end
$var wire 1 G out $end
$upscope $end
$upscope $end
$scope begin buffer_loop[1] $end
$scope module g2 $end
$var wire 1 H a $end
$var wire 1 I out $end
$upscope $end
$upscope $end
$scope module g1 $end
$var wire 1 1 a $end
$var wire 1 J out $end
$upscope $end
$scope module g3 $end
$var wire 1 K a $end
$var wire 1 D out $end
$upscope $end
$upscope $end
$scope module dff $end
$var wire 1 D clk $end
$var wire 1 ( d $end
$var wire 1 # rstb $end
$var reg 1 L q $end
$upscope $end
$scope module dff_n $end
$var wire 1 D clk $end
$var wire 1 ( d $end
$var wire 1 # rstb $end
$var reg 1 M q $end
$upscope $end
$scope module mux $end
$var wire 1 N in_0 $end
$var wire 1 O in_1 $end
$var wire 1 1 sel $end
$var reg 1 B out $end
$upscope $end
$upscope $end
$scope module tribuf $end
$var wire 1 B ctrl $end
$var wire 1 & in $end
$var reg 1 2 out $end
$upscope $end
$upscope $end
$upscope $end
$upscope $end
$enddefinitions $end
#0
$dumpvars
xO
1N
1M
xL
1K
1J
1I
0H
0G
1F
b101 E
0D
bx1 C
1B
xA
1@
1?
x>
1=
1<
1;
0:
09
18
b101 7
06
bx1 5
14
x3
x2
01
b10011 0
b10010 /
b10011 .
0-
b0 ,
r1600 +
r200 *
r800 )
1(
0'
x&
x%
0$
0#
b0 "
bx !
$end
#5000000
1'
#7000000
12
b11 !
13
1&
1%
#200000000
b1 "
b1 ,
z3
bz !
z2
04
0B
b10011 0
b10010 /
0A
0@
0O
0N
0>
b0 5
0?
0L
b0 C
0M
b10010 .
1#
#400000000
b11 "
b11 ,
b10011 0
b10010 /
b10010 .
0#
#600000000
b10 "
b10 ,
b10011 0
b10010 /
b10010 .
1#
#800000000
13
b11 !
12
14
1B
1A
1O
b10 5
1>
b10 C
1L
16
1D
0=
0K
0;
0I
1:
1H
19
1G
08
0F
b10 7
0<
b10 E
0J
11
b110 "
b110 ,
b10011 0
b10010 /
b10010 .
0#
1$
#1000000000
b111 "
b111 ,
z3
bz !
z2
04
0B
b10011 0
b10010 /
0A
0O
b0 5
0>
b0 C
0L
b10010 .
1#
#1200000000
b101 "
b101 ,
b10011 0
b10010 /
b10010 .
0#
#1400000000
b100 "
b100 ,
b10011 0
b10010 /
b10010 .
1#
#1600000000
b1100 "
b1100 ,
b10011 0
b10010 /
b10010 .
0#
0$
#1607000000
0&
0%
#1800000000
b1101 "
b1101 ,
b10011 0
b10010 /
b10010 .
1#
#2000000000
b1111 "
b1111 ,
b10011 0
b10010 /
b10010 .
0#
#2200000000
b1110 "
b1110 ,
b10011 0
b10010 /
b10010 .
1#
#2400000000
03
b0 !
02
14
1B
1@
1N
b1 5
1?
b1 C
1M
06
0D
1=
1K
1;
1I
0:
0H
09
0G
18
1F
b101 7
1<
b101 E
1J
01
b1010 "
b1010 ,
b10011 0
b10010 /
b10010 .
0#
1$
#2600000000
b1011 "
b1011 ,
z3
bz !
z2
04
0B
b10011 0
b10010 /
0@
0N
b0 5
0?
b0 C
0M
b10010 .
1#
#2800000000
b1001 "
b1001 ,
b10011 0
b10010 /
b10010 .
0#
#3000000000
b1000 "
b1000 ,
b10011 0
b10010 /
b10010 .
1#
#3200000000
b11000 "
b11000 ,
b10011 0
b10010 /
b10010 .
0#
0$
#3202000000
1%
1&
#3400000000
b11001 "
b11001 ,
b10011 0
b10010 /
b10010 .
1#
#3600000000
b11011 "
b11011 ,
b10011 0
b10010 /
b10010 .
0#
#3800000000
b11010 "
b11010 ,
b10011 0
b10010 /
b10010 .
1#
#4000000000
13
b11 !
12
14
1B
1A
1O
b10 5
1>
b10 C
1L
16
1D
0=
0K
0;
0I
1:
1H
19
1G
08
0F
b10 7
0<
b10 E
0J
11
b11110 "
b11110 ,
b10011 0
b10010 /
b10010 .
0#
1$
#4200000000
b11111 "
b11111 ,
z3
bz !
z2
04
0B
b10011 0
b10010 /
0A
0O
b0 5
0>
b0 C
0L
b10010 .
1#
#4400000000
b11101 "
b11101 ,
b10011 0
b10010 /
b10010 .
0#
#4600000000
b11100 "
b11100 ,
b10011 0
b10010 /
b10010 .
1#
#4800000000
b10100 "
b10100 ,
b10011 0
b10010 /
b10010 .
0#
0$
#4802000000
0%
0&
#5000000000
b10101 "
b10101 ,
b10011 0
b10010 /
b10010 .
1#
#5200000000
b10111 "
b10111 ,
b10011 0
b10010 /
b10010 .
0#
#5400000000
b10110 "
b10110 ,
b10011 0
b10010 /
b10010 .
1#
#5600000000
03
b0 !
02
14
1B
1@
1N
b1 5
1?
b1 C
1M
06
0D
1=
1K
1;
1I
0:
0H
09
0G
18
1F
b101 7
1<
b101 E
1J
01
b10010 "
b10010 ,
b10011 0
b10010 /
b10010 .
0#
1$
#5800000000
b10011 "
b10011 ,
z3
bz !
z2
04
0B
b10011 0
b10010 /
0@
0N
b0 5
0?
b0 C
0M
b10010 .
1#
#6000000000
b10001 "
b10001 ,
b10011 0
b10010 /
b10010 .
0#
#6200000000
b10000 "
b10000 ,
b10011 0
b10010 /
b10010 .
1#
#6400000000
b110000 "
b110000 ,
b10011 0
b10010 /
b10010 .
0#
0$
#6402000000
1&
1%
#6600000000
b110001 "
b110001 ,
b10011 0
b10010 /
b10010 .
1#
#6800000000
b110011 "
b110011 ,
b10011 0
b10010 /
b10010 .
0#
#7000000000
b110010 "
b110010 ,
b10011 0
b10010 /
b10010 .
1#
#7200000000
13
b11 !
12
14
1B
1A
1O
b10 5
1>
b10 C
1L
16
1D
0=
0K
0;
0I
1:
1H
19
1G
08
0F
b10 7
0<
b10 E
0J
11
b110110 "
b110110 ,
b10011 0
b10010 /
b10010 .
0#
1$
#7400000000
b110111 "
b110111 ,
z3
bz !
z2
04
0B
b10011 0
b10010 /
0A
0O
b0 5
0>
b0 C
0L
b10010 .
1#
#7600000000
b110101 "
b110101 ,
b10011 0
b10010 /
b10010 .
0#
#7800000000
b110100 "
b110100 ,
b10011 0
b10010 /
b10010 .
1#
#8000000000
b111100 "
b111100 ,
b10011 0
b10010 /
b10010 .
0#
0$
#8002000000
0&
0%
#8200000000
b111101 "
b111101 ,
b10011 0
b10010 /
b10010 .
1#
#8400000000
b111111 "
b111111 ,
b10011 0
b10010 /
b10010 .
0#
#8600000000
b111110 "
b111110 ,
b10011 0
b10010 /
b10010 .
1#
#8800000000
03
b0 !
02
14
1B
1@
1N
b1 5
1?
b1 C
1M
06
0D
1=
1K
1;
1I
0:
0H
09
0G
18
1F
b101 7
1<
b101 E
1J
01
b111010 "
b111010 ,
b10011 0
b10010 /
b10010 .
0#
1$
#9000000000
b111011 "
b111011 ,
z3
bz !
z2
04
0B
b10011 0
b10010 /
0@
0N
b0 5
0?
b0 C
0M
b10010 .
1#
#9200000000
b111001 "
b111001 ,
b10011 0
b10010 /
b10010 .
0#
#9400000000
b111000 "
b111000 ,
b10011 0
b10010 /
b10010 .
1#
#9600000000
b101000 "
b101000 ,
b10011 0
b10010 /
b10010 .
0#
0$
#9602000000
1%
1&
#9800000000
b101001 "
b101001 ,
b10011 0
b10010 /
b10010 .
1#
#10000000000
b101011 "
b101011 ,
b10011 0
b10010 /
b10010 .
0#
#10200000000
b101010 "
b101010 ,
b10011 0
b10010 /
b10010 .
1#
#10400000000
13
b11 !
12
14
1B
1A
1O
b10 5
1>
b10 C
1L
16
1D
0=
0K
0;
0I
1:
1H
19
1G
08
0F
b10 7
0<
b10 E
0J
11
b101110 "
b101110 ,
b10011 0
b10010 /
b10010 .
0#
1$
#10600000000
b101111 "
b101111 ,
z3
bz !
z2
04
0B
b10011 0
b10010 /
0A
0O
b0 5
0>
b0 C
0L
b10010 .
1#
#10800000000
b101101 "
b101101 ,
b10011 0
b10010 /
b10010 .
0#
#11000000000
b101100 "
b101100 ,
b10011 0
b10010 /
b10010 .
1#
#11200000000
b100100 "
b100100 ,
b10011 0
b10010 /
b10010 .
0#
0$
#11202000000
0%
0&
#11400000000
b100101 "
b100101 ,
b10011 0
b10010 /
b10010 .
1#
#11600000000
b100111 "
b100111 ,
b10011 0
b10010 /
b10010 .
0#
#11800000000
b100110 "
b100110 ,
b10011 0
b10010 /
b10010 .
1#
#12000000000
03
b0 !
02
14
1B
1@
1N
b1 5
1?
b1 C
1M
06
0D
1=
1K
1;
1I
0:
0H
09
0G
18
1F
b101 7
1<
b101 E
1J
01
b100010 "
b100010 ,
b10011 0
b10010 /
b10010 .
0#
1$
#12200000000
b100011 "
b100011 ,
z3
bz !
z2
04
0B
b10011 0
b10010 /
0@
0N
b0 5
0?
b0 C
0M
b10010 .
1#
#12400000000
b100001 "
b100001 ,
b10011 0
b10010 /
b10010 .
0#
#12600000000
b100000 "
b100000 ,
b10011 0
b10010 /
b10010 .
1#
#12800000000
b1100000 "
b1100000 ,
b10011 0
b10010 /
b10010 .
0#
0$
#12802000000
1&
1%
#13000000000
b1100001 "
b1100001 ,
b10011 0
b10010 /
b10010 .
1#
#13200000000
b1100011 "
b1100011 ,
b10011 0
b10010 /
b10010 .
0#
#13400000000
b1100010 "
b1100010 ,
b10011 0
b10010 /
b10010 .
1#
#13600000000
13
b11 !
12
14
1B
1A
1O
b10 5
1>
b10 C
1L
16
1D
0=
0K
0;
0I
1:
1H
19
1G
08
0F
b10 7
0<
b10 E
0J
11
b1100110 "
b1100110 ,
b10011 0
b10010 /
b10010 .
0#
1$
#13800000000
b1100111 "
b1100111 ,
z3
bz !
z2
04
0B
b10011 0
b10010 /
0A
0O
b0 5
0>
b0 C
0L
b10010 .
1#
#14000000000
b1100101 "
b1100101 ,
b10011 0
b10010 /
b10010 .
0#
#14200000000
b1100100 "
b1100100 ,
b10011 0
b10010 /
b10010 .
1#
#14400000000
b1101100 "
b1101100 ,
b10011 0
b10010 /
b10010 .
0#
0$
#14402000000
0&
0%
#14600000000
b1101101 "
b1101101 ,
b10011 0
b10010 /
b10010 .
1#
#14800000000
b1101111 "
b1101111 ,
b10011 0
b10010 /
b10010 .
0#
#15000000000
b1101110 "
b1101110 ,
b10011 0
b10010 /
b10010 .
1#
#15200000000
03
b0 !
02
14
1B
1@
1N
b1 5
1?
b1 C
1M
06
0D
1=
1K
1;
1I
0:
0H
09
0G
18
1F
b101 7
1<
b101 E
1J
01
b1101010 "
b1101010 ,
b10011 0
b10010 /
b10010 .
0#
1$
#15400000000
b1101011 "
b1101011 ,
z3
bz !
z2
04
0B
b10011 0
b10010 /
0@
0N
b0 5
0?
b0 C
0M
b10010 .
1#
#15600000000
b1101001 "
b1101001 ,
b10011 0
b10010 /
b10010 .
0#
#15800000000
b1101000 "
b1101000 ,
b10011 0
b10010 /
b10010 .
1#
#16000000000
b1111000 "
b1111000 ,
b10011 0
b10010 /
b10010 .
0#
0$
#16002000000
1%
1&
#16200000000
b1111001 "
b1111001 ,
b10011 0
b10010 /
b10010 .
1#
#16400000000
b1111011 "
b1111011 ,
b10011 0
b10010 /
b10010 .
0#
#16600000000
b1111010 "
b1111010 ,
b10011 0
b10010 /
b10010 .
1#
#16800000000
13
b11 !
12
14
1B
1A
1O
b10 5
1>
b10 C
1L
16
1D
0=
0K
0;
0I
1:
1H
19
1G
08
0F
b10 7
0<
b10 E
0J
11
b1111110 "
b1111110 ,
b10011 0
b10010 /
b10010 .
0#
1$
#17000000000
b1111111 "
b1111111 ,
z3
bz !
z2
04
0B
b10011 0
b10010 /
0A
0O
b0 5
0>
b0 C
0L
b10010 .
1#
#17200000000
b1111101 "
b1111101 ,
b10011 0
b10010 /
b10010 .
0#
#17400000000
b1111100 "
b1111100 ,
b10011 0
b10010 /
b10010 .
1#
#17600000000
b1110100 "
b1110100 ,
b10011 0
b10010 /
b10010 .
0#
0$
#17602000000
0%
0&
#17800000000
b1110101 "
b1110101 ,
b10011 0
b10010 /
b10010 .
1#
#18000000000
b1110111 "
b1110111 ,
b10011 0
b10010 /
b10010 .
0#
#18200000000
b1110110 "
b1110110 ,
b10011 0
b10010 /
b10010 .
1#
#18400000000
03
b0 !
02
14
1B
1@
1N
b1 5
1?
b1 C
1M
06
0D
1=
1K
1;
1I
0:
0H
09
0G
18
1F
b101 7
1<
b101 E
1J
01
b1110010 "
b1110010 ,
b10011 0
b10010 /
b10010 .
0#
1$
#18600000000
b1110011 "
b1110011 ,
z3
bz !
z2
04
0B
b10011 0
b10010 /
0@
0N
b0 5
0?
b0 C
0M
b10010 .
1#
#18800000000
b1110001 "
b1110001 ,
b10011 0
b10010 /
b10010 .
0#
#19000000000
b1110000 "
b1110000 ,
b10011 0
b10010 /
b10010 .
1#
#19200000000
b1010000 "
b1010000 ,
b10011 0
b10010 /
b10010 .
0#
0$
#19202000000
1&
1%
#19400000000
b1010001 "
b1010001 ,
b10011 0
b10010 /
b10010 .
1#
#19600000000
b1010011 "
b1010011 ,
b10011 0
b10010 /
b10010 .
0#
#19800000000
b1010010 "
b1010010 ,
b10011 0
b10010 /
b10010 .
1#
#20000000000
13
b11 !
12
14
1B
1A
1O
b10 5
1>
b10 C
1L
16
1D
0=
0K
0;
0I
1:
1H
19
1G
08
0F
b10 7
0<
b10 E
0J
11
b1010110 "
b1010110 ,
b10011 0
b10010 /
b10010 .
0#
1$
#20200000000
b1010111 "
b1010111 ,
z3
bz !
z2
04
0B
b10011 0
b10010 /
0A
0O
b0 5
0>
b0 C
0L
b10010 .
1#
#20400000000
b1010101 "
b1010101 ,
b10011 0
b10010 /
b10010 .
0#
#20600000000
b1010100 "
b1010100 ,
b10011 0
b10010 /
b10010 .
1#
#20800000000
b1011100 "
b1011100 ,
b10011 0
b10010 /
b10010 .
0#
0$
#20802000000
0&
0%
#21000000000
b1011101 "
b1011101 ,
b10011 0
b10010 /
b10010 .
1#
#21200000000
b1011111 "
b1011111 ,
b10011 0
b10010 /
b10010 .
0#
#21400000000
b1011110 "
b1011110 ,
b10011 0
b10010 /
b10010 .
1#
#21600000000
03
b0 !
02
14
1B
1@
1N
b1 5
1?
b1 C
1M
06
0D
1=
1K
1;
1I
0:
0H
09
0G
18
1F
b101 7
1<
b101 E
1J
01
b1011010 "
b1011010 ,
b10011 0
b10010 /
b10010 .
0#
1$
#21800000000
b1011011 "
b1011011 ,
z3
bz !
z2
04
0B
b10011 0
b10010 /
0@
0N
b0 5
0?
b0 C
0M
b10010 .
1#
#22000000000
b1011001 "
b1011001 ,
b10011 0
b10010 /
b10010 .
0#
#22200000000
b1011000 "
b1011000 ,
b10011 0
b10010 /
b10010 .
1#
#22400000000
b1001000 "
b1001000 ,
b10011 0
b10010 /
b10010 .
0#
0$
#22402000000
1%
1&
#22600000000
b1001001 "
b1001001 ,
b10011 0
b10010 /
b10010 .
1#
#22800000000
b1001011 "
b1001011 ,
b10011 0
b10010 /
b10010 .
0#
#23000000000
b1001010 "
b1001010 ,
b10011 0
b10010 /
b10010 .
1#
#23200000000
13
b11 !
12
14
1B
1A
1O
b10 5
1>
b10 C
1L
16
1D
0=
0K
0;
0I
1:
1H
19
1G
08
0F
b10 7
0<
b10 E
0J
11
b1001110 "
b1001110 ,
b10011 0
b10010 /
b10010 .
0#
1$
#23400000000
b1001111 "
b1001111 ,
z3
bz !
z2
04
0B
b10011 0
b10010 /
0A
0O
b0 5
0>
b0 C
0L
b10010 .
1#
#23600000000
b1001101 "
b1001101 ,
b10011 0
b10010 /
b10010 .
0#
#23800000000
b1001100 "
b1001100 ,
b10011 0
b10010 /
b10010 .
1#
#24000000000
b1000100 "
b1000100 ,
b10011 0
b10010 /
b10010 .
0#
0$
#24002000000
0%
0&
#24200000000
b1000101 "
b1000101 ,
b10011 0
b10010 /
b10010 .
1#
#24400000000
b1000111 "
b1000111 ,
b10011 0
b10010 /
b10010 .
0#
#24600000000
b1000110 "
b1000110 ,
b10011 0
b10010 /
b10010 .
1#
#24800000000
03
b0 !
02
14
1B
1@
1N
b1 5
1?
b1 C
1M
06
0D
1=
1K
1;
1I
0:
0H
09
0G
18
1F
b101 7
1<
b101 E
1J
01
b1000010 "
b1000010 ,
b10011 0
b10010 /
b10010 .
0#
1$
#25000000000
b1000011 "
b1000011 ,
z3
bz !
z2
04
0B
b10011 0
b10010 /
0@
0N
b0 5
0?
b0 C
0M
b10010 .
1#
#25200000000
b1000001 "
b1000001 ,
b10011 0
b10010 /
b10010 .
0#
#25400000000
b1000000 "
b1000000 ,
b10011 0
b10010 /
b10010 .
1#
#25600000000
b11000000 "
b11000000 ,
b10011 0
b10010 /
b10010 .
0#
0$
#25602000000
1&
1%
#25800000000
b11000001 "
b11000001 ,
b10011 0
b10010 /
b10010 .
1#
#26000000000
b11000011 "
b11000011 ,
b10011 0
b10010 /
b10010 .
0#
#26200000000
b11000010 "
b11000010 ,
b10011 0
b10010 /
b10010 .
1#
#26400000000
13
b11 !
12
14
1B
1A
1O
b10 5
1>
b10 C
1L
16
1D
0=
0K
0;
0I
1:
1H
19
1G
08
0F
b10 7
0<
b10 E
0J
11
b11000110 "
b11000110 ,
b10011 0
b10010 /
b10010 .
0#
1$
#26600000000
b11000111 "
b11000111 ,
z3
bz !
z2
04
0B
b10011 0
b10010 /
0A
0O
b0 5
0>
b0 C
0L
b10010 .
1#
#26800000000
b11000101 "
b11000101 ,
b10011 0
b10010 /
b10010 .
0#
#27000000000
b11000100 "
b11000100 ,
b10011 0
b10010 /
b10010 .
1#
#27200000000
b11001100 "
b11001100 ,
b10011 0
b10010 /
b10010 .
0#
0$
#27202000000
0&
0%
#27400000000
b11001101 "
b11001101 ,
b10011 0
b10010 /
b10010 .
1#
#27600000000
b11001111 "
b11001111 ,
b10011 0
b10010 /
b10010 .
0#
#27800000000
b11001110 "
b11001110 ,
b10011 0
b10010 /
b10010 .
1#
#28000000000
03
b0 !
02
14
1B
1@
1N
b1 5
1?
b1 C
1M
06
0D
1=
1K
1;
1I
0:
0H
09
0G
18
1F
b101 7
1<
b101 E
1J
01
b11001010 "
b11001010 ,
b10011 0
b10010 /
b10010 .
0#
1$
#28200000000
b11001011 "
b11001011 ,
z3
bz !
z2
04
0B
b10011 0
b10010 /
0@
0N
b0 5
0?
b0 C
0M
b10010 .
1#
#28400000000
b11001001 "
b11001001 ,
b10011 0
b10010 /
b10010 .
0#
#28600000000
b11001000 "
b11001000 ,
b10011 0
b10010 /
b10010 .
1#
#28800000000
b11011000 "
b11011000 ,
b10011 0
b10010 /
b10010 .
0#
0$
#28802000000
1%
1&
#29000000000
b11011001 "
b11011001 ,
b10011 0
b10010 /
b10010 .
1#
#29200000000
b11011011 "
b11011011 ,
b10011 0
b10010 /
b10010 .
0#
#29400000000
b11011010 "
b11011010 ,
b10011 0
b10010 /
b10010 .
1#
#29600000000
13
b11 !
12
14
1B
1A
1O
b10 5
1>
b10 C
1L
16
1D
0=
0K
0;
0I
1:
1H
19
1G
08
0F
b10 7
0<
b10 E
0J
11
b11011110 "
b11011110 ,
b10011 0
b10010 /
b10010 .
0#
1$
#29800000000
b11011111 "
b11011111 ,
z3
bz !
z2
04
0B
b10011 0
b10010 /
0A
0O
b0 5
0>
b0 C
0L
b10010 .
1#
#30000000000
b11011101 "
b11011101 ,
b10011 0
b10010 /
b10010 .
0#
#30200000000
b11011100 "
b11011100 ,
b10011 0
b10010 /
b10010 .
1#
#30400000000
b11010100 "
b11010100 ,
b10011 0
b10010 /
b10010 .
0#
0$
#30402000000
0%
0&
#30600000000
b11010101 "
b11010101 ,
b10011 0
b10010 /
b10010 .
1#
#30800000000
b11010111 "
b11010111 ,
b10011 0
b10010 /
b10010 .
0#
#31000000000
b11010110 "
b11010110 ,
b10011 0
b10010 /
b10010 .
1#
#31200000000
03
b0 !
02
14
1B
1@
1N
b1 5
1?
b1 C
1M
06
0D
1=
1K
1;
1I
0:
0H
09
0G
18
1F
b101 7
1<
b101 E
1J
01
b11010010 "
b11010010 ,
b10011 0
b10010 /
b10010 .
0#
1$
#31400000000
b11010011 "
b11010011 ,
z3
bz !
z2
04
0B
b10011 0
b10010 /
0@
0N
b0 5
0?
b0 C
0M
b10010 .
1#
#31600000000
b11010001 "
b11010001 ,
b10011 0
b10010 /
b10010 .
0#
#31800000000
b11010000 "
b11010000 ,
b10011 0
b10010 /
b10010 .
1#
#32000000000
b11110000 "
b11110000 ,
b10011 0
b10010 /
b10010 .
0#
0$
#32002000000
1&
1%
#32200000000
b11110001 "
b11110001 ,
b10011 0
b10010 /
b10010 .
1#
#32400000000
b11110011 "
b11110011 ,
b10011 0
b10010 /
b10010 .
0#
#32600000000
b11110010 "
b11110010 ,
b10011 0
b10010 /
b10010 .
1#
#32800000000
13
b11 !
12
14
1B
1A
1O
b10 5
1>
b10 C
1L
16
1D
0=
0K
0;
0I
1:
1H
19
1G
08
0F
b10 7
0<
b10 E
0J
11
b11110110 "
b11110110 ,
b10011 0
b10010 /
b10010 .
0#
1$
#33000000000
b11110111 "
b11110111 ,
z3
bz !
z2
04
0B
b10011 0
b10010 /
0A
0O
b0 5
0>
b0 C
0L
b10010 .
1#
#33200000000
b11110101 "
b11110101 ,
b10011 0
b10010 /
b10010 .
0#
#33400000000
b11110100 "
b11110100 ,
b10011 0
b10010 /
b10010 .
1#
#33600000000
b11111100 "
b11111100 ,
b10011 0
b10010 /
b10010 .
0#
0$
#33602000000
0&
0%
#33800000000
b11111101 "
b11111101 ,
b10011 0
b10010 /
b10010 .
1#
#34000000000
b11111111 "
b11111111 ,
b10011 0
b10010 /
b10010 .
0#
#34200000000
b11111110 "
b11111110 ,
b10011 0
b10010 /
b10010 .
1#
#34400000000
03
b0 !
02
14
1B
1@
1N
b1 5
1?
b1 C
1M
06
0D
1=
1K
1;
1I
0:
0H
09
0G
18
1F
b101 7
1<
b101 E
1J
01
b11111010 "
b11111010 ,
b10011 0
b10010 /
b10010 .
0#
1$
#34600000000
b11111011 "
b11111011 ,
z3
bz !
z2
04
0B
b10011 0
b10010 /
0@
0N
b0 5
0?
b0 C
0M
b10010 .
1#
#34800000000
b11111001 "
b11111001 ,
b10011 0
b10010 /
b10010 .
0#
#35000000000
b11111000 "
b11111000 ,
b10011 0
b10010 /
b10010 .
1#
#35200000000
b11101000 "
b11101000 ,
b10011 0
b10010 /
b10010 .
0#
0$
#35202000000
1%
1&
#35400000000
b11101001 "
b11101001 ,
b10011 0
b10010 /
b10010 .
1#
#35600000000
b11101011 "
b11101011 ,
b10011 0
b10010 /
b10010 .
0#
#35800000000
b11101010 "
b11101010 ,
b10011 0
b10010 /
b10010 .
1#
#36000000000
13
b11 !
12
14
1B
1A
1O
b10 5
1>
b10 C
1L
16
1D
0=
0K
0;
0I
1:
1H
19
1G
08
0F
b10 7
0<
b10 E
0J
11
b11101110 "
b11101110 ,
b10011 0
b10010 /
b10010 .
0#
1$
#36200000000
b11101111 "
b11101111 ,
z3
bz !
z2
04
0B
b10011 0
b10010 /
0A
0O
b0 5
0>
b0 C
0L
b10010 .
1#
#36400000000
b11101101 "
b11101101 ,
b10011 0
b10010 /
b10010 .
0#
#36600000000
b11101100 "
b11101100 ,
b10011 0
b10010 /
b10010 .
1#
#36800000000
b11100100 "
b11100100 ,
b10011 0
b10010 /
b10010 .
0#
0$
#36802000000
0%
0&
#37000000000
b11100101 "
b11100101 ,
b10011 0
b10010 /
b10010 .
1#
#37200000000
b11100111 "
b11100111 ,
b10011 0
b10010 /
b10010 .
0#
#37400000000
b11100110 "
b11100110 ,
b10011 0
b10010 /
b10010 .
1#
#37600000000
03
b0 !
02
14
1B
1@
1N
b1 5
1?
b1 C
1M
06
0D
1=
1K
1;
1I
0:
0H
09
0G
18
1F
b101 7
1<
b101 E
1J
01
b11100010 "
b11100010 ,
b10011 0
b10010 /
b10010 .
0#
1$
#37800000000
b11100011 "
b11100011 ,
z3
bz !
z2
04
0B
b10011 0
b10010 /
0@
0N
b0 5
0?
b0 C
0M
b10010 .
1#
#38000000000
b11100001 "
b11100001 ,
b10011 0
b10010 /
b10010 .
0#
#38200000000
b11100000 "
b11100000 ,
b10011 0
b10010 /
b10010 .
1#
#38400000000
b10100000 "
b10100000 ,
b10011 0
b10010 /
b10010 .
0#
0$
#38402000000
1&
1%
#38600000000
b10100001 "
b10100001 ,
b10011 0
b10010 /
b10010 .
1#
#38800000000
b10100011 "
b10100011 ,
b10011 0
b10010 /
b10010 .
0#
#39000000000
b10100010 "
b10100010 ,
b10011 0
b10010 /
b10010 .
1#
#39200000000
13
b11 !
12
14
1B
1A
1O
b10 5
1>
b10 C
1L
16
1D
0=
0K
0;
0I
1:
1H
19
1G
08
0F
b10 7
0<
b10 E
0J
11
b10100110 "
b10100110 ,
b10011 0
b10010 /
b10010 .
0#
1$
#39400000000
b10100111 "
b10100111 ,
z3
bz !
z2
04
0B
b10011 0
b10010 /
0A
0O
b0 5
0>
b0 C
0L
b10010 .
1#
#39600000000
b10100101 "
b10100101 ,
b10011 0
b10010 /
b10010 .
0#
#39800000000
b10100100 "
b10100100 ,
b10011 0
b10010 /
b10010 .
1#
#40000000000
b10101100 "
b10101100 ,
b10011 0
b10010 /
b10010 .
0#
0$
#40002000000
0&
0%
#40200000000
b10101101 "
b10101101 ,
b10011 0
b10010 /
b10010 .
1#
#40400000000
b10101111 "
b10101111 ,
b10011 0
b10010 /
b10010 .
0#
#40600000000
b10101110 "
b10101110 ,
b10011 0
b10010 /
b10010 .
1#
#40800000000
03
b0 !
02
14
1B
1@
1N
b1 5
1?
b1 C
1M
06
0D
1=
1K
1;
1I
0:
0H
09
0G
18
1F
b101 7
1<
b101 E
1J
01
b10101010 "
b10101010 ,
b10011 0
b10010 /
b10010 .
0#
1$
#41000000000
b10101011 "
b10101011 ,
z3
bz !
z2
04
0B
b10011 0
b10010 /
0@
0N
b0 5
0?
b0 C
0M
b10010 .
1#
#41200000000
b10101001 "
b10101001 ,
b10011 0
b10010 /
b10010 .
0#
#41400000000
b10101000 "
b10101000 ,
b10011 0
b10010 /
b10010 .
1#
#41600000000
b10111000 "
b10111000 ,
b10011 0
b10010 /
b10010 .
0#
0$
#41602000000
1%
1&
#41800000000
b10111001 "
b10111001 ,
b10011 0
b10010 /
b10010 .
1#
#42000000000
b10111011 "
b10111011 ,
b10011 0
b10010 /
b10010 .
0#
#42200000000
b10111010 "
b10111010 ,
b10011 0
b10010 /
b10010 .
1#
#42400000000
13
b11 !
12
14
1B
1A
1O
b10 5
1>
b10 C
1L
16
1D
0=
0K
0;
0I
1:
1H
19
1G
08
0F
b10 7
0<
b10 E
0J
11
b10111110 "
b10111110 ,
b10011 0
b10010 /
b10010 .
0#
1$
#42600000000
b10111111 "
b10111111 ,
z3
bz !
z2
04
0B
b10011 0
b10010 /
0A
0O
b0 5
0>
b0 C
0L
b10010 .
1#
