verilog/final_verilog/final readout/ro_block_6.vcd
$date
	Thu May 19 18:34:04 2022
$end
$version
	Icarus Verilog
$end
$timescale
	1ps
$end
$scope module tb_ro_block_2 $end
$var wire 1 ! muxed_out $end
$var wire 17 " gc_clk [16:0] $end
$var reg 1 # clk_ext $end
$var reg 1 $ clk_ext_global $end
$var reg 1 % comp_out $end
$var reg 1 & en_global $end
$var reg 1 ' gc_rstb $end
$var reg 1 ( pwr $end
$var real 1 ) clk_half_pd $end
$var real 1 * clk_half_pd_global $end
$var real 1 + comp_out_half_pd $end
$scope module gc_clock $end
$var wire 1 $ clk $end
$var wire 1 & enable $end
$var wire 1 ' reset $end
$var reg 17 , gray_count [16:0] $end
$var reg 1 - q_msb $end
$var integer 32 . i [31:0] $end
$var integer 32 / j [31:0] $end
$var integer 32 0 k [31:0] $end
$upscope $end
$scope module ro1 $end
$var wire 1 # clk_ext $end
$var wire 1 1 gray $end
$var wire 1 % in $end
$var wire 1 ( pwr $end
$var wire 1 ! out_mux $end
$var wire 1 2 eff_out $end
$scope module ef $end
$var wire 1 1 clk $end
$var wire 1 ( d $end
$var wire 1 # rstb $end
$var wire 2 3 q [1:0] $end
$var wire 1 2 out $end
$var wire 1 4 buff_out $end
$scope module bf $end
$var wire 1 1 in $end
$var wire 3 5 w [2:0] $end
$var wire 1 4 out $end
$scope begin buffer_loop[0] $end
$scope module g2 $end
$var wire 1 6 a $end
$var wire 1 7 out $end
$upscope $end
$upscope $end
$scope begin buffer_loop[1] $end
$scope module g2 $end
$var wire 1 8 a $end
$var wire 1 9 out $end
$upscope $end
$upscope $end
$scope module g1 $end
$var wire 1 1 a $end
$var wire 1 : out $end
$upscope $end
$scope module g3 $end
$var wire 1 ; a $end
$var wire 1 4 out $end
$upscope $end
$upscope $end
$scope module dff $end
$var wire 1 4 clk $end
$var wire 1 ( d $end
$var wire 1 # rstb $end
$var reg 1 < q $end
$upscope $end
$scope module dff_n $end
$var wire 1 4 clk $end
$var wire 1 ( d $end
$var wire 1 # rstb $end
$var reg 1 = q $end
$upscope $end
$scope module mux $end
$var wire 1 > in_0 $end
$var wire 1 ? in_1 $end
$var wire 1 1 sel $end
$var reg 1 2 out $end
$upscope $end
$upscope $end
$scope module tribuf $end
$var wire 1 2 ctrl $end
$var wire 1 % in $end
$var reg 1 ! out $end
$upscope $end
$upscope $end
$upscope $end
$enddefinitions $end
#0
$dumpvars
0?
0>
0=
0<
1;
1:
19
08
07
16
b101 5
04
b0 3
02
01
b10001 0
b10000 /
b10001 .
0-
b0 ,
r12500 +
r195.3125 *
r6250 )
1(
0'
1&
0%
0$
0#
b0 "
z!
$end
#1000
b1 "
b1 ,
b10001 0
b10000 /
b10000 .
1'
1%
1#
1$
#196313
b11 "
b11 ,
b10001 0
b10000 /
b10000 .
0$
#391626
b10 "
b10 ,
b10001 0
b10000 /
b10000 .
1$
#586939
b110 "
b110 ,
b10001 0
b10000 /
b10000 .
0$
#782252
b111 "
b111 ,
b10001 0
b10000 /
b10000 .
1$
#977565
b101 "
b101 ,
b10001 0
b10000 /
b10000 .
0$
#1172878
b100 "
b100 ,
b10001 0
b10000 /
b10000 .
1$
#1368191
b1100 "
b1100 ,
b10001 0
b10000 /
b10000 .
0$
#1563504
b1101 "
b1101 ,
b10001 0
b10000 /
b10000 .
1$
#1758817
b1111 "
b1111 ,
b10001 0
b10000 /
b10000 .
0$
#1954130
b1110 "
b1110 ,
b10001 0
b10000 /
b10000 .
1$
#2149443
b1010 "
b1010 ,
b10001 0
b10000 /
b10000 .
0$
#2344756
b1011 "
b1011 ,
b10001 0
b10000 /
b10000 .
1$
#2540069
b1001 "
b1001 ,
b10001 0
b10000 /
b10000 .
0$
#2735382
b1000 "
b1000 ,
b10001 0
b10000 /
b10000 .
1$
#2930695
b11000 "
b11000 ,
b10001 0
b10000 /
b10000 .
0$
#3126008
b11001 "
b11001 ,
b10001 0
b10000 /
b10000 .
1$
#3321321
b11011 "
b11011 ,
b10001 0
b10000 /
b10000 .
0$
#3516634
b11010 "
b11010 ,
b10001 0
b10000 /
b10000 .
1$
#3711947
b11110 "
b11110 ,
b10001 0
b10000 /
b10000 .
0$
#3907260
b11111 "
b11111 ,
b10001 0
b10000 /
b10000 .
1$
#4102573
b11101 "
b11101 ,
b10001 0
b10000 /
b10000 .
0$
#4297886
b11100 "
b11100 ,
b10001 0
b10000 /
b10000 .
1$
#4493199
b10100 "
b10100 ,
b10001 0
b10000 /
b10000 .
0$
#4688512
b10101 "
b10101 ,
b10001 0
b10000 /
b10000 .
1$
#4883825
b10111 "
b10111 ,
b10001 0
b10000 /
b10000 .
0$
#5079138
b10110 "
b10110 ,
b10001 0
b10000 /
b10000 .
1$
#5274451
b10010 "
b10010 ,
b10001 0
b10000 /
b10000 .
0$
#5469764
b10011 "
b10011 ,
b10001 0
b10000 /
b10000 .
1$
#5665077
b10001 "
b10001 ,
b10001 0
b10000 /
b10000 .
0$
#5860390
b10000 "
b10000 ,
b10001 0
b10000 /
b10000 .
1$
#6055703
1!
12
1?
b10 3
1<
14
0;
09
18
17
06
b10 5
0:
11
b110000 "
b110000 ,
b10001 0
b10000 /
b10000 .
0$
#6251000
02
0?
b0 3
0<
z!
0%
0#
#6251016
b110001 "
b110001 ,
b10001 0
b10000 /
b10000 .
1$
#6446329
b110011 "
b110011 ,
b10001 0
b10000 /
b10000 .
0$
#6641642
b110010 "
b110010 ,
b10001 0
b10000 /
b10000 .
1$
#6836955
b110110 "
b110110 ,
b10001 0
b10000 /
b10000 .
0$
#7032268
b110111 "
b110111 ,
b10001 0
b10000 /
b10000 .
1$
#7227581
b110101 "
b110101 ,
b10001 0
b10000 /
b10000 .
0$
#7422894
b110100 "
b110100 ,
b10001 0
b10000 /
b10000 .
1$
#7618207
b111100 "
b111100 ,
b10001 0
b10000 /
b10000 .
0$
#7813520
b111101 "
b111101 ,
b10001 0
b10000 /
b10000 .
1$
#8008833
b111111 "
b111111 ,
b10001 0
b10000 /
b10000 .
0$
#8204146
b111110 "
b111110 ,
b10001 0
b10000 /
b10000 .
1$
#8399459
b111010 "
b111010 ,
b10001 0
b10000 /
b10000 .
0$
#8594772
b111011 "
b111011 ,
b10001 0
b10000 /
b10000 .
1$
#8790085
b111001 "
b111001 ,
b10001 0
b10000 /
b10000 .
0$
#8985398
b111000 "
b111000 ,
b10001 0
b10000 /
b10000 .
1$
#9180711
b101000 "
b101000 ,
b10001 0
b10000 /
b10000 .
0$
#9376024
b101001 "
b101001 ,
b10001 0
b10000 /
b10000 .
1$
#9571337
b101011 "
b101011 ,
b10001 0
b10000 /
b10000 .
0$
#9766650
b101010 "
b101010 ,
b10001 0
b10000 /
b10000 .
1$
#9961963
b101110 "
b101110 ,
b10001 0
b10000 /
b10000 .
0$
#10157276
b101111 "
b101111 ,
b10001 0
b10000 /
b10000 .
1$
#10352589
b101101 "
b101101 ,
b10001 0
b10000 /
b10000 .
0$
#10547902
b101100 "
b101100 ,
b10001 0
b10000 /
b10000 .
1$
#10743215
b100100 "
b100100 ,
b10001 0
b10000 /
b10000 .
0$
#10938528
b100101 "
b100101 ,
b10001 0
b10000 /
b10000 .
1$
#11133841
b100111 "
b100111 ,
b10001 0
b10000 /
b10000 .
0$
#11329154
b100110 "
b100110 ,
b10001 0
b10000 /
b10000 .
1$
#11524467
b100010 "
b100010 ,
b10001 0
b10000 /
b10000 .
0$
#11719780
b100011 "
b100011 ,
b10001 0
b10000 /
b10000 .
1$
#11915093
b100001 "
b100001 ,
b10001 0
b10000 /
b10000 .
0$
#12110406
b100000 "
b100000 ,
b10001 0
b10000 /
b10000 .
1$
#12305719
b1100000 "
b1100000 ,
b10001 0
b10000 /
b10000 .
0$
#12501000
1#
#12501032
b1100001 "
b1100001 ,
b10001 0
b10000 /
b10000 .
1$
#12696345
b1100011 "
b1100011 ,
b10001 0
b10000 /
b10000 .
0$
#12891658
b1100010 "
b1100010 ,
b10001 0
b10000 /
b10000 .
1$
#13086971
b1100110 "
b1100110 ,
b10001 0
b10000 /
b10000 .
0$
#13282284
b1100111 "
b1100111 ,
b10001 0
b10000 /
b10000 .
1$
#13477597
b1100101 "
b1100101 ,
b10001 0
b10000 /
b10000 .
0$
#13672910
b1100100 "
b1100100 ,
b10001 0
b10000 /
b10000 .
1$
#13868223
b1101100 "
b1101100 ,
b10001 0
b10000 /
b10000 .
0$
#14063536
b1101101 "
b1101101 ,
b10001 0
b10000 /
b10000 .
1$
#14258849
b1101111 "
b1101111 ,
b10001 0
b10000 /
b10000 .
0$
#14454162
b1101110 "
b1101110 ,
b10001 0
b10000 /
b10000 .
1$
#14649475
b1101010 "
b1101010 ,
b10001 0
b10000 /
b10000 .
0$
#14844788
b1101011 "
b1101011 ,
b10001 0
b10000 /
b10000 .
1$
#15040101
b1101001 "
b1101001 ,
b10001 0
b10000 /
b10000 .
0$
#15235414
b1101000 "
b1101000 ,
b10001 0
b10000 /
b10000 .
1$
#15430727
b1111000 "
b1111000 ,
b10001 0
b10000 /
b10000 .
0$
#15626040
b1111001 "
b1111001 ,
b10001 0
b10000 /
b10000 .
1$
#15821353
b1111011 "
b1111011 ,
b10001 0
b10000 /
b10000 .
0$
#16016666
b1111010 "
b1111010 ,
b10001 0
b10000 /
b10000 .
1$
#16211979
b1111110 "
b1111110 ,
b10001 0
b10000 /
b10000 .
0$
#16407292
b1111111 "
b1111111 ,
b10001 0
b10000 /
b10000 .
1$
#16602605
b1111101 "
b1111101 ,
b10001 0
b10000 /
b10000 .
0$
#16797918
b1111100 "
b1111100 ,
b10001 0
b10000 /
b10000 .
1$
#16993231
b1110100 "
b1110100 ,
b10001 0
b10000 /
b10000 .
0$
#17188544
b1110101 "
b1110101 ,
b10001 0
b10000 /
b10000 .
1$
#17383857
b1110111 "
b1110111 ,
b10001 0
b10000 /
b10000 .
0$
#17579170
b1110110 "
b1110110 ,
b10001 0
b10000 /
b10000 .
1$
#17774483
b1110010 "
b1110010 ,
b10001 0
b10000 /
b10000 .
0$
#17969796
b1110011 "
b1110011 ,
b10001 0
b10000 /
b10000 .
1$
#18165109
b1110001 "
b1110001 ,
b10001 0
b10000 /
b10000 .
0$
#18360422
b1110000 "
b1110000 ,
b10001 0
b10000 /
b10000 .
1$
#18555735
0!
12
1>
b1 3
1=
04
1;
19
08
07
16
b101 5
1:
01
b1010000 "
b1010000 ,
b10001 0
b10000 /
b10000 .
0$
#18751000
02
0>
b0 3
0=
z!
0#
1%
#18751048
b1010001 "
b1010001 ,
b10001 0
b10000 /
b10000 .
1$
#18946361
b1010011 "
b1010011 ,
b10001 0
b10000 /
b10000 .
0$
#19141674
b1010010 "
b1010010 ,
b10001 0
b10000 /
b10000 .
1$
#19336987
b1010110 "
b1010110 ,
b10001 0
b10000 /
b10000 .
0$
#19532300
b1010111 "
b1010111 ,
b10001 0
b10000 /
b10000 .
1$
#19727613
b1010101 "
b1010101 ,
b10001 0
b10000 /
b10000 .
0$
#19922926
b1010100 "
b1010100 ,
b10001 0
b10000 /
b10000 .
1$
#20118239
b1011100 "
b1011100 ,
b10001 0
b10000 /
b10000 .
0$
#20313552
b1011101 "
b1011101 ,
b10001 0
b10000 /
b10000 .
1$
#20508865
b1011111 "
b1011111 ,
b10001 0
b10000 /
b10000 .
0$
#20704178
b1011110 "
b1011110 ,
b10001 0
b10000 /
b10000 .
1$
#20899491
b1011010 "
b1011010 ,
b10001 0
b10000 /
b10000 .
0$
#21094804
b1011011 "
b1011011 ,
b10001 0
b10000 /
b10000 .
1$
#21290117
b1011001 "
b1011001 ,
b10001 0
b10000 /
b10000 .
0$
#21485430
b1011000 "
b1011000 ,
b10001 0
b10000 /
b10000 .
1$
#21680743
b1001000 "
b1001000 ,
b10001 0
b10000 /
b10000 .
0$
#21876056
b1001001 "
b1001001 ,
b10001 0
b10000 /
b10000 .
1$
#22071369
b1001011 "
b1001011 ,
b10001 0
b10000 /
b10000 .
0$
#22266682
b1001010 "
b1001010 ,
b10001 0
b10000 /
b10000 .
1$
#22461995
b1001110 "
b1001110 ,
b10001 0
b10000 /
b10000 .
0$
#22657308
b1001111 "
b1001111 ,
b10001 0
b10000 /
b10000 .
1$
#22852621
b1001101 "
b1001101 ,
b10001 0
b10000 /
b10000 .
0$
#23047934
b1001100 "
b1001100 ,
b10001 0
b10000 /
b10000 .
1$
#23243247
b1000100 "
b1000100 ,
b10001 0
b10000 /
b10000 .
0$
#23438560
b1000101 "
b1000101 ,
b10001 0
b10000 /
b10000 .
1$
#23633873
b1000111 "
b1000111 ,
b10001 0
b10000 /
b10000 .
0$
#23829186
b1000110 "
b1000110 ,
b10001 0
b10000 /
b10000 .
1$
#24024499
b1000010 "
b1000010 ,
b10001 0
b10000 /
b10000 .
0$
#24219812
b1000011 "
b1000011 ,
b10001 0
b10000 /
b10000 .
1$
#24415125
b1000001 "
b1000001 ,
b10001 0
b10000 /
b10000 .
0$
#24610438
b1000000 "
b1000000 ,
b10001 0
b10000 /
b10000 .
1$
#24805751
b11000000 "
b11000000 ,
b10001 0
b10000 /
b10000 .
0$
#25001000
1#
#25001064
b11000001 "
b11000001 ,
b10001 0
b10000 /
b10000 .
1$
#25196377
b11000011 "
b11000011 ,
b10001 0
b10000 /
b10000 .
0$
#25391690
b11000010 "
b11000010 ,
b10001 0
b10000 /
b10000 .
1$
#25587003
b11000110 "
b11000110 ,
b10001 0
b10000 /
b10000 .
0$
#25782316
b11000111 "
b11000111 ,
b10001 0
b10000 /
b10000 .
1$
#25977629
b11000101 "
b11000101 ,
b10001 0
b10000 /
b10000 .
0$
#26172942
b11000100 "
b11000100 ,
b10001 0
b10000 /
b10000 .
1$
#26368255
b11001100 "
b11001100 ,
b10001 0
b10000 /
b10000 .
0$
#26563568
b11001101 "
b11001101 ,
b10001 0
b10000 /
b10000 .
1$
#26758881
b11001111 "
b11001111 ,
b10001 0
b10000 /
b10000 .
0$
#26954194
b11001110 "
b11001110 ,
b10001 0
b10000 /
b10000 .
1$
#27149507
b11001010 "
b11001010 ,
b10001 0
b10000 /
b10000 .
0$
#27344820
b11001011 "
b11001011 ,
b10001 0
b10000 /
b10000 .
1$
#27540133
b11001001 "
b11001001 ,
b10001 0
b10000 /
b10000 .
0$
#27735446
b11001000 "
b11001000 ,
b10001 0
b10000 /
b10000 .
1$
#27930759
b11011000 "
b11011000 ,
b10001 0
b10000 /
b10000 .
0$
#28126072
b11011001 "
b11011001 ,
b10001 0
b10000 /
b10000 .
1$
#28321385
b11011011 "
b11011011 ,
b10001 0
b10000 /
b10000 .
0$
#28516698
b11011010 "
b11011010 ,
b10001 0
b10000 /
b10000 .
1$
#28712011
b11011110 "
b11011110 ,
b10001 0
b10000 /
b10000 .
0$
#28907324
b11011111 "
b11011111 ,
b10001 0
b10000 /
b10000 .
1$
#29102637
b11011101 "
b11011101 ,
b10001 0
b10000 /
b10000 .
0$
#29297950
b11011100 "
b11011100 ,
b10001 0
b10000 /
b10000 .
1$
#29493263
b11010100 "
b11010100 ,
b10001 0
b10000 /
b10000 .
0$
#29688576
b11010101 "
b11010101 ,
b10001 0
b10000 /
b10000 .
1$
#29883889
b11010111 "
b11010111 ,
b10001 0
b10000 /
b10000 .
0$
#30079202
b11010110 "
b11010110 ,
b10001 0
b10000 /
b10000 .
1$
#30274515
b11010010 "
b11010010 ,
b10001 0
b10000 /
b10000 .
0$
#30469828
b11010011 "
b11010011 ,
b10001 0
b10000 /
b10000 .
1$
#30665141
b11010001 "
b11010001 ,
b10001 0
b10000 /
b10000 .
0$
#30860454
b11010000 "
b11010000 ,
b10001 0
b10000 /
b10000 .
1$
#31055767
1!
12
1?
b10 3
1<
14
0;
09
18
17
06
b10 5
0:
11
b11110000 "
b11110000 ,
b10001 0
b10000 /
b10000 .
0$
#31251000
02
0?
b0 3
0<
z!
0#
0%
#31251080
b11110001 "
b11110001 ,
b10001 0
b10000 /
b10000 .
1$
#31446393
b11110011 "
b11110011 ,
b10001 0
b10000 /
b10000 .
0$
#31641706
b11110010 "
b11110010 ,
b10001 0
b10000 /
b10000 .
1$
#31837019
b11110110 "
b11110110 ,
b10001 0
b10000 /
b10000 .
0$
#32032332
b11110111 "
b11110111 ,
b10001 0
b10000 /
b10000 .
1$
#32227645
b11110101 "
b11110101 ,
b10001 0
b10000 /
b10000 .
0$
#32422958
b11110100 "
b11110100 ,
b10001 0
b10000 /
b10000 .
1$
#32618271
b11111100 "
b11111100 ,
b10001 0
b10000 /
b10000 .
0$
#32813584
b11111101 "
b11111101 ,
b10001 0
b10000 /
b10000 .
1$
#33008897
b11111111 "
b11111111 ,
b10001 0
b10000 /
b10000 .
0$
#33204210
b11111110 "
b11111110 ,
b10001 0
b10000 /
b10000 .
1$
#33399523
b11111010 "
b11111010 ,
b10001 0
b10000 /
b10000 .
0$
#33594836
b11111011 "
b11111011 ,
b10001 0
b10000 /
b10000 .
1$
#33790149
b11111001 "
b11111001 ,
b10001 0
b10000 /
b10000 .
0$
#33985462
b11111000 "
b11111000 ,
b10001 0
b10000 /
b10000 .
1$
#34180775
b11101000 "
b11101000 ,
b10001 0
b10000 /
b10000 .
0$
#34376088
b11101001 "
b11101001 ,
b10001 0
b10000 /
b10000 .
1$
#34571401
b11101011 "
b11101011 ,
b10001 0
b10000 /
b10000 .
0$
#34766714
b11101010 "
b11101010 ,
b10001 0
b10000 /
b10000 .
1$
#34962027
b11101110 "
b11101110 ,
b10001 0
b10000 /
b10000 .
0$
#35157340
b11101111 "
b11101111 ,
b10001 0
b10000 /
b10000 .
1$
#35352653
b11101101 "
b11101101 ,
b10001 0
b10000 /
b10000 .
0$
#35547966
b11101100 "
b11101100 ,
b10001 0
b10000 /
b10000 .
1$
#35743279
b11100100 "
b11100100 ,
b10001 0
b10000 /
b10000 .
0$
#35938592
b11100101 "
b11100101 ,
b10001 0
b10000 /
b10000 .
1$
#36133905
b11100111 "
b11100111 ,
b10001 0
b10000 /
b10000 .
0$
#36329218
b11100110 "
b11100110 ,
b10001 0
b10000 /
b10000 .
1$
#36524531
b11100010 "
b11100010 ,
b10001 0
b10000 /
b10000 .
0$
#36719844
b11100011 "
b11100011 ,
b10001 0
b10000 /
b10000 .
1$
#36915157
b11100001 "
b11100001 ,
b10001 0
b10000 /
b10000 .
0$
#37110470
b11100000 "
b11100000 ,
b10001 0
b10000 /
b10000 .
1$
#37305783
b10100000 "
b10100000 ,
b10001 0
b10000 /
b10000 .
0$
#37501000
1#
#37501096
b10100001 "
b10100001 ,
b10001 0
b10000 /
b10000 .
1$
#37696409
b10100011 "
b10100011 ,
b10001 0
b10000 /
b10000 .
0$
#37891722
b10100010 "
b10100010 ,
b10001 0
b10000 /
b10000 .
1$
#38087035
b10100110 "
b10100110 ,
b10001 0
b10000 /
b10000 .
0$
#38282348
b10100111 "
b10100111 ,
b10001 0
b10000 /
b10000 .
1$
#38477661
b10100101 "
b10100101 ,
b10001 0
b10000 /
b10000 .
0$
#38672974
b10100100 "
b10100100 ,
b10001 0
b10000 /
b10000 .
1$
#38868287
b10101100 "
b10101100 ,
b10001 0
b10000 /
b10000 .
0$
#39063600
b10101101 "
b10101101 ,
b10001 0
b10000 /
b10000 .
1$
#39258913
b10101111 "
b10101111 ,
b10001 0
b10000 /
b10000 .
0$
#39454226
b10101110 "
b10101110 ,
b10001 0
b10000 /
b10000 .
1$
#39649539
b10101010 "
b10101010 ,
b10001 0
b10000 /
b10000 .
0$
#39844852
b10101011 "
b10101011 ,
b10001 0
b10000 /
b10000 .
1$
#40040165
b10101001 "
b10101001 ,
b10001 0
b10000 /
b10000 .
0$
#40235478
b10101000 "
b10101000 ,
b10001 0
b10000 /
b10000 .
1$
#40430791
b10111000 "
b10111000 ,
b10001 0
b10000 /
b10000 .
0$
#40626104
b10111001 "
b10111001 ,
b10001 0
b10000 /
b10000 .
1$
#40821417
b10111011 "
b10111011 ,
b10001 0
b10000 /
b10000 .
0$
#41016730
b10111010 "
b10111010 ,
b10001 0
b10000 /
b10000 .
1$
#41212043
b10111110 "
b10111110 ,
b10001 0
b10000 /
b10000 .
0$
#41407356
b10111111 "
b10111111 ,
b10001 0
b10000 /
b10000 .
1$
#41602669
b10111101 "
b10111101 ,
b10001 0
b10000 /
b10000 .
0$
#41797982
b10111100 "
b10111100 ,
b10001 0
b10000 /
b10000 .
1$
#41993295
b10110100 "
b10110100 ,
b10001 0
b10000 /
b10000 .
0$
#42188608
b10110101 "
b10110101 ,
b10001 0
b10000 /
b10000 .
1$
#42383921
b10110111 "
b10110111 ,
b10001 0
b10000 /
b10000 .
0$
#42579234
b10110110 "
b10110110 ,
b10001 0
b10000 /
b10000 .
1$
#42774547
b10110010 "
b10110010 ,
b10001 0
b10000 /
b10000 .
0$
#42969860
b10110011 "
b10110011 ,
b10001 0
b10000 /
b10000 .
1$
#43165173
b10110001 "
b10110001 ,
b10001 0
b10000 /
b10000 .
0$
#43360486
b10110000 "
b10110000 ,
b10001 0
b10000 /
b10000 .
1$
#43555799
0!
12
1>
b1 3
1=
04
1;
19
08
07
16
b101 5
1:
01
b10010000 "
b10010000 ,
b10001 0
b10000 /
b10000 .
0$
#43751000
02
0>
b0 3
0=
z!
0#
1%
#43751112
b10010001 "
b10010001 ,
b10001 0
b10000 /
b10000 .
1$
#43946425
b10010011 "
b10010011 ,
b10001 0
b10000 /
b10000 .
0$
#44141738
b10010010 "
b10010010 ,
b10001 0
b10000 /
b10000 .
1$
#44337051
b10010110 "
b10010110 ,
b10001 0
b10000 /
b10000 .
0$
#44532364
b10010111 "
b10010111 ,
b10001 0
b10000 /
b10000 .
1$
#44727677
b10010101 "
b10010101 ,
b10001 0
b10000 /
b10000 .
0$
#44922990
b10010100 "
b10010100 ,
b10001 0
b10000 /
b10000 .
1$
#45118303
b10011100 "
b10011100 ,
b10001 0
b10000 /
b10000 .
0$
#45313616
b10011101 "
b10011101 ,
b10001 0
b10000 /
b10000 .
1$
#45508929
b10011111 "
b10011111 ,
b10001 0
b10000 /
b10000 .
0$
#45704242
b10011110 "
b10011110 ,
b10001 0
b10000 /
b10000 .
1$
#45899555
b10011010 "
b10011010 ,
b10001 0
b10000 /
b10000 .
0$
#46094868
b10011011 "
b10011011 ,
b10001 0
b10000 /
b10000 .
1$
#46290181
b10011001 "
b10011001 ,
b10001 0
b10000 /
b10000 .
0$
#46485494
b10011000 "
b10011000 ,
b10001 0
b10000 /
b10000 .
1$
#46680807
b10001000 "
b10001000 ,
b10001 0
b10000 /
b10000 .
0$
#46876120
b10001001 "
b10001001 ,
b10001 0
b10000 /
b10000 .
1$
#47071433
b10001011 "
b10001011 ,
b10001 0
b10000 /
b10000 .
0$
#47266746
b10001010 "
b10001010 ,
b10001 0
b10000 /
b10000 .
1$
#47462059
b10001110 "
b10001110 ,
b10001 0
b10000 /
b10000 .
0$
#47657372
b10001111 "
b10001111 ,
b10001 0
b10000 /
b10000 .
1$
#47852685
b10001101 "
b10001101 ,
b10001 0
b10000 /
b10000 .
0$
#48047998
b10001100 "
b10001100 ,
b10001 0
b10000 /
b10000 .
1$
#48243311
b10000100 "
b10000100 ,
b10001 0
b10000 /
b10000 .
0$
#48438624
b10000101 "
b10000101 ,
b10001 0
b10000 /
b10000 .
1$
#48633937
b10000111 "
b10000111 ,
b10001 0
b10000 /
b10000 .
0$
#48829250
b10000110 "
b10000110 ,
b10001 0
b10000 /
b10000 .
1$
#49024563
b10000010 "
b10000010 ,
b10001 0
b10000 /
b10000 .
0$
#49219876
b10000011 "
b10000011 ,
b10001 0
b10000 /
b10000 .
1$
#49415189
b10000001 "
b10000001 ,
b10001 0
b10000 /
b10000 .
0$
#49610502
b10000000 "
b10000000 ,
b10001 0
b10000 /
b10000 .
1$
#49805815
b110000000 "
b110000000 ,
b10001 0
b10000 /
b10000 .
0$
#50001000
1#
#50001128
b110000001 "
b110000001 ,
b10001 0
b10000 /
b10000 .
1$
#50196441
b110000011 "
b110000011 ,
b10001 0
b10000 /
b10000 .
0$
#50391754
b110000010 "
b110000010 ,
b10001 0
b10000 /
b10000 .
1$
#50587067
b110000110 "
b110000110 ,
b10001 0
b10000 /
b10000 .
0$
#50782380
b110000111 "
b110000111 ,
b10001 0
b10000 /
b10000 .
1$
#50977693
b110000101 "
b110000101 ,
b10001 0
b10000 /
b10000 .
0$
#51173006
b110000100 "
b110000100 ,
b10001 0
b10000 /
b10000 .
1$
#51368319
b110001100 "
b110001100 ,
b10001 0
b10000 /
b10000 .
0$
#51563632
b110001101 "
b110001101 ,
b10001 0
b10000 /
b10000 .
1$
#51758945
b110001111 "
b110001111 ,
b10001 0
b10000 /
b10000 .
0$
#51954258
b110001110 "
b110001110 ,
b10001 0
b10000 /
b10000 .
1$
#52149571
b110001010 "
b110001010 ,
b10001 0
b10000 /
b10000 .
0$
#52344884
b110001011 "
b110001011 ,
b10001 0
b10000 /
b10000 .
1$
#52540197
b110001001 "
b110001001 ,
b10001 0
b10000 /
b10000 .
0$
#52735510
b110001000 "
b110001000 ,
b10001 0
b10000 /
b10000 .
1$
#52930823
b110011000 "
b110011000 ,
b10001 0
b10000 /
b10000 .
0$
#53126136
b110011001 "
b110011001 ,
b10001 0
b10000 /
b10000 .
1$
#53321449
b110011011 "
b110011011 ,
b10001 0
b10000 /
b10000 .
0$
#53516762
b110011010 "
b110011010 ,
b10001 0
b10000 /
b10000 .
1$
#53712075
b110011110 "
b110011110 ,
b10001 0
b10000 /
b10000 .
0$
#53907388
b110011111 "
b110011111 ,
b10001 0
b10000 /
b10000 .
1$
#54102701
b110011101 "
b110011101 ,
b10001 0
b10000 /
b10000 .
0$
#54298014
b110011100 "
b110011100 ,
b10001 0
b10000 /
b10000 .
1$
#54493327
b110010100 "
b110010100 ,
b10001 0
b10000 /
b10000 .
0$
#54688640
b110010101 "
b110010101 ,
b10001 0
b10000 /
b10000 .
1$
#54883953
b110010111 "
b110010111 ,
b10001 0
b10000 /
b10000 .
0$
#55079266
b110010110 "
b110010110 ,
b10001 0
b10000 /
b10000 .
1$
#55274579
b110010010 "
b110010010 ,
b10001 0
b10000 /
b10000 .
0$
#55469892
b110010011 "
b110010011 ,
b10001 0
b10000 /
b10000 .
1$
#55665205
b110010001 "
b110010001 ,
b10001 0
b10000 /
b10000 .
0$
#55860518
b110010000 "
b110010000 ,
b10001 0
b10000 /
b10000 .
1$
#56055831
1!
12
1?
b10 3
1<
14
0;
09
18
17
06
b10 5
0:
11
b110110000 "
b110110000 ,
b10001 0
b10000 /
b10000 .
0$
#56251000
02
0?
b0 3
0<
z!
0#
0%
#56251144
b110110001 "
b110110001 ,
b10001 0
b10000 /
b10000 .
1$
#56446457
b110110011 "
b110110011 ,
b10001 0
b10000 /
b10000 .
0$
#56641770
b110110010 "
b110110010 ,
b10001 0
b10000 /
b10000 .
1$
#56837083
b110110110 "
b110110110 ,
b10001 0
b10000 /
b10000 .
0$
#57032396
b110110111 "
b110110111 ,
b10001 0
b10000 /
b10000 .
1$
#57227709
b110110101 "
b110110101 ,
b10001 0
b10000 /
b10000 .
0$
#57423022
b110110100 "
b110110100 ,
b10001 0
b10000 /
b10000 .
1$
#57618335
b110111100 "
b110111100 ,
b10001 0
b10000 /
b10000 .
0$
#57813648
b110111101 "
b110111101 ,
b10001 0
b10000 /
b10000 .
1$
#58008961
b110111111 "
b110111111 ,
b10001 0
b10000 /
b10000 .
0$
#58204274
b110111110 "
b110111110 ,
b10001 0
b10000 /
b10000 .
1$
#58399587
b110111010 "
b110111010 ,
b10001 0
b10000 /
b10000 .
0$
#58594900
b110111011 "
b110111011 ,
b10001 0
b10000 /
b10000 .
1$
#58790213
b110111001 "
b110111001 ,
b10001 0
b10000 /
b10000 .
0$
#58985526
b110111000 "
b110111000 ,
b10001 0
b10000 /
b10000 .
1$
#59180839
b110101000 "
b110101000 ,
b10001 0
b10000 /
b10000 .
0$
#59376152
b110101001 "
b110101001 ,
b10001 0
b10000 /
b10000 .
1$
#59571465
b110101011 "
b110101011 ,
b10001 0
b10000 /
b10000 .
0$
#59766778
b110101010 "
b110101010 ,
b10001 0
b10000 /
b10000 .
1$
#59962091
b110101110 "
b110101110 ,
b10001 0
b10000 /
b10000 .
0$
#60157404
b110101111 "
b110101111 ,
b10001 0
b10000 /
b10000 .
1$
#60352717
b110101101 "
b110101101 ,
b10001 0
b10000 /
b10000 .
0$
#60548030
b110101100 "
b110101100 ,
b10001 0
b10000 /
b10000 .
1$
#60743343
b110100100 "
b110100100 ,
b10001 0
b10000 /
b10000 .
0$
#60938656
b110100101 "
b110100101 ,
b10001 0
b10000 /
b10000 .
1$
#61133969
b110100111 "
b110100111 ,
b10001 0
b10000 /
b10000 .
0$
#61329282
b110100110 "
b110100110 ,
b10001 0
b10000 /
b10000 .
1$
#61524595
b110100010 "
b110100010 ,
b10001 0
b10000 /
b10000 .
0$
#61719908
b110100011 "
b110100011 ,
b10001 0
b10000 /
b10000 .
1$
#61915221
b110100001 "
b110100001 ,
b10001 0
b10000 /
b10000 .
0$
#62110534
b110100000 "
b110100000 ,
b10001 0
b10000 /
b10000 .
1$
#62305847
b111100000 "
b111100000 ,
b10001 0
b10000 /
b10000 .
0$
#62501000
1#
#62501160
b111100001 "
b111100001 ,
b10001 0
b10000 /
b10000 .
1$
#62696473
b111100011 "
b111100011 ,
b10001 0
b10000 /
b10000 .
0$
#62891786
b111100010 "
b111100010 ,
b10001 0
b10000 /
b10000 .
1$
#63087099
b111100110 "
b111100110 ,
b10001 0
b10000 /
b10000 .
0$
#63282412
b111100111 "
b111100111 ,
b10001 0
b10000 /
b10000 .
1$
#63477725
b111100101 "
b111100101 ,
b10001 0
b10000 /
b10000 .
0$
#63673038
b111100100 "
b111100100 ,
b10001 0
b10000 /
b10000 .
1$
