verilog/final_verilog/final readout/ro_block_2.vcd
$date
	Wed May 25 10:31:50 2022
$end
$version
	Icarus Verilog
$end
$timescale
	1fs
$end
$scope module tb_ro_block_2 $end
$var wire 2 ! muxed_out [1:0] $end
$var wire 17 " gc_clk [16:0] $end
$var reg 1 # clk_ext $end
$var reg 1 $ clk_ext_global $end
$var reg 1 % comp_out $end
$var reg 1 & en_global $end
$var reg 1 ' gc_rstb $end
$var reg 1 ( pwr $end
$var real 1 ) clk_half_pd $end
$var real 1 * clk_half_pd_global $end
$var real 1 + comp_out_half_pd $end
$scope module gc_clock $end
$var wire 1 $ clk $end
$var wire 1 & enable $end
$var wire 1 ' reset $end
$var reg 17 , gray_count [16:0] $end
$var reg 1 - q_msb $end
$var integer 32 . i [31:0] $end
$var integer 32 / j [31:0] $end
$var integer 32 0 k [31:0] $end
$upscope $end
$scope module rox2 $end
$var wire 1 # clk_ext $end
$var wire 1 1 gray $end
$var wire 1 % in_pol $end
$var wire 1 % in_pol_eve $end
$var wire 1 ( pwr $end
$var wire 1 2 out_mux_pol_eve $end
$var wire 1 3 out_mux_pol $end
$scope module ro_pol $end
$var wire 1 # clk_ext $end
$var wire 1 1 gray $end
$var wire 1 % in $end
$var wire 1 ( pwr $end
$var wire 1 3 out_mux $end
$var wire 1 4 eff_out $end
$scope module ef $end
$var wire 1 1 clk $end
$var wire 1 ( d $end
$var wire 1 # rstb $end
$var wire 2 5 q [1:0] $end
$var wire 1 4 out $end
$var wire 1 6 buff_out $end
$scope module bf $end
$var wire 1 1 in $end
$var wire 3 7 w [2:0] $end
$var wire 1 6 out $end
$scope begin buffer_loop[0] $end
$scope module g2 $end
$var wire 1 8 a $end
$var wire 1 9 out $end
$upscope $end
$upscope $end
$scope begin buffer_loop[1] $end
$scope module g2 $end
$var wire 1 : a $end
$var wire 1 ; out $end
$upscope $end
$upscope $end
$scope module g1 $end
$var wire 1 1 a $end
$var wire 1 < out $end
$upscope $end
$scope module g3 $end
$var wire 1 = a $end
$var wire 1 6 out $end
$upscope $end
$upscope $end
$scope module dff $end
$var wire 1 6 clk $end
$var wire 1 ( d $end
$var wire 1 # rstb $end
$var reg 1 > q $end
$upscope $end
$scope module dff_n $end
$var wire 1 6 clk $end
$var wire 1 ( d $end
$var wire 1 # rstb $end
$var reg 1 ? q $end
$upscope $end
$scope module mux $end
$var wire 1 @ in_0 $end
$var wire 1 A in_1 $end
$var wire 1 1 sel $end
$var reg 1 4 out $end
$upscope $end
$upscope $end
$scope module tribuf $end
$var wire 1 4 ctrl $end
$var wire 1 % in $end
$var reg 1 3 out $end
$upscope $end
$upscope $end
$scope module ro_pol_eve $end
$var wire 1 # clk_ext $end
$var wire 1 1 gray $end
$var wire 1 % in $end
$var wire 1 ( pwr $end
$var wire 1 2 out_mux $end
$var wire 1 B eff_out $end
$scope module ef $end
$var wire 1 1 clk $end
$var wire 1 ( d $end
$var wire 1 # rstb $end
$var wire 2 C q [1:0] $end
$var wire 1 B out $end
$var wire 1 D buff_out $end
$scope module bf $end
$var wire 1 1 in $end
$var wire 3 E w [2:0] $end
$var wire 1 D out $end
$scope begin buffer_loop[0] $end
$scope module g2 $end
$var wire 1 F a $end
$var wire 1 G out $end
$upscope $end
$upscope $end
$scope begin buffer_loop[1] $end
$scope module g2 $end
$var wire 1 H a $end
$var wire 1 I out $end
$upscope $end
$upscope $end
$scope module g1 $end
$var wire 1 1 a $end
$var wire 1 J out $end
$upscope $end
$scope module g3 $end
$var wire 1 K a $end
$var wire 1 D out $end
$upscope $end
$upscope $end
$scope module dff $end
$var wire 1 D clk $end
$var wire 1 ( d $end
$var wire 1 # rstb $end
$var reg 1 L q $end
$upscope $end
$scope module dff_n $end
$var wire 1 D clk $end
$var wire 1 ( d $end
$var wire 1 # rstb $end
$var reg 1 M q $end
$upscope $end
$scope module mux $end
$var wire 1 N in_0 $end
$var wire 1 O in_1 $end
$var wire 1 1 sel $end
$var reg 1 B out $end
$upscope $end
$upscope $end
$scope module tribuf $end
$var wire 1 B ctrl $end
$var wire 1 % in $end
$var reg 1 2 out $end
$upscope $end
$upscope $end
$upscope $end
$upscope $end
$enddefinitions $end
#0
$dumpvars
0O
0N
0M
0L
1K
1J
1I
0H
0G
1F
b101 E
0D
b0 C
0B
0A
0@
0?
0>
1=
1<
1;
0:
09
18
b101 7
06
b0 5
04
z3
z2
01
b10001 0
b10000 /
b10001 .
0-
b0 ,
r781.25 +
r195.3125 *
r390.625 )
1(
0'
1&
0%
0$
0#
b0 "
bz !
$end
#1000000
b1 "
b1 ,
b10001 0
b10000 /
b10000 .
1'
1%
1#
1$
#196312500
13
b11 !
12
14
1B
1A
1O
b10 5
1>
b10 C
1L
16
1D
0=
0K
0;
0I
1:
1H
19
1G
08
0F
b10 7
0<
b10 E
0J
11
b11 "
b11 ,
b10001 0
b10000 /
b10000 .
0$
#391625000
b10 "
b10 ,
z3
bz !
z2
04
0B
b10001 0
b10000 /
0A
0O
b0 5
0>
b0 C
0L
b10000 .
1$
0#
#392625000
0%
#586937500
b110 "
b110 ,
b10001 0
b10000 /
b10000 .
0$
#782250000
b111 "
b111 ,
b10001 0
b10000 /
b10000 .
1$
1#
#977562500
03
b0 !
02
14
1B
1@
1N
b1 5
1?
b1 C
1M
06
0D
1=
1K
1;
1I
0:
0H
09
0G
18
1F
b101 7
1<
b101 E
1J
01
b101 "
b101 ,
b10001 0
b10000 /
b10000 .
0$
#1172875000
b100 "
b100 ,
z3
bz !
z2
04
0B
b10001 0
b10000 /
0@
0N
b0 5
0?
b0 C
0M
b10000 .
1$
0#
#1173875000
1%
#1368187500
b1100 "
b1100 ,
b10001 0
b10000 /
b10000 .
0$
#1563500000
b1101 "
b1101 ,
b10001 0
b10000 /
b10000 .
1$
1#
#1758812500
13
b11 !
12
14
1B
1A
1O
b10 5
1>
b10 C
1L
16
1D
0=
0K
0;
0I
1:
1H
19
1G
08
0F
b10 7
0<
b10 E
0J
11
b1111 "
b1111 ,
b10001 0
b10000 /
b10000 .
0$
#1954125000
b1110 "
b1110 ,
z3
bz !
z2
04
0B
b10001 0
b10000 /
0A
0O
b0 5
0>
b0 C
0L
b10000 .
1$
0#
#1955125000
0%
#2149437500
b1010 "
b1010 ,
b10001 0
b10000 /
b10000 .
0$
#2344750000
b1011 "
b1011 ,
b10001 0
b10000 /
b10000 .
1$
1#
#2540062500
03
b0 !
02
14
1B
1@
1N
b1 5
1?
b1 C
1M
06
0D
1=
1K
1;
1I
0:
0H
09
0G
18
1F
b101 7
1<
b101 E
1J
01
b1001 "
b1001 ,
b10001 0
b10000 /
b10000 .
0$
#2735375000
b1000 "
b1000 ,
z3
bz !
z2
04
0B
b10001 0
b10000 /
0@
0N
b0 5
0?
b0 C
0M
b10000 .
1$
0#
#2736375000
1%
#2930687500
b11000 "
b11000 ,
b10001 0
b10000 /
b10000 .
0$
#3126000000
b11001 "
b11001 ,
b10001 0
b10000 /
b10000 .
1$
1#
#3321312500
13
b11 !
12
14
1B
1A
1O
b10 5
1>
b10 C
1L
16
1D
0=
0K
0;
0I
1:
1H
19
1G
08
0F
b10 7
0<
b10 E
0J
11
b11011 "
b11011 ,
b10001 0
b10000 /
b10000 .
0$
#3516625000
b11010 "
b11010 ,
z3
bz !
z2
04
0B
b10001 0
b10000 /
0A
0O
b0 5
0>
b0 C
0L
b10000 .
1$
0#
#3517625000
0%
#3711937500
b11110 "
b11110 ,
b10001 0
b10000 /
b10000 .
0$
#3907250000
b11111 "
b11111 ,
b10001 0
b10000 /
b10000 .
1$
1#
#4102562500
03
b0 !
02
14
1B
1@
1N
b1 5
1?
b1 C
1M
06
0D
1=
1K
1;
1I
0:
0H
09
0G
18
1F
b101 7
1<
b101 E
1J
01
b11101 "
b11101 ,
b10001 0
b10000 /
b10000 .
0$
#4297875000
b11100 "
b11100 ,
z3
bz !
z2
04
0B
b10001 0
b10000 /
0@
0N
b0 5
0?
b0 C
0M
b10000 .
1$
0#
#4298875000
1%
#4493187500
b10100 "
b10100 ,
b10001 0
b10000 /
b10000 .
0$
#4688500000
b10101 "
b10101 ,
b10001 0
b10000 /
b10000 .
1$
1#
#4883812500
13
b11 !
12
14
1B
1A
1O
b10 5
1>
b10 C
1L
16
1D
0=
0K
0;
0I
1:
1H
19
1G
08
0F
b10 7
0<
b10 E
0J
11
b10111 "
b10111 ,
b10001 0
b10000 /
b10000 .
0$
#5079125000
b10110 "
b10110 ,
z3
bz !
z2
04
0B
b10001 0
b10000 /
0A
0O
b0 5
0>
b0 C
0L
b10000 .
1$
0#
#5080125000
0%
#5274437500
b10010 "
b10010 ,
b10001 0
b10000 /
b10000 .
0$
#5469750000
b10011 "
b10011 ,
b10001 0
b10000 /
b10000 .
1$
1#
#5665062500
03
b0 !
02
14
1B
1@
1N
b1 5
1?
b1 C
1M
06
0D
1=
1K
1;
1I
0:
0H
09
0G
18
1F
b101 7
1<
b101 E
1J
01
b10001 "
b10001 ,
b10001 0
b10000 /
b10000 .
0$
#5860375000
b10000 "
b10000 ,
z3
bz !
z2
04
0B
b10001 0
b10000 /
0@
0N
b0 5
0?
b0 C
0M
b10000 .
1$
0#
#5861375000
1%
#6055687500
b110000 "
b110000 ,
b10001 0
b10000 /
b10000 .
0$
#6251000000
b110001 "
b110001 ,
b10001 0
b10000 /
b10000 .
1$
1#
#6446312500
13
b11 !
12
14
1B
1A
1O
b10 5
1>
b10 C
1L
16
1D
0=
0K
0;
0I
1:
1H
19
1G
08
0F
b10 7
0<
b10 E
0J
11
b110011 "
b110011 ,
b10001 0
b10000 /
b10000 .
0$
#6641625000
b110010 "
b110010 ,
z3
bz !
z2
04
0B
b10001 0
b10000 /
0A
0O
b0 5
0>
b0 C
0L
b10000 .
1$
0#
#6642625000
0%
#6836937500
b110110 "
b110110 ,
b10001 0
b10000 /
b10000 .
0$
#7032250000
b110111 "
b110111 ,
b10001 0
b10000 /
b10000 .
1$
1#
#7227562500
03
b0 !
02
14
1B
1@
1N
b1 5
1?
b1 C
1M
06
0D
1=
1K
1;
1I
0:
0H
09
0G
18
1F
b101 7
1<
b101 E
1J
01
b110101 "
b110101 ,
b10001 0
b10000 /
b10000 .
0$
#7422875000
b110100 "
b110100 ,
z3
bz !
z2
04
0B
b10001 0
b10000 /
0@
0N
b0 5
0?
b0 C
0M
b10000 .
1$
0#
#7423875000
1%
#7618187500
b111100 "
b111100 ,
b10001 0
b10000 /
b10000 .
0$
#7813500000
b111101 "
b111101 ,
b10001 0
b10000 /
b10000 .
1$
1#
#8008812500
13
b11 !
12
14
1B
1A
1O
b10 5
1>
b10 C
1L
16
1D
0=
0K
0;
0I
1:
1H
19
1G
08
0F
b10 7
0<
b10 E
0J
11
b111111 "
b111111 ,
b10001 0
b10000 /
b10000 .
0$
#8204125000
b111110 "
b111110 ,
z3
bz !
z2
04
0B
b10001 0
b10000 /
0A
0O
b0 5
0>
b0 C
0L
b10000 .
1$
0#
#8205125000
0%
#8399437500
b111010 "
b111010 ,
b10001 0
b10000 /
b10000 .
0$
#8594750000
b111011 "
b111011 ,
b10001 0
b10000 /
b10000 .
1$
1#
#8790062500
03
b0 !
02
14
1B
1@
1N
b1 5
1?
b1 C
1M
06
0D
1=
1K
1;
1I
0:
0H
09
0G
18
1F
b101 7
1<
b101 E
1J
01
b111001 "
b111001 ,
b10001 0
b10000 /
b10000 .
0$
#8985375000
b111000 "
b111000 ,
z3
bz !
z2
04
0B
b10001 0
b10000 /
0@
0N
b0 5
0?
b0 C
0M
b10000 .
1$
0#
#8986375000
1%
#9180687500
b101000 "
b101000 ,
b10001 0
b10000 /
b10000 .
0$
#9376000000
b101001 "
b101001 ,
b10001 0
b10000 /
b10000 .
1$
1#
#9571312500
13
b11 !
12
14
1B
1A
1O
b10 5
1>
b10 C
1L
16
1D
0=
0K
0;
0I
1:
1H
19
1G
08
0F
b10 7
0<
b10 E
0J
11
b101011 "
b101011 ,
b10001 0
b10000 /
b10000 .
0$
#9766625000
b101010 "
b101010 ,
z3
bz !
z2
04
0B
b10001 0
b10000 /
0A
0O
b0 5
0>
b0 C
0L
b10000 .
1$
0#
#9767625000
0%
#9961937500
b101110 "
b101110 ,
b10001 0
b10000 /
b10000 .
0$
#10157250000
b101111 "
b101111 ,
b10001 0
b10000 /
b10000 .
1$
1#
#10352562500
03
b0 !
02
14
1B
1@
1N
b1 5
1?
b1 C
1M
06
0D
1=
1K
1;
1I
0:
0H
09
0G
18
1F
b101 7
1<
b101 E
1J
01
b101101 "
b101101 ,
b10001 0
b10000 /
b10000 .
0$
#10547875000
b101100 "
b101100 ,
z3
bz !
z2
04
0B
b10001 0
b10000 /
0@
0N
b0 5
0?
b0 C
0M
b10000 .
1$
0#
#10548875000
1%
#10743187500
b100100 "
b100100 ,
b10001 0
b10000 /
b10000 .
0$
#10938500000
b100101 "
b100101 ,
b10001 0
b10000 /
b10000 .
1$
1#
#11133812500
13
b11 !
12
14
1B
1A
1O
b10 5
1>
b10 C
1L
16
1D
0=
0K
0;
0I
1:
1H
19
1G
08
0F
b10 7
0<
b10 E
0J
11
b100111 "
b100111 ,
b10001 0
b10000 /
b10000 .
0$
#11329125000
b100110 "
b100110 ,
z3
bz !
z2
04
0B
b10001 0
b10000 /
0A
0O
b0 5
0>
b0 C
0L
b10000 .
1$
0#
#11330125000
0%
#11524437500
b100010 "
b100010 ,
b10001 0
b10000 /
b10000 .
0$
#11719750000
b100011 "
b100011 ,
b10001 0
b10000 /
b10000 .
1$
1#
#11915062500
03
b0 !
02
14
1B
1@
1N
b1 5
1?
b1 C
1M
06
0D
1=
1K
1;
1I
0:
0H
09
0G
18
1F
b101 7
1<
b101 E
1J
01
b100001 "
b100001 ,
b10001 0
b10000 /
b10000 .
0$
#12110375000
b100000 "
b100000 ,
z3
bz !
z2
04
0B
b10001 0
b10000 /
0@
0N
b0 5
0?
b0 C
0M
b10000 .
1$
0#
#12111375000
1%
#12305687500
b1100000 "
b1100000 ,
b10001 0
b10000 /
b10000 .
0$
#12501000000
b1100001 "
b1100001 ,
b10001 0
b10000 /
b10000 .
1$
1#
#12696312500
13
b11 !
12
14
1B
1A
1O
b10 5
1>
b10 C
1L
16
1D
0=
0K
0;
0I
1:
1H
19
1G
08
0F
b10 7
0<
b10 E
0J
11
b1100011 "
b1100011 ,
b10001 0
b10000 /
b10000 .
0$
#12891625000
b1100010 "
b1100010 ,
z3
bz !
z2
04
0B
b10001 0
b10000 /
0A
0O
b0 5
0>
b0 C
0L
b10000 .
1$
0#
#12892625000
0%
#13086937500
b1100110 "
b1100110 ,
b10001 0
b10000 /
b10000 .
0$
#13282250000
b1100111 "
b1100111 ,
b10001 0
b10000 /
b10000 .
1$
1#
#13477562500
03
b0 !
02
14
1B
1@
1N
b1 5
1?
b1 C
1M
06
0D
1=
1K
1;
1I
0:
0H
09
0G
18
1F
b101 7
1<
b101 E
1J
01
b1100101 "
b1100101 ,
b10001 0
b10000 /
b10000 .
0$
#13672875000
b1100100 "
b1100100 ,
z3
bz !
z2
04
0B
b10001 0
b10000 /
0@
0N
b0 5
0?
b0 C
0M
b10000 .
1$
0#
#13673875000
1%
#13868187500
b1101100 "
b1101100 ,
b10001 0
b10000 /
b10000 .
0$
#14063500000
b1101101 "
b1101101 ,
b10001 0
b10000 /
b10000 .
1$
1#
#14258812500
13
b11 !
12
14
1B
1A
1O
b10 5
1>
b10 C
1L
16
1D
0=
0K
0;
0I
1:
1H
19
1G
08
0F
b10 7
0<
b10 E
0J
11
b1101111 "
b1101111 ,
b10001 0
b10000 /
b10000 .
0$
#14454125000
b1101110 "
b1101110 ,
z3
bz !
z2
04
0B
b10001 0
b10000 /
0A
0O
b0 5
0>
b0 C
0L
b10000 .
1$
0#
#14455125000
0%
#14649437500
b1101010 "
b1101010 ,
b10001 0
b10000 /
b10000 .
0$
#14844750000
b1101011 "
b1101011 ,
b10001 0
b10000 /
b10000 .
1$
1#
#15040062500
03
b0 !
02
14
1B
1@
1N
b1 5
1?
b1 C
1M
06
0D
1=
1K
1;
1I
0:
0H
09
0G
18
1F
b101 7
1<
b101 E
1J
01
b1101001 "
b1101001 ,
b10001 0
b10000 /
b10000 .
0$
#15235375000
b1101000 "
b1101000 ,
z3
bz !
z2
04
0B
b10001 0
b10000 /
0@
0N
b0 5
0?
b0 C
0M
b10000 .
1$
0#
#15236375000
1%
#15430687500
b1111000 "
b1111000 ,
b10001 0
b10000 /
b10000 .
0$
#15626000000
b1111001 "
b1111001 ,
b10001 0
b10000 /
b10000 .
1$
1#
#15821312500
13
b11 !
12
14
1B
1A
1O
b10 5
1>
b10 C
1L
16
1D
0=
0K
0;
0I
1:
1H
19
1G
08
0F
b10 7
0<
b10 E
0J
11
b1111011 "
b1111011 ,
b10001 0
b10000 /
b10000 .
0$
#16016625000
b1111010 "
b1111010 ,
z3
bz !
z2
04
0B
b10001 0
b10000 /
0A
0O
b0 5
0>
b0 C
0L
b10000 .
1$
0#
#16017625000
0%
#16211937500
b1111110 "
b1111110 ,
b10001 0
b10000 /
b10000 .
0$
#16407250000
b1111111 "
b1111111 ,
b10001 0
b10000 /
b10000 .
1$
1#
#16602562500
03
b0 !
02
14
1B
1@
1N
b1 5
1?
b1 C
1M
06
0D
1=
1K
1;
1I
0:
0H
09
0G
18
1F
b101 7
1<
b101 E
1J
01
b1111101 "
b1111101 ,
b10001 0
b10000 /
b10000 .
0$
#16797875000
b1111100 "
b1111100 ,
z3
bz !
z2
04
0B
b10001 0
b10000 /
0@
0N
b0 5
0?
b0 C
0M
b10000 .
1$
0#
#16798875000
1%
#16993187500
b1110100 "
b1110100 ,
b10001 0
b10000 /
b10000 .
0$
#17188500000
b1110101 "
b1110101 ,
b10001 0
b10000 /
b10000 .
1$
1#
#17383812500
13
b11 !
12
14
1B
1A
1O
b10 5
1>
b10 C
1L
16
1D
0=
0K
0;
0I
1:
1H
19
1G
08
0F
b10 7
0<
b10 E
0J
11
b1110111 "
b1110111 ,
b10001 0
b10000 /
b10000 .
0$
#17579125000
b1110110 "
b1110110 ,
z3
bz !
z2
04
0B
b10001 0
b10000 /
0A
0O
b0 5
0>
b0 C
0L
b10000 .
1$
0#
#17580125000
0%
#17774437500
b1110010 "
b1110010 ,
b10001 0
b10000 /
b10000 .
0$
#17969750000
b1110011 "
b1110011 ,
b10001 0
b10000 /
b10000 .
1$
1#
#18165062500
03
b0 !
02
14
1B
1@
1N
b1 5
1?
b1 C
1M
06
0D
1=
1K
1;
1I
0:
0H
09
0G
18
1F
b101 7
1<
b101 E
1J
01
b1110001 "
b1110001 ,
b10001 0
b10000 /
b10000 .
0$
#18360375000
b1110000 "
b1110000 ,
z3
bz !
z2
04
0B
b10001 0
b10000 /
0@
0N
b0 5
0?
b0 C
0M
b10000 .
1$
0#
#18361375000
1%
#18555687500
b1010000 "
b1010000 ,
b10001 0
b10000 /
b10000 .
0$
#18751000000
b1010001 "
b1010001 ,
b10001 0
b10000 /
b10000 .
1$
1#
#18946312500
13
b11 !
12
14
1B
1A
1O
b10 5
1>
b10 C
1L
16
1D
0=
0K
0;
0I
1:
1H
19
1G
08
0F
b10 7
0<
b10 E
0J
11
b1010011 "
b1010011 ,
b10001 0
b10000 /
b10000 .
0$
#19141625000
b1010010 "
b1010010 ,
z3
bz !
z2
04
0B
b10001 0
b10000 /
0A
0O
b0 5
0>
b0 C
0L
b10000 .
1$
0#
#19142625000
0%
#19336937500
b1010110 "
b1010110 ,
b10001 0
b10000 /
b10000 .
0$
#19532250000
b1010111 "
b1010111 ,
b10001 0
b10000 /
b10000 .
1$
1#
#19727562500
03
b0 !
02
14
1B
1@
1N
b1 5
1?
b1 C
1M
06
0D
1=
1K
1;
1I
0:
0H
09
0G
18
1F
b101 7
1<
b101 E
1J
01
b1010101 "
b1010101 ,
b10001 0
b10000 /
b10000 .
0$
#19922875000
b1010100 "
b1010100 ,
z3
bz !
z2
04
0B
b10001 0
b10000 /
0@
0N
b0 5
0?
b0 C
0M
b10000 .
1$
0#
#19923875000
1%
#20118187500
b1011100 "
b1011100 ,
b10001 0
b10000 /
b10000 .
0$
#20313500000
b1011101 "
b1011101 ,
b10001 0
b10000 /
b10000 .
1$
1#
#20508812500
13
b11 !
12
14
1B
1A
1O
b10 5
1>
b10 C
1L
16
1D
0=
0K
0;
0I
1:
1H
19
1G
08
0F
b10 7
0<
b10 E
0J
11
b1011111 "
b1011111 ,
b10001 0
b10000 /
b10000 .
0$
#20704125000
b1011110 "
b1011110 ,
z3
bz !
z2
04
0B
b10001 0
b10000 /
0A
0O
b0 5
0>
b0 C
0L
b10000 .
1$
0#
#20705125000
0%
#20899437500
b1011010 "
b1011010 ,
b10001 0
b10000 /
b10000 .
0$
#21094750000
b1011011 "
b1011011 ,
b10001 0
b10000 /
b10000 .
1$
1#
#21290062500
03
b0 !
02
14
1B
1@
1N
b1 5
1?
b1 C
1M
06
0D
1=
1K
1;
1I
0:
0H
09
0G
18
1F
b101 7
1<
b101 E
1J
01
b1011001 "
b1011001 ,
b10001 0
b10000 /
b10000 .
0$
#21485375000
b1011000 "
b1011000 ,
z3
bz !
z2
04
0B
b10001 0
b10000 /
0@
0N
b0 5
0?
b0 C
0M
b10000 .
1$
0#
#21486375000
1%
#21680687500
b1001000 "
b1001000 ,
b10001 0
b10000 /
b10000 .
0$
#21876000000
b1001001 "
b1001001 ,
b10001 0
b10000 /
b10000 .
1$
1#
#22071312500
13
b11 !
12
14
1B
1A
1O
b10 5
1>
b10 C
1L
16
1D
0=
0K
0;
0I
1:
1H
19
1G
08
0F
b10 7
0<
b10 E
0J
11
b1001011 "
b1001011 ,
b10001 0
b10000 /
b10000 .
0$
#22266625000
b1001010 "
b1001010 ,
z3
bz !
z2
04
0B
b10001 0
b10000 /
0A
0O
b0 5
0>
b0 C
0L
b10000 .
1$
0#
#22267625000
0%
#22461937500
b1001110 "
b1001110 ,
b10001 0
b10000 /
b10000 .
0$
#22657250000
b1001111 "
b1001111 ,
b10001 0
b10000 /
b10000 .
1$
1#
#22852562500
03
b0 !
02
14
1B
1@
1N
b1 5
1?
b1 C
1M
06
0D
1=
1K
1;
1I
0:
0H
09
0G
18
1F
b101 7
1<
b101 E
1J
01
b1001101 "
b1001101 ,
b10001 0
b10000 /
b10000 .
0$
#23047875000
b1001100 "
b1001100 ,
z3
bz !
z2
04
0B
b10001 0
b10000 /
0@
0N
b0 5
0?
b0 C
0M
b10000 .
1$
0#
#23048875000
1%
#23243187500
b1000100 "
b1000100 ,
b10001 0
b10000 /
b10000 .
0$
#23438500000
b1000101 "
b1000101 ,
b10001 0
b10000 /
b10000 .
1$
1#
#23633812500
13
b11 !
12
14
1B
1A
1O
b10 5
1>
b10 C
1L
16
1D
0=
0K
0;
0I
1:
1H
19
1G
08
0F
b10 7
0<
b10 E
0J
11
b1000111 "
b1000111 ,
b10001 0
b10000 /
b10000 .
0$
#23829125000
b1000110 "
b1000110 ,
z3
bz !
z2
04
0B
b10001 0
b10000 /
0A
0O
b0 5
0>
b0 C
0L
b10000 .
1$
0#
#23830125000
0%
#24024437500
b1000010 "
b1000010 ,
b10001 0
b10000 /
b10000 .
0$
#24219750000
b1000011 "
b1000011 ,
b10001 0
b10000 /
b10000 .
1$
1#
#24415062500
03
b0 !
02
14
1B
1@
1N
b1 5
1?
b1 C
1M
06
0D
1=
1K
1;
1I
0:
0H
09
0G
18
1F
b101 7
1<
b101 E
1J
01
b1000001 "
b1000001 ,
b10001 0
b10000 /
b10000 .
0$
#24610375000
b1000000 "
b1000000 ,
z3
bz !
z2
04
0B
b10001 0
b10000 /
0@
0N
b0 5
0?
b0 C
0M
b10000 .
1$
0#
#24611375000
1%
#24805687500
b11000000 "
b11000000 ,
b10001 0
b10000 /
b10000 .
0$
#25001000000
b11000001 "
b11000001 ,
b10001 0
b10000 /
b10000 .
1$
1#
#25196312500
13
b11 !
12
14
1B
1A
1O
b10 5
1>
b10 C
1L
16
1D
0=
0K
0;
0I
1:
1H
19
1G
08
0F
b10 7
0<
b10 E
0J
11
b11000011 "
b11000011 ,
b10001 0
b10000 /
b10000 .
0$
#25391625000
b11000010 "
b11000010 ,
z3
bz !
z2
04
0B
b10001 0
b10000 /
0A
0O
b0 5
0>
b0 C
0L
b10000 .
1$
0#
#25392625000
0%
#25586937500
b11000110 "
b11000110 ,
b10001 0
b10000 /
b10000 .
0$
#25782250000
b11000111 "
b11000111 ,
b10001 0
b10000 /
b10000 .
1$
1#
#25977562500
03
b0 !
02
14
1B
1@
1N
b1 5
1?
b1 C
1M
06
0D
1=
1K
1;
1I
0:
0H
09
0G
18
1F
b101 7
1<
b101 E
1J
01
b11000101 "
b11000101 ,
b10001 0
b10000 /
b10000 .
0$
#26172875000
b11000100 "
b11000100 ,
z3
bz !
z2
04
0B
b10001 0
b10000 /
0@
0N
b0 5
0?
b0 C
0M
b10000 .
1$
0#
#26173875000
1%
#26368187500
b11001100 "
b11001100 ,
b10001 0
b10000 /
b10000 .
0$
#26563500000
b11001101 "
b11001101 ,
b10001 0
b10000 /
b10000 .
1$
1#
#26758812500
13
b11 !
12
14
1B
1A
1O
b10 5
1>
b10 C
1L
16
1D
0=
0K
0;
0I
1:
1H
19
1G
08
0F
b10 7
0<
b10 E
0J
11
b11001111 "
b11001111 ,
b10001 0
b10000 /
b10000 .
0$
#26954125000
b11001110 "
b11001110 ,
z3
bz !
z2
04
0B
b10001 0
b10000 /
0A
0O
b0 5
0>
b0 C
0L
b10000 .
1$
0#
#26955125000
0%
#27149437500
b11001010 "
b11001010 ,
b10001 0
b10000 /
b10000 .
0$
#27344750000
b11001011 "
b11001011 ,
b10001 0
b10000 /
b10000 .
1$
1#
#27540062500
03
b0 !
02
14
1B
1@
1N
b1 5
1?
b1 C
1M
06
0D
1=
1K
1;
1I
0:
0H
09
0G
18
1F
b101 7
1<
b101 E
1J
01
b11001001 "
b11001001 ,
b10001 0
b10000 /
b10000 .
0$
#27735375000
b11001000 "
b11001000 ,
z3
bz !
z2
04
0B
b10001 0
b10000 /
0@
0N
b0 5
0?
b0 C
0M
b10000 .
1$
0#
#27736375000
1%
#27930687500
b11011000 "
b11011000 ,
b10001 0
b10000 /
b10000 .
0$
#28126000000
b11011001 "
b11011001 ,
b10001 0
b10000 /
b10000 .
1$
1#
#28321312500
13
b11 !
12
14
1B
1A
1O
b10 5
1>
b10 C
1L
16
1D
0=
0K
0;
0I
1:
1H
19
1G
08
0F
b10 7
0<
b10 E
0J
11
b11011011 "
b11011011 ,
b10001 0
b10000 /
b10000 .
0$
#28516625000
b11011010 "
b11011010 ,
z3
bz !
z2
04
0B
b10001 0
b10000 /
0A
0O
b0 5
0>
b0 C
0L
b10000 .
1$
0#
#28517625000
0%
#28711937500
b11011110 "
b11011110 ,
b10001 0
b10000 /
b10000 .
0$
#28907250000
b11011111 "
b11011111 ,
b10001 0
b10000 /
b10000 .
1$
1#
#29102562500
03
b0 !
02
14
1B
1@
1N
b1 5
1?
b1 C
1M
06
0D
1=
1K
1;
1I
0:
0H
09
0G
18
1F
b101 7
1<
b101 E
1J
01
b11011101 "
b11011101 ,
b10001 0
b10000 /
b10000 .
0$
#29297875000
b11011100 "
b11011100 ,
z3
bz !
z2
04
0B
b10001 0
b10000 /
0@
0N
b0 5
0?
b0 C
0M
b10000 .
1$
0#
#29298875000
1%
#29493187500
b11010100 "
b11010100 ,
b10001 0
b10000 /
b10000 .
0$
#29688500000
b11010101 "
b11010101 ,
b10001 0
b10000 /
b10000 .
1$
1#
#29883812500
13
b11 !
12
14
1B
1A
1O
b10 5
1>
b10 C
1L
16
1D
0=
0K
0;
0I
1:
1H
19
1G
08
0F
b10 7
0<
b10 E
0J
11
b11010111 "
b11010111 ,
b10001 0
b10000 /
b10000 .
0$
#30079125000
b11010110 "
b11010110 ,
z3
bz !
z2
04
0B
b10001 0
b10000 /
0A
0O
b0 5
0>
b0 C
0L
b10000 .
1$
0#
#30080125000
0%
#30274437500
b11010010 "
b11010010 ,
b10001 0
b10000 /
b10000 .
0$
#30469750000
b11010011 "
b11010011 ,
b10001 0
b10000 /
b10000 .
1$
1#
#30665062500
03
b0 !
02
14
1B
1@
1N
b1 5
1?
b1 C
1M
06
0D
1=
1K
1;
1I
0:
0H
09
0G
18
1F
b101 7
1<
b101 E
1J
01
b11010001 "
b11010001 ,
b10001 0
b10000 /
b10000 .
0$
#30860375000
b11010000 "
b11010000 ,
z3
bz !
z2
04
0B
b10001 0
b10000 /
0@
0N
b0 5
0?
b0 C
0M
b10000 .
1$
0#
#30861375000
1%
#31055687500
b11110000 "
b11110000 ,
b10001 0
b10000 /
b10000 .
0$
#31251000000
b11110001 "
b11110001 ,
b10001 0
b10000 /
b10000 .
1$
1#
#31446312500
13
b11 !
12
14
1B
1A
1O
b10 5
1>
b10 C
1L
16
1D
0=
0K
0;
0I
1:
1H
19
1G
08
0F
b10 7
0<
b10 E
0J
11
b11110011 "
b11110011 ,
b10001 0
b10000 /
b10000 .
0$
#31641625000
b11110010 "
b11110010 ,
z3
bz !
z2
04
0B
b10001 0
b10000 /
0A
0O
b0 5
0>
b0 C
0L
b10000 .
1$
0#
#31642625000
0%
#31836937500
b11110110 "
b11110110 ,
b10001 0
b10000 /
b10000 .
0$
#32032250000
b11110111 "
b11110111 ,
b10001 0
b10000 /
b10000 .
1$
1#
#32227562500
03
b0 !
02
14
1B
1@
1N
b1 5
1?
b1 C
1M
06
0D
1=
1K
1;
1I
0:
0H
09
0G
18
1F
b101 7
1<
b101 E
1J
01
b11110101 "
b11110101 ,
b10001 0
b10000 /
b10000 .
0$
#32422875000
b11110100 "
b11110100 ,
z3
bz !
z2
04
0B
b10001 0
b10000 /
0@
0N
b0 5
0?
b0 C
0M
b10000 .
1$
0#
#32423875000
1%
